Place,Name,CyrillicName,Tested,Event,Equipment,BirthDate,Division,Sex,WeightClassKg,BodyweightKg,Squat1Kg,Squat2Kg,Squat3Kg,Best3SquatKg,Bench1Kg,Bench2Kg,Bench3Kg,Best3BenchKg,Bench4Kg,Deadlift1Kg,Deadlift2Kg,Deadlift3Kg,Best3DeadliftKg,Deadlift4Kg,TotalKg
1,Svetlana Burnashova,Светлана Бурнашова,Yes,SBD,Wraps,1977-10-26,Amateur Open,F,52,51.7,95,100,-102.5,100,60,63,-65.5,63,,140,142.5,145.5,145.5,,308.5
2,Elena Grigoreva,Елена Григорьева,Yes,SBD,Wraps,1985-03-23,Amateur Open,F,52,52,60,-65,65,65,35,-40,-40,35,,70,80,85,85,,185
1,Larisa Potapovich,Лариса Потапович,Yes,SBD,Wraps,1965-11-11,Amateur Masters 45-49,F,52,50.4,60,65,-70,65,40,42.5,-45,42.5,,90,100,105,105,,212.5
DQ,Kseniya Moiseeva,Ксения Моисеева,Yes,SBD,Wraps,1997-06-12,Amateur Teen 16-17,F,56,54.2,60,-62.5,62.5,62.5,-42.5,-42.5,-42.5,,,-80,,,,,
DQ,Svetlana Okhapkina,Светлана Охапкина,Yes,SBD,Wraps,1977-02-25,Amateur Open,F,56,56,-100,-107.5,-107.5,,62.5,65,-68,65,,140,150,-155,150,,
1,Olga Tilloeva,Ольга Тиллоева,Yes,SBD,Wraps,1973-09-11,Amateur Open,F,60,57.3,80,85,90,90,55,57.5,-60,57.5,,90,97.5,105,105,,252.5
2,Elena Valieva,Елена Валиева,Yes,SBD,Wraps,1978-10-18,Amateur Open,F,60,57.4,-87.5,87.5,-92.5,87.5,57.5,-60,60,60,,95,100,105,105,,252.5
3,Olga Krayushkina,Ольга Краюшкина,Yes,SBD,Wraps,1989-04-03,Amateur Open,F,60,57.8,-80,80,-85,80,37.5,40,-42.5,40,,80,90,100,100,,220
1,Ekaterina Mayorova,Екатерина Майорова,Yes,SBD,Wraps,1970-02-06,Amateur Masters 40-44,F,60,58.6,60,70,75,75,55,-60,60,60,,75,85,90,90,,225
1,Alena Demina,Алена Демина,Yes,SBD,Wraps,1992-08-09,Amateur Juniors 20-23,F,67.5,60.8,80,-85,-85,80,-40,-45,45,45,,85,90,100,100,,225
1,Anastasiya Kovaleva,Анастасия Ковалева,Yes,SBD,Wraps,1985-10-29,Amateur Open,F,67.5,65.1,85,95,97.5,97.5,55,-60,60,60,,105,115,120,120,,277.5
2,Mariya Nechaeva,Мария Нечаева,Yes,SBD,Wraps,1987-02-23,Amateur Open,F,67.5,64.9,-75,75,85,85,45,-50,-50,45,,-90,90,100,100,,230
1,Yuliya Cheburashkina,Юлия Чебурашкина,Yes,SBD,Wraps,1981-01-23,Amateur Open,F,75,70.2,90,95,-100,95,55,60,-62.5,60,,105,115,120,120,,275
1,Alina Stepanova,Алина Степанова,Yes,SBD,Wraps,1994-08-22,Amateur Teen 18-19,F,82.5,78.9,70,80,-95,80,55,60,-65,60,,100,110,120,120,,260
1,Oleg Dvoynikov,Олег Двойников,Yes,SBD,Wraps,1960-10-08,Amateur Masters 50-54,M,60,59.9,120,-127.5,130,130,92.5,97.5,100,100,,160,170,180,180,,410
1,Artem Shasherin,Артем Шашерин,Yes,SBD,Wraps,1984-11-08,Amateur Open,M,75,73.5,175,185,-190,185,-120,125,-130,125,,200,-222.5,-222.5,200,,510
DQ,Oleg Repin,Олег Репин,Yes,SBD,Wraps,1981-02-22,Amateur Open,M,75,74.3,167.5,-175,-175,167.5,-115,-115,-115,,,-180,,,,,
DQ,Ivan Naumov,Иван Наумов,Yes,SBD,Wraps,1997-08-28,Amateur Teen 16-17,M,82.5,78.1,-185,-185,-185,,-127.5,,,,,-165,,,,,
DQ,Vladislav Mikasyan,Владислав Микасян,Yes,SBD,Wraps,1998-01-18,Amateur Teen 16-17,M,82.5,80.6,-140,-140,-140,,-100,,,,,-140,,,,,
1,Anton Maslov,Антон Маслов,Yes,SBD,Wraps,1994-06-07,Amateur Teen 18-19,M,82.5,78.5,170,180,-185,180,117.5,122.5,-125,122.5,,205,215,-222.5,215,,517.5
1,Artur Mkhitaryan,Артур Мхитарян,Yes,SBD,Wraps,1994-02-12,Amateur Juniors 20-23,M,82.5,78.7,165,175,180,180,115,122.5,-127.5,122.5,,200,207.5,-220,207.5,,510
2,Maksim Pashnin,Максим Пашнин,Yes,SBD,Wraps,1991-10-28,Amateur Juniors 20-23,M,82.5,79.7,140,155,160,160,110,117.5,,117.5,,180,190,200,200,,477.5
1,Evgeniy Zarubalov,Евгений Зарубалов,Yes,SBD,Wraps,1997-05-19,Amateur Teen 16-17,M,90,86.7,-170,175,180,180,105,-110,-110,105,,195,202.5,205,205,,490
1,Denis Feofanov,Денис Феофанов,Yes,SBD,Wraps,1980-11-11,Amateur Open,M,90,88.3,200,-210,210,210,140,145,150,150,,240,250,-255,250,,610
2,Ruslan Krapivin,Руслан Крапивин,Yes,SBD,Wraps,1982-07-01,Amateur Open,M,90,88.4,180,-182.5,-182.5,180,135,140,-142.5,140,,-200,-200,200,200,,520
3,Aleksey Ivanov,Алексей Иванов,Yes,SBD,Wraps,1989-02-19,Amateur Open,M,90,86.5,147.5,157.5,-167.5,157.5,107.5,115,120,120,,185,200,207.5,207.5,,485
1,Nikolay Shasherin,Николай Шашерин,Yes,SBD,Wraps,1987-01-20,Amateur Open,M,100,99.7,250,260,-265,260,160,165,-170,165,,250,270,,270,,695
2,Oleg Selyakov,Олег Селяков,Yes,SBD,Wraps,1983-08-24,Amateur Open,M,100,97,190,195,205,205,150,155,-160,155,,220,230,240,240,,600
3,Sergey Rubin,Сергей Рубин,Yes,SBD,Wraps,1989-12-31,Amateur Open,M,100,95.6,200,212.5,-217.5,212.5,-145,145,-152.5,145,,-220,220,240,240,,597.5
4,Aleksandr Drozdov,Александр Дроздов,Yes,SBD,Wraps,1980-02-09,Amateur Open,M,100,96.9,180,190,200,200,140,-150,150,150,,230,245,-255,245,,595
1,Ruslan Kiryanov,Руслан Кирьянов,Yes,SBD,Wraps,1972-09-01,Amateur Open,M,110,109.1,215,225,232.5,232.5,150,160,162.5,162.5,,220,230,240,240,,635
2,Aleksey Kiselev,Алексей Киселев,Yes,SBD,Wraps,1975-03-18,Amateur Open,M,110,101.7,-200,200,220,220,170,-175,-175,170,,200,220,-230,220,,610
3,Sergey Gladkikh,Сергей Гладких,Yes,SBD,Wraps,1984-05-29,Amateur Open,M,110,104.9,200,-207.5,-207.5,200,152.5,157.5,-160,157.5,,210,-217.5,-217.5,210,,567.5
1,Ruslan Kiryanov,Руслан Кирьянов,Yes,SBD,Wraps,1972-09-01,Amateur Masters 40-44,M,110,109.1,215,225,232.5,232.5,150,160,162.5,162.5,,220,230,240,240,,635
1,Anastasiya Dzyuba,Анастасия Дзюба,Yes,B,Raw,2003-10-13,Amateur Teen 13-15,F,44,42.3,,,,,45,50,-55,50,,,,,,,50
1,Anastasiya Polivanova,Анастасия Поливанова,Yes,B,Raw,1993-01-20,Amateur Juniors 20-23,F,52,45.1,,,,,-47.5,47.5,-52.5,47.5,,,,,,,47.5
2,Ekaterina Zalesova,Екатерина Залесова,Yes,B,Raw,1993-01-30,Amateur Juniors 20-23,F,52,47.7,,,,,-45,45,-47.5,45,,,,,,,45
1,Lyudmila Krasikova,Людмила Красикова,Yes,B,Raw,1979-04-26,Amateur Open,F,52,47.1,,,,,45,-52.5,-52.5,45,,,,,,,45
1,Kseniya Moiseeva,Ксения Моисеева,Yes,B,Raw,1997-06-12,Amateur Teen 16-17,F,56,54.2,,,,,42.5,-47.5,-47.5,42.5,,,,,,,42.5
1,Olga Efremova,Ольга Ефремова,Yes,B,Raw,1982-09-19,Amateur Open,F,56,55,,,,,57.5,-62.5,62.5,62.5,,,,,,,62.5
1,Alena Tretyakova,Алена Третьякова,Yes,B,Raw,1998-12-28,Amateur Teen 13-15,F,60,60,,,,,50,-52.5,-55,50,,,,,,,50
1,Aleksandra Antipina,Александра Антипина,Yes,B,Raw,1996-09-25,Amateur Teen 16-17,F,60,57.5,,,,,50,-55,-55,50,,,,,,,50
1,Natalya Lovtsova,Наталья Ловцова,Yes,B,Raw,1986-05-29,Amateur Open,F,60,59.2,,,,,80,-85,,80,,,,,,,80
2,Olga Tilloeva,Ольга Тиллоева,Yes,B,Raw,1973-09-11,Amateur Open,F,60,57.3,,,,,52.5,57.5,,57.5,,,,,,,57.5
1,Yuliya Kamorina,Юлия Каморина,Yes,B,Raw,1987-03-02,Amateur Open,F,67.5,60.6,,,,,50,55,57.5,57.5,,,,,,,57.5
1,Daniil Kashirin,Даниил Каширин,Yes,B,Raw,1999-11-24,Amateur Teen 13-15,M,56,54.5,,,,,60,65,-70,65,,,,,,,65
1,Aleksey Istomin,Алексей Истомин,Yes,B,Raw,1996-07-04,Amateur Teen 16-17,M,56,54.7,,,,,102.5,108,110,110,,,,,,,110
1,Aleksey Korotkov,Алексей Коротков,Yes,B,Raw,1976-10-24,Amateur Open,M,60,59.6,,,,,90,-97.5,97.5,97.5,,,,,,,97.5
1,Oleg Dvoynikov,Олег Двойников,Yes,B,Raw,1960-10-08,Amateur Masters 50-54,M,60,59.9,,,,,90,97.5,100,100,,,,,,,100
1,Daniil Moiseev,Даниил Моисеев,Yes,B,Raw,,Amateur Teen 13-15,M,67.5,66.5,,,,,-70,72.5,-75,72.5,,,,,,,72.5
1,Artur Simanov,Артур Симанов,Yes,B,Raw,1996-04-02,Amateur Teen 18-19,M,67.5,65.2,,,,,97.5,102.5,-107.5,102.5,,,,,,,102.5
1,Artem Oskolkov,Артем Осколков,Yes,B,Raw,1993-05-12,Amateur Juniors 20-23,M,67.5,67.2,,,,,107.5,110,-115,110,,,,,,,110
1,Dmitriy Irin,Дмитрий Ирин,Yes,B,Raw,1984-12-12,Amateur Open,M,67.5,67.4,,,,,107.5,-115,-120,107.5,,,,,,,107.5
1,Ivan Chebykin,Иван Чебыкин,Yes,B,Raw,1999-09-18,Amateur Teen 13-15,M,75,73.6,,,,,90,95,-100,95,,,,,,,95
1,Roman Bogachev,Роман Богачев,Yes,B,Raw,1996-02-07,Amateur Teen 18-19,M,75,73.7,,,,,100,105,-107.5,105,,,,,,,105
1,Artem Popov,Артем Попов,Yes,B,Raw,1991-04-08,Amateur Juniors 20-23,M,75,73.8,,,,,110,117.5,120,120,,,,,,,120
2,Movladi Gadaev,Мовлади Гадаев,Yes,B,Raw,1991-10-16,Amateur Juniors 20-23,M,75,71.2,,,,,110,117.5,-120,117.5,,,,,,,117.5
3,Aleksandr Slobodin,Александр Слободин,Yes,B,Raw,1990-05-10,Amateur Juniors 20-23,M,75,73.4,,,,,117.5,-125,-125,117.5,,,,,,,117.5
1,Nikita Shishenin,Никита Шишенин,Yes,B,Raw,1994-01-03,Amateur Juniors 20-23,M,75,69,,,,,110,-115,-115,110,,,,,,,110
2,Vladimir Popov,Владимир Попов,Yes,B,Raw,1974-10-06,Amateur Open,M,75,73.9,,,,,-140,145,-152.5,145,,,,,,,145
3,Andrey Koryakin,Андрей Корякин,Yes,B,Raw,1987-09-29,Amateur Open,M,75,73,,,,,-130,135,-142.5,135,,,,,,,135
4,Nikolay Balugin,Николай Балугин,Yes,B,Raw,1987-07-24,Amateur Open,M,75,72.7,,,,,122.5,127.5,130,130,,,,,,,130
4,Dmitriy Ipatov,Дмитрий Ипатов,Yes,B,Raw,1981-12-08,Amateur Open,M,75,73,,,,,120,-135,-135,120,,,,,,,120
6,Aleksandr Zakharov,Александр Захаров,Yes,B,Raw,1987-06-04,Amateur Open,M,75,72.8,,,,,105,-117.5,-117.5,105,,,,,,,105
DQ,Vitaliy Komarov,Виталий Комаров,Yes,B,Raw,1990-12-13,Amateur Open,M,75,72.1,,,,,-110,-117.5,-117.5,,,,,,,,
1,Roman Vasilev,Роман Васильев,Yes,B,Raw,1973-02-10,Amateur Masters 40-44,M,75,72,,,,,130,137.5,-140,137.5,,,,,,,137.5
1,Aleksandr Reutov,Александр Реутов,Yes,B,Raw,1997-06-15,Amateur Teen 16-17,M,82.5,81.9,,,,,130,-140,-140,130,,,,,,,130
2,Grigoriy Grigorev,Григорий Григорьев,Yes,B,Raw,1996-09-07,Amateur Teen 16-17,M,82.5,77.3,,,,,87.5,-92.5,-95,87.5,,,,,,,87.5
1,Nikita Golubov,Никита Голубов,Yes,B,Raw,1985-11-03,Amateur Open,M,82.5,82,,,,,160,167.5,175,175,,,,,,,175
2,Andrey Kashirin,Андрей Каширин,Yes,B,Raw,1984-07-03,Amateur Open,M,82.5,82,,,,,140,-147.5,-150,140,,,,,,,140
3,Vasiliy Vishnyakov,Василий Вишняков,Yes,B,Raw,1985-11-02,Amateur Open,M,82.5,79.3,,,,,127.5,135,-137.5,135,,,,,,,135
4,Evgeniy Aksenov,Евгений Аксенов,Yes,B,Raw,1981-09-23,Amateur Open,M,82.5,76.9,,,,,120,127.5,-145,127.5,,,,,,,127.5
DQ,Andrey Chentsov,Андрей Ченцов,Yes,B,Raw,1981-11-15,Amateur Open,M,82.5,79.1,,,,,-110,-120,-120,,,,,,,,
1,Yuriy Kurapov,Юрий Курапов,Yes,B,Raw,1990-08-29,Amateur Juniors 20-23,M,90,89.6,,,,,140,152.5,-157.5,152.5,,,,,,,152.5
2,Vladislav Surovtsev,Владислав Суровцев,Yes,B,Raw,1991-10-23,Amateur Juniors 20-23,M,90,87.9,,,,,-132.5,132.5,140,140,,,,,,,140
1,Aleksey Pavlov,Алексей Павлов,Yes,B,Raw,1978-01-18,Amateur Open,M,90,85.6,,,,,150,160,-165,160,,,,,,,160
2,Oleg Korelskiy,Олег Корельский,Yes,B,Raw,1975-09-03,Amateur Open,M,90,87.7,,,,,145,152.5,155,155,,,,,,,155
3,Sergey Nelaev,Сергей Нелаев,Yes,B,Raw,1982-03-01,Amateur Open,M,90,88.7,,,,,145,-152.5,152.5,152.5,,,,,,,152.5
4,Aleksandr Molodtsov,Александр Молодцов,Yes,B,Raw,1978-10-10,Amateur Open,M,90,88.3,,,,,132.5,137.5,-140,137.5,,,,,,,137.5
5,Aleksey Kozyrev,Алексей Козырев,Yes,B,Raw,1987-10-03,Amateur Open,M,90,83.5,,,,,110,132.5,-152.5,132.5,,,,,,,132.5
6,Dauren Mukhambetov,Даурен Мухамбетов,Yes,B,Raw,1989-04-18,Amateur Open,M,90,88.1,,,,,-117.5,-122.5,122.5,122.5,,,,,,,122.5
DQ,Aleksandr Shutkov,Александр Шутков,Yes,B,Raw,1988-03-11,Amateur Open,M,90,89.2,,,,,-120,-132.5,-132.5,,,,,,,,
1,Sergey Shamov,Сергей Шамов,Yes,B,Raw,1973-08-21,Amateur Masters 40-44,M,90,88.6,,,,,145,-152.5,-152.5,145,,,,,,,145
1,Aleksey Burkov,Алексей Бурков,Yes,B,Raw,1993-05-04,Amateur Juniors 20-23,M,100,97.8,,,,,140,145,150,150,,,,,,,150
2,Mikhail Selivanov,Михаил Селиванов,Yes,B,Raw,1992-02-07,Amateur Juniors 20-23,M,100,91.8,,,,,130,135,140,140,,,,,,,140
1,Mikhail Kanin,Михаил Канин,Yes,B,Raw,1978-07-06,Amateur Open,M,100,95.9,,,,,175,-180,-180,175,,,,,,,175
2,Yuriy Mekhedenko,Юрий Мехеденко,Yes,B,Raw,1973-03-26,Amateur Open,M,100,99,,,,,162.5,167.5,172.5,172.5,,,,,,,172.5
3,Pavel Belykh,Павел Белых,Yes,B,Raw,1980-08-06,Amateur Open,M,100,96.3,,,,,160,165,-167.5,165,,,,,,,165
4,Ernest Volykhin,Эрнест Волыхин,Yes,B,Raw,1987-10-11,Amateur Open,M,100,97.8,,,,,150,162.5,-165,162.5,,,,,,,162.5
5,Sergey Manakov,Сергей Манаков,Yes,B,Raw,1980-09-17,Amateur Open,M,100,96.3,,,,,130,140,145,145,,,,,,,145
DQ,Evgeniy Voloshin,Евгений Волошин,Yes,B,Raw,1982-08-17,Amateur Open,M,100,95.5,,,,,-175,,,,,,,,,,
1,Yuriy Mekhedenko,Юрий Мехеденко,Yes,B,Raw,1973-03-26,Amateur Masters 40-44,M,100,99,,,,,162.5,167.5,172.5,172.5,,,,,,,172.5
2,Sergey Korovin,Сергей Коровин,Yes,B,Raw,1973-11-03,Amateur Masters 40-44,M,100,91.9,,,,,135,140,145,145,,,,,,,145
3,Mikhail Esin,Михаил Есин,Yes,B,Raw,1972-11-17,Amateur Masters 40-44,M,100,99,,,,,-125,130,-140,130,,,,,,,130
1,Aleksey Stepyshev,Алексей Степышев,Yes,B,Raw,1963-05-10,Amateur Masters 50-54,M,100,96.2,,,,,120,125,-130,125,,,,,,,125
1,Vasiliy Lyakhov,Василий Ляхов,Yes,B,Raw,1948-05-30,Amateur Masters 65-69,M,100,93.1,,,,,-120,-120,120,120,,,,,,,120
1,Pavel Trukhtanov,Павел Трухтанов,Yes,B,Raw,1976-10-30,Amateur Open,M,110,102.7,,,,,-170,170,-177.5,170,,,,,,,170
2,Sergey Gladkikh,Сергей Гладких,Yes,B,Raw,1984-05-29,Amateur Open,M,110,104.9,,,,,150,,,150,,,,,,,150
1,Andrey Zhilko,Андрей Жилко,Yes,B,Raw,1972-10-06,Amateur Masters 40-44,M,110,110,,,,,-165,165,167.5,167.5,,,,,,,167.5
2,Denis Favorskiy,Денис Фаворский,Yes,B,Raw,1971-07-16,Amateur Masters 40-44,M,110,105.8,,,,,140,,,140,,,,,,,140
1,Dmitriy Malygin,Дмитрий Малыгин,Yes,B,Raw,1967-04-12,Amateur Masters 45-49,M,110,109.3,,,,,115,125,-130,125,,,,,,,125
1,Denis Ogloblin,Денис Оглоблин,Yes,B,Raw,1967-01-01,Amateur Open,M,125,120.7,,,,,205,210,-212.5,210,,,,,,,210
2,Sergey Bobchikhin,Сергей Бобчихин,Yes,B,Raw,1975-06-25,Amateur Open,M,125,119.4,,,,,195,205,-215,205,,,,,,,205
1,Denis Ogloblin,Денис Оглоблин,Yes,B,Raw,1967-01-01,Amateur Masters 45-49,M,125,120.7,,,,,205,210,-212.5,210,,,,,,,210
1,Aleksey Logunov,Алексей Логунов,Yes,B,Raw,1953-01-08,Amateur Masters 60-64,M,125,115,,,,,155,-162.5,-162.5,155,,,,,,,155
1,Roman Marachev,Роман Марачев,Yes,B,Raw,1988-01-01,Amateur Open,M,140,138.6,,,,,202.5,-210,-210,202.5,,,,,,,202.5
2,Aleksandr Tsvetaev,Александр Цветаев,Yes,B,Raw,1987-11-08,Amateur Open,M,140,139.3,,,,,200,-210,-210,200,,,,,,,200
3,Vagan Minasyan,Ваган Минасян,Yes,B,Raw,1977-08-14,Amateur Open,M,140,130.7,,,,,175,-182.5,-182.5,175,,,,,,,175
4,Evgeniy Talashov,Евгений Талашов,Yes,B,Raw,1976-03-24,Amateur Open,M,140,128.7,,,,,157.5,-165,-165,157.5,,,,,,,157.5
1,Roman Krasnoshchekov,Роман Краснощеков,Yes,SBD,Single-ply,1996-07-07,Amateur Teen 16-17,M,67.5,66.6,-170,-172.5,172.5,172.5,125,132.5,137.5,137.5,,170,180,-195,180,,490
1,Dmitriy Lyapkov,Дмитрий Ляпков,Yes,SBD,Single-ply,1994-07-03,Amateur Juniors 20-23,M,82.5,81,-165,165,172.5,172.5,120,127.5,-132.5,127.5,,180,190,-200,190,,490
1,Aleksey Prokofev,Алексей Прокофьев,Yes,B,Single-ply,1993-12-22,Amateur Juniors 20-23,M,82.5,80.8,,,,,140,150,-160,150,,,,,,,150
DQ,Aleksey Yakushevich,Алексей Якушевич,Yes,B,Single-ply,1991-07-02,Amateur Juniors 20-23,M,90,88,,,,,-230,-230,-230,,,,,,,,
DQ,Aleksey Yakushevich,Алексей Якушевич,Yes,B,Single-ply,1991-07-02,Amateur Open,M,90,88,,,,,-230,-230,-230,,,,,,,,
1,Roman Legchilin,Роман Легчилин,Yes,B,Single-ply,1991-04-01,Amateur Juniors 20-23,M,100,99.1,,,,,195,200.5,202.5,202.5,-205,,,,,,202.5
1,Aleksey Kashirin,Алексей Каширин,Yes,B,Single-ply,1973-10-09,Amateur Open,M,100,100,,,,,250,-260,260,260,,,,,,,260
1,Denis Belyaev,Денис Беляев,Yes,B,Single-ply,1975-06-27,Amateur Open,M,110,108.7,,,,,-210,210,217.5,217.5,,,,,,,217.5
DQ,Vitaliy Lopakov,Виталий Лопаков,Yes,B,Single-ply,1980-04-30,Amateur Open,M,110,107.6,,,,,-252.5,-252.5,-252.5,,,,,,,,
1,Anastasiya Lazareva,Анастасия Лазарева,Yes,D,Raw,1987-09-06,Amateur Open,F,44,43.3,,,,,,,,,,75,80,-85,80,,80
1,Svetlana Burnashova,Светлана Бурнашова,Yes,D,Raw,1977-10-26,Amateur Open,F,52,51.8,,,,,,,,,,140,143,150,150,,150
1,Marina Uzunova,Марина Узунова,Yes,D,Raw,1998-10-05,Amateur Teen 13-15,F,56,54.7,,,,,,,,,,80,90,95,95,,95
1,Svetlana Okhapkina,Светлана Охапкина,Yes,D,Raw,1977-02-25,Amateur Open,F,56,56,,,,,,,,,,142.5,-147.5,152.5,152.5,,152.5
1,Natalya Lovtsova,Наталья Ловцова,Yes,D,Raw,1986-05-29,Amateur Open,F,60,59.2,,,,,,,,,,120,130,-140.5,130,,130
2,Olga Nagornaya,Ольга Нагорная,Yes,D,Raw,1982-07-24,Amateur Open,F,60,59.4,,,,,,,,,,115,122.5,-132.5,122.5,,122.5
1,Yuliya Kamorina,Юлия Каморина,Yes,D,Raw,1987-03-02,Amateur Open,F,67.5,60.6,,,,,,,,,,90,100,110,110,,110
2,Svetlana Kuverova,Светлана Куверова,Yes,D,Raw,1989-12-17,Amateur Open,F,67.5,66.9,,,,,,,,,,90,102.5,107.5,107.5,,107.5
1,Anna Zykova,Анна Зыкова,Yes,D,Raw,1994-03-02,Amateur Juniors 20-23,F,75,72.1,,,,,,,,,,115,120,125,125,,125
1,Mariya Pinaevskaya,Мария Пинаевская,Yes,D,Raw,1995-02-19,Amateur Teen 18-19,F,82.5,81.9,,,,,,,,,,110,115,-120,115,,115
1,Ivan Prakhov,Иван Прахов,Yes,D,Raw,2000-01-11,Amateur Teen 13-15,M,56,55.3,,,,,,,,,,110,120,125,125,,125
1,Dmitriy Rozhkov,Дмитрий Рожков,Yes,D,Raw,1996-06-05,Amateur Teen 16-17,M,56,55,,,,,,,,,,142.5,152.5,162.5,162.5,,162.5
1,Sergey Elesin,Сергей Елесин,Yes,D,Raw,1990-04-05,Amateur Juniors 20-23,M,60,59.2,,,,,,,,,,132.5,-150,-150,132.5,,132.5
1,Aleksandr Osokin,Александр Осокин,Yes,D,Raw,1990-02-02,Amateur Open,M,60,58.9,,,,,,,,,,185,-195,195,195,,195
1,Daniil Sukhov,Даниил Сухов,Yes,D,Raw,1999-10-13,Amateur Teen 13-15,M,67.5,64.9,,,,,,,,,,100,110,-120,110,,110
1,Aleksandr Melekhov,Александр Мелехов,Yes,D,Raw,1996-09-12,Amateur Teen 16-17,M,67.5,65.4,,,,,,,,,,155,165,-170,165,,165
2,Andrey Ganichev,Андрей Ганичев,Yes,D,Raw,1995-09-25,Amateur Teen 16-17,M,67.5,65.6,,,,,,,,,,165,-177.5,,165,,165
1,Vitaliy Savin #2,Віталій Савін,Yes,D,Raw,1994-05-25,Amateur Teen 18-19,M,67.5,63.9,,,,,,,,,,170,-180,180,180,,180
1,Ilya Zheleznov,Илья Железнов,Yes,D,Raw,1998-05-19,Amateur Teen 13-15,M,75,72,,,,,,,,,,-165,170,-178,170,,170
2,Artem Popov,Артем Попов,Yes,D,Raw,1991-04-08,Amateur Juniors 20-23,M,75,73.8,,,,,,,,,,190,202.5,210,210,,210
1,Evgeniy Litchenkov,Евгений Литченков,Yes,D,Raw,1982-03-29,Amateur Open,M,75,73,,,,,,,,,,217.5,-232.5,232.5,232.5,,232.5
2,Eduard Nekrasov,Эдуард Некрасов,Yes,D,Raw,1981-06-05,Amateur Open,M,75,73.3,,,,,,,,,,210,-232.5,-232.5,210,,210
3,Aleksey Korotin,Алексей Коротин,Yes,D,Raw,1976-02-23,Amateur Open,M,75,72.7,,,,,,,,,,180,-195,195,195,,195
1,Andrey Polushkin,Андрей Полушкин,Yes,D,Raw,1974-02-24,Amateur Masters 40-44,M,75,74.4,,,,,,,,,,-170,180,190,190,,190
1,Vladislav Gulin,Владислав Гулин,Yes,D,Raw,1996-07-10,Amateur Teen 16-17,M,82.5,79.5,,,,,,,,,,-180,180,-215,180,,180
1,Egor Okunkov,Егор Окуньков,Yes,D,Raw,1994-12-03,Amateur Juniors 20-23,M,90,87.8,,,,,,,,,,-185,185,195,195,,195
1,Aleksandr Ilin,Александр Ильин,Yes,D,Raw,1964-11-20,Amateur Open,M,100,97.9,,,,,,,,,,267.5,275,277.5,277.5,,277.5
2,Aleksandr Drozdov,Александр Дроздов,Yes,D,Raw,1980-02-09,Amateur Open,M,100,96.9,,,,,,,,,,240,-250,,240,,240
1,Aleksandr Ilin,Александр Ильин,Yes,D,Raw,1964-11-20,Amateur Masters 45-49,M,100,97.9,,,,,,,,,,267.5,275,277.5,277.5,,277.5
1,Evgeniy Novoslov,Евгений Новослов,Yes,D,Raw,1988-12-17,Amateur Open,M,110,105.8,,,,,,,,,,210,240,-260,240,,240
2,Tariel Rurua,Тариел Руруа,Yes,D,Raw,1979-04-14,Amateur Open,M,110,106.5,,,,,,,,,,210,-225,-230,210,,210
1,Elena Enina,Елена Енина,Yes,D,Single-ply,1989-10-05,Amateur Open,F,48,47,,,,,,,,,,90,-100,-107.5,90,,90
1,Anastasiya Noskova,Анастасия Носкова,Yes,D,Single-ply,1984-02-14,Amateur Open,F,56,54.9,,,,,,,,,,-142.5,145.5,150,150,,150
1,Sergey Smirnov,Сергей Смирнов,No,SBD,Wraps,1988-06-29,Pro Open,M,75,74.5,210,-220,-230,210,165,-170,,165,,235,-250,-250,235,,610
1,Dmitriy Kovalenko,Дмитрий Коваленко,No,SBD,Wraps,1972-12-17,Pro Masters 40-44,M,75,68.7,80,90,95,95,77.5,80,82.5,82.5,,115,125,,125,,302.5
1,Dmitriy Khrunnyy,Дмитрий Хрунный,No,SBD,Wraps,1992-04-27,Pro Juniors 20-23,M,90,84.8,175,185,195,195,-135,142.5,147.5,147.5,,205,220,-230,220,,562.5
1,Vasiliy Burnashov,Василий Бурнашов,No,SBD,Wraps,1987-11-28,Pro Open,M,90,89.9,235,-245,245,245,177.5,-185,-185,177.5,,280,290,300,300,,722.5
2,Aleksey Lenkin,Алексей Ленкин,No,SBD,Wraps,1988-01-25,Pro Open,M,90,88,-217.5,217.5,,217.5,152.5,157.5,-160,157.5,,240,260,272.5,272.5,,647.5
3,Mikhail Vitovskiy,Михаил Витовский,No,SBD,Wraps,1977-01-22,Pro Open,M,90,84,185,195,205,205,155,165,172.5,172.5,,255,-275,-280,255,,632.5
1,Sergey Rumyantsev,Сергей Румянцев,No,SBD,Wraps,1965-08-28,Pro Masters 45-49,M,90,87.9,220,-230,,220,180,-190,,180,,200,240,,240,,640
1,Vasiliy Vitovskiy,Василий Витовский,No,SBD,Wraps,1960-01-06,Pro Masters 50-54,M,90,88.3,190,200,210,210,145,155,-165,155,,210,230,240,240,,605
1,Sergey Kiprukhin,Сергей Кипрухин,No,SBD,Wraps,1986-03-14,Pro Open,M,100,97.2,190,200,210,210,165,175,182.5,182.5,,230,242.5,250,250,,642.5
2,Sergey Moiseev,Сергей Моисеев,No,SBD,Wraps,1977-08-24,Pro Open,M,100,99.8,220,230,-235,230,145,-155,-155,145,,240,255,265,265,,640
3,Aleksandr Kovalev,Александр Ковалев,No,SBD,Wraps,1988-09-11,Pro Open,M,100,99,210,220,-230,220,130,135,-140,135,,240,260,-270,260,,615
1,Ilya Semenov,Илья Семенов,No,SBD,Wraps,1982-11-10,Pro Open,M,110,104.7,240,250,257.5,257.5,195,200,205,205,,260,270,280,280,,742.5
2,Oleg Skorobreshchuk,Олег Скоробрещук,No,SBD,Wraps,1977-09-27,Pro Open,M,110,101.6,240,255,-265,255,160,170,175,175,,240,255,265,265,,695
1,Sergey Daragan,Сергей Дараган,No,SBD,Wraps,1978-11-22,Pro Open,M,125,120.6,290,310,,310,210,220,,220,,365,385,-405,385,,915
1,Evgeniy Dovban,Евгений Довбань,No,SBD,Wraps,1993-06-07,Pro Juniors 20-23,M,140,140,210,230,240,240,170,185,-200,185,,230,250,-265,250,,675
1,Nikolay Sokolov,Николай Соколов,No,SBD,Single-ply,1979-07-14,Pro Open,M,75,75,300,320,-340,320,230,-240,-245,230,,-300,-300,300,300,,850
1,Roman Durnov,Роман Дурнов,No,SBD,Single-ply,1986-09-23,Pro Open,M,82.5,82.5,-270,270,-300,270,-180,180,-190,180,,210,230,-240,230,,680
DQ,Ilya Kokorev,Илья Кокорев,No,SBD,Single-ply,1973-01-19,Pro Open,M,82.5,78.2,-285,-285,-295,,,,,,,,,,,,
DQ,Ilya Kokorev,Илья Кокорев,No,SBD,Single-ply,1973-01-19,Pro Masters 40-44,M,82.5,78.2,-285,-285,-295,,,,,,,,,,,,
1,Aleksandr Osiev,Александр Осиев,No,SBD,Single-ply,1976-08-05,Pro Open,M,100,98.6,290,305,315,315,210,225,230,230,,290,305,315,315,,860
DQ,Fedor Zaytsev,Федор Зайцев,No,SBD,Single-ply,1990-08-16,Pro Juniors 20-23,M,110,106.9,270,-290,-290,270,,,,,,-260,,,,,
1,Dmitriy Grishin,Дмитрий Гришин,No,SBD,Single-ply,1986-07-07,Pro Open,M,110,106.9,-300,-300,300,300,190,200,-210,200,,250,265,-280,265,,765
1,Denis Milov,Денис Милов,No,SBD,Single-ply,1989-04-13,Pro Open,M,140,125.1,250,,,250,175,187.5,,187.5,,315,-335,-335,315,,752.5
1,Sergey Mavrenkov,Сергей Мавренков,No,SBD,Multi-ply,1966-05-11,Pro Masters 45-49,M,110,105.6,-260,265,270,270,212.5,220,225,225,,235,250,-255,250,,745
1,Evgeniy Efanov,Евгений Ефанов,No,B,Raw,1996-01-29,Pro Teen 18-19,M,75,73.5,,,,,90,95,-100,95,,,,,,,95
1,Aleksandr Rassokhin,Александр Рассохин,No,B,Raw,1985-10-08,Pro Open,M,75,74.4,,,,,-165,165,-170,165,,,,,,,165
1,Vitaliy Menshikov,Виталий Меньшиков,No,B,Raw,1987-01-12,Pro Open,M,82.5,81.5,,,,,150,160,-165,160,,,,,,,160
2,Dmitriy Savchenko,Дмитрий Савченко,No,B,Raw,1981-08-03,Pro Open,M,82.5,81.7,,,,,140,-152.5,,140,,,,,,,140
1,Artem Markov,Артем Марков,No,B,Raw,1986-08-03,Pro Open,M,90,90,,,,,-172.5,180,185,185,,,,,,,185
1,Eduard Galkov,Эдуард Гальков,No,B,Raw,1975-09-15,Pro Open,M,100,90.8,,,,,180,195,200,200,,,,,,,200
2,Ivan Solntsev,Иван Солнцев,No,B,Raw,1974-03-25,Pro Open,M,100,97.4,,,,,190,-200,-200,190,,,,,,,190
3,Evgeniy Voloshin,Евгений Волошин,No,B,Raw,1982-08-17,Pro Open,M,100,95.5,,,,,175,180,-185,180,,,,,,,180
4,Aleksandr Lyashenko,Александр Ляшенко,No,B,Raw,1977-01-22,Pro Open,M,100,96.6,,,,,140,150,-160,150,,,,,,,150
1,Sergey Kartavov,Сергей Картавов,No,B,Raw,1966-04-10,Pro Masters 45-49,M,100,98.5,,,,,155,-165,,155,,,,,,,155
1,Damir Kuzeev,Дамир Кузеев,No,B,Raw,1952-05-14,Pro Masters 60-64,M,100,100,,,,,180,-190.5,190.5,190.5,,,,,,,190.5
1,Ivan Smyslov,Иван Смыслов,No,B,Raw,1985-04-13,Pro Open,M,110,108.2,,,,,190,205,215,215,,,,,,,215
2,Sergey Popov,Сергей Попов,No,B,Raw,1977-01-05,Pro Open,M,110,109.9,,,,,200,210,-217.5,210,,,,,,,210
3,Vasiliy Kolybelin,Василий Колыбелин,No,B,Raw,1976-12-27,Pro Open,M,110,104.3,,,,,185,197.5,-205,197.5,,,,,,,197.5
4,Mikhail Khomutov,Михаил Хомутов,No,B,Raw,1981-04-28,Pro Open,M,110,106.1,,,,,170,180,185,185,,,,,,,185
1,Oleg Mironov,Олег Миронов,No,B,Raw,1972-03-11,Pro Masters 40-44,M,110,103.2,,,,,130,140,150,150,,,,,,,150
1,Igor Kurotchenko,Игорь Куротченко,No,B,Raw,1962-03-11,Pro Masters 50-54,M,110,108.2,,,,,130,140,150,150,,,,,,,150
1,Stanislav Kolachev,Станислав Колачев,No,B,Raw,1987-03-20,Pro Open,M,125,122.7,,,,,235,245,255,255,,,,,,,255
2,Ilya Kalininskiy,Илья Калининский,No,B,Raw,1989-04-11,Pro Open,M,125,115.1,,,,,225,235,-240,235,,,,,,,235
3,Mikhail Rumyantsev,Михаил Румянцев,No,B,Raw,1985-04-12,Pro Open,M,125,119.2,,,,,210,220,-230,220,,,,,,,220
1,Andrey Petrov,Андрей Петров,No,B,Raw,1981-09-30,Pro Open,M,140,126,,,,,215,225,-230,225,,,,,,,225
2,Andrey Ushakov,Андрей Ушаков,No,B,Raw,1980-12-01,Pro Open,M,140,131.7,,,,,205,210,-215,210,,,,,,,210
3,Viktor Krylov,Виктор Крылов,No,B,Raw,1985-05-20,Pro Open,M,140,126.6,,,,,200,207.5,-215,207.5,,,,,,,207.5
1,Kirill Kayava,Кирилл Каява,No,B,Raw,1976-06-24,Pro Open,M,140+,142,,,,,220,230,237.5,237.5,,,,,,,237.5
1,Yuriy Eremin,Юрий Еремин,No,B,Multi-ply,1983-11-23,Pro Open,M,82.5,80,,,,,200,210,-220,210,,,,,,,210
DQ,Sergey Stepichev,Сергей Степичев,No,B,Multi-ply,1977-06-07,Pro Open,M,90,85.6,,,,,-200,-205,-205,,,,,,,,
1,Dmitriy Savchenko,Дмитрий Савченко,No,B,Single-ply,1981-08-03,Pro Open,M,82.5,81.7,,,,,155,170,185,185,,,,,,,185
1,Sergey Denzhakov,Сергей Деньжаков,No,B,Single-ply,1989-05-05,Pro Open,M,90,87.5,,,,,200,215,-225,215,,,,,,,215
1,Andrey Chebykin,Андрей Чебыкин,No,B,Single-ply,1976-03-26,Pro Open,M,110,109.3,,,,,-250,260,275,275,,,,,,,275
2,Nikolay Glazev,Николай Глазьев,No,B,Single-ply,1983-10-29,Pro Open,M,110,108.8,,,,,197.5,207.5,215,215,,,,,,,215
1,Oleg Mironov,Олег Миронов,No,B,Single-ply,1973-01-11,Pro Masters 40-44,M,110,103.2,,,,,150,160,170,170,,,,,,,170
1,Dmitriy Shishlyannikov,Дмитрий Шишлянников,No,B,Single-ply,1980-04-23,Pro Open,M,140,137,,,,,245,260,272.5,272.5,,,,,,,272.5
1,Anna Sverchkova,Анна Сверчкова,No,D,Raw,1991-04-22,Pro Juniors 20-23,F,67.5,66.7,,,,,,,,,,110,125,-140,125,,125
1,Nikita Letuchin,Никита Летучин,No,D,Raw,1994-07-10,Pro Teen 18-19,M,82.5,79.2,,,,,,,,,,190,210,-222.5,210,,210
1,Roman Koroglishvili,Роман Короглишвили,No,D,Raw,1992-01-01,Pro Juniors 20-23,M,82.5,82,,,,,,,,,,220,235,250,250,,250
1,Dmitriy Onuchin,Дмитрий Онучин,No,D,Raw,1994-11-11,Pro Teen 18-19,M,90,84,,,,,,,,,,-200,200,-220,200,,200
DQ,Nikolay Durapov,Николай Дурапов,No,D,Raw,1980-07-17,Pro Open,M,90,84.4,,,,,,,,,,-300,-310,-310,,,
1,Sergey Moiseev,Сергей Моисеев,No,D,Raw,1977-08-24,Pro Open,M,100,99.8,,,,,,,,,,260,-277.5,277.5,277.5,,277.5
DQ,Lev Golov,Лев Голов,No,D,Raw,1989-08-19,Pro Open,M,100,98.7,,,,,,,,,,-305,-305,,,,
1,Denis Nagibin,Денис Нагибин,No,D,Raw,1986-08-14,Pro Open,M,125,120.3,,,,,,,,,,270,295,-300,295,,295
2,Evgeniy Yushchenko,Евгений Ющенко,No,D,Raw,1985-07-11,Pro Open,M,125,119.5,,,,,,,,,,220,240,250,250,,250
1,Alexander Klyushev,Александр Клюшев,No,D,Raw,1983-12-23,Pro Open,M,140,140,,,,,,,,,,380,400,407.5,407.5,,407.5
2,Oleg Livshits,Олег Лившиц,No,D,Raw,1973-10-02,Pro Open,M,140,134.9,,,,,,,,,,350,-372.5,-380,350,,350
3,Andrey Ushakov,Андрей Ушаков,No,D,Raw,1980-12-01,Pro Open,M,140,131.7,,,,,,,,,,280,302.5,320,320,,320
1,Oleg Livshits,Олег Лившиц,No,D,Raw,1973-10-02,Pro Masters 40-44,M,140,134.9,,,,,,,,,,350,-372.5,-380,350,,350
1,Vladimir Kalinichenko,Владимир Калиниченко,No,D,Raw,1972-11-06,Pro Open,M,140+,151.8,,,,,,,,,,340,355,370,370,,370
1,Vladimir Kalinichenko,Владимир Калиниченко,No,D,Raw,1972-11-06,Pro Masters 40-44,M,140+,151.8,,,,,,,,,,340,355,370,370,,370
1,Vsevolod Smirnov,Всеволод Смирнов,No,D,Single-ply,1993-08-02,Pro Juniors 20-23,M,75,73.2,,,,,,,,,,160,187.5,200,200,210,200
1,Vladimir Urazov,Владимир Уразов,No,D,Single-ply,1967-10-12,Pro Open,M,82.5,81.2,,,,,,,,,,230,245,-260,245,,245
DQ,Denis Milov,Денис Милов,No,D,Single-ply,1989-04-13,Pro Open,M,140,125.1,,,,,,,,,,-315,-315,,-315,,
1,Aleksandr Konev,Александр Конев,No,B,Raw,1987-02-11,Pro Disabled,M,60,59.5,,,,,100,105,-110,105,,,,,,,105
1,Aleksandr Lyzhin,Александр Лыжин,No,B,Raw,1983-08-24,Pro Disabled,M,75,74.4,,,,,100,110,120,120,,,,,,,120
1,Sergey Stupin,Сергей Ступин,No,B,Raw,1988-08-23,Pro Disabled,M,82.5,77,,,,,80,-85,-85,80,,,,,,,80
G,Stanislav Goryachev,Станислав Горячев,No,B,Raw,1975-06-05,Pro Disabled,M,140,129,,,,,-170,170,-180,170,,,,,,,170
