Name,Team,Division,BodyweightKg,WeightClassKg,Squat1Kg,Squat2Kg,Squat3Kg,Best3SquatKg,Bench1Kg,Bench2Kg,Bench3Kg,Best3BenchKg,Deadlift1Kg,Deadlift2Kg,Deadlift3Kg,Best3DeadliftKg,TotalKg,Place,Sex,Equipment,Event
Robin Bermudez,NM,MR-O,58.8,59,165,175,180,180,100,107.5,-112.5,107.5,177.5,190,207.5,207.5,495,1,M,Raw,SBD
Ben Hampson,EM,MR-O,58.3,59,162.5,170,180,180,107.5,112.5,115.5,115.5,177.5,190,197.5,197.5,493,2,M,Raw,SBD
Aftab Uddin,GL,MR-O,58.7,59,145,152.5,157.5,157.5,100,102.5,-105,102.5,212.5,227.5,-235.5,227.5,487.5,3,M,Raw,SBD
Luca Michael,GL,MR-O,58.5,59,150,-160,-160,150,100,105,-110,105,-200,205,210,210,465,4,M,Raw,SBD
Shaun Bateman,SW,MR-O,58.4,59,135,145,-150,145,100,105,107.5,107.5,175,185,190,190,442.5,5,M,Raw,SBD
Robert Samuel,YNE,MR-O,65.6,66,205,215.5,222.5,222.5,117.5,-122.5,122.5,122.5,210,220,-230,220,565,1,M,Raw,SBD
Joseph Diva,GL,MR-O,65.4,66,175,185,190,190,130,-140,-140,130,205,215,-230,215,535,2,M,Raw,SBD
Ben Johnson #7,EM,MR-O,65.7,66,165,-167.5,182.5,182.5,117.5,-127.5,-127.5,117.5,205,215,225,225,525,3,M,Raw,SBD
Rodrick Ramsey,SM,MR-O,65.6,66,167.5,180,-185,180,100,-107.5,107.5,107.5,207.5,217.5,-237.5,217.5,505,4,M,Raw,SBD
Ibnu Haji Mohamammad,NM,MR-O,66,66,175,-177.5,-185,175,102.5,107.5,-112.5,107.5,202.5,215,-225,215,497.5,5,M,Raw,SBD
William George,GL,MR-O,65.5,66,-160,160,-170,160,100,-110,-110,100,220,-230,-230,220,480,6,M,Raw,SBD
John Devlin,SM,MR-O,66,66,155,165,-175,165,105,-112.5,-112.5,105,40,,,40,310,7,M,Raw,SBD
Luke Rogers #1,WM,MR-O,73.6,74,225,240,247.5,247.5,132.5,137.5,142.5,142.5,260,277.5,295,295,685,1,M,Raw,SBD
Christopher Wong,SCO,MR-O,72.5,74,230,240,250,250,135,142.5,-145,142.5,265,282.5,290,290,682.5,2,M,Raw,SBD
Alexander Espin,GL,MR-O,73.2,74,217.5,-230,230,230,127.5,135,-137.5,135,-285,285,-310.5,285,650,3,M,Raw,SBD
Sunil Chahal,WM,MR-O,73.3,74,195,215,222.5,222.5,-160,167.5,-172.5,167.5,205,225,232.5,232.5,622.5,4,M,Raw,SBD
Jordan Partington,SW,MR-O,72.1,74,212.5,225,235,235,130,137.5,142.5,142.5,217.5,230,242.5,242.5,620,5,M,Raw,SBD
Steven Tyers,SW,MR-O,73.8,74,205,217.5,225,225,130,137.5,142.5,142.5,225,240,-255,240,607.5,6,M,Raw,SBD
Alex Fodor,NM,MR-O,73.5,74,202.5,212.5,220,220,127.5,132.5,-137.5,132.5,237.5,250,-265,250,602.5,7,M,Raw,SBD
Andrew Ward #1,WM,MR-O,73,74,190,202.5,-210,202.5,142.5,-150,-150,142.5,210,225,235,235,580,8,M,Raw,SBD
Sammy Holt,WAL,MR-O,72.6,74,200,210,-217.5,210,-107.5,-107.5,107.5,107.5,237.5,250,-255,250,567.5,9,M,Raw,SBD
Alex Keyworth,NM,MR-O,74,74,-190,190,-192.5,190,135,140,-145,140,190,200,210,210,540,10,M,Raw,SBD
Adam Hamilton,GL,MR-O,73.6,74,-205,-205,205,205,-115,115,-120,115,200,210,-215,210,530,11,M,Raw,SBD
Todd Davidson,GL,MR-O,72.7,74,165,172.5,180,180,110,115,-117.5,115,195,210,220,220,515,12,M,Raw,SBD
Thomas Goodspeed,SW,MR-O,73.6,74,162.5,172.5,-180,172.5,-122.5,122.5,127.5,127.5,200,212.5,,212.5,512.5,13,M,Raw,SBD
John Corcoran,GL,MR-O,70.5,74,175,182.5,-187.5,182.5,95,100,-102.5,100,195,210,220,220,502.5,14,M,Raw,SBD
Daryl Brooks,SE,MR-O,72.9,74,162.5,175,-182.5,175,100,105,110,110,205,215,-220,215,500,15,M,Raw,SBD
Christian Ayandokun,SW,MR-O,82,83,237.5,252.5,260,260,157.5,167.5,172.5,172.5,287.5,306,310.5,310.5,743,1,M,Raw,SBD
Jurins Kengamu,GL,MR-O,80.6,83,262.5,275,-280,275,152.5,160,165,165,292.5,-302.5,-302.5,292.5,732.5,2,M,Raw,SBD
Christopher Teague,WM,MR-O,82.9,83,230,242.5,247.5,247.5,170,175,180,180,245,265,-272.5,265,692.5,3,M,Raw,SBD
Diego Martinez-Rodney,GL,MR-O,82,83,220,232.5,240,240,140,147.5,152.5,152.5,270,285,292.5,292.5,685,4,M,Raw,SBD
Jack Suljevic,SW,MR-O,82.6,83,242.5,255,262.5,262.5,130,137.5,-142.5,137.5,260,277.5,-292.5,277.5,677.5,5,M,Raw,SBD
Iman Salemi,SM,MR-O,80.4,83,237.5,247.5,-255,247.5,147.5,152.5,157.5,157.5,252.5,265,-272.5,265,670,6,M,Raw,SBD
Lewis Walker,SCO,MR-O,80.4,83,230,242.5,-252.5,242.5,137.5,142.5,145,145,245,257.5,265,265,652.5,7,M,Raw,SBD
Liam Belcher,GL,MR-O,82.5,83,200,210,220,220,140,150,155,155,220,240,250,250,625,8,M,Raw,SBD
Thomas Saunders,EM,MR-O,81.8,83,185,197.5,207.5,207.5,132.5,140,-145,140,220,235,242.5,242.5,590,9,M,Raw,SBD
Adam Ferrett,SW,MR-O,82.3,83,195,205,210,210,115,-120,-120,115,260,-275,-275,260,585,10,M,Raw,SBD
Anthony White #1,YNE,MR-O,82.8,83,182.5,192.5,200,200,117.5,122.5,127.5,127.5,220,235,250,250,577.5,11,M,Raw,SBD
Ashley Liston,WM,MR-O,92.6,93,245,260,265,265,187.5,197.5,202.5,202.5,295,310,312.5,312.5,780,1,M,Raw,SBD
Hendrick Famutimi,GL,MR-O,92.7,93,255,267.5,272.5,272.5,162.5,167.5,-170,167.5,312.5,327.5,-342.5,327.5,767.5,2,M,Raw,SBD
Erik Mata,EM,MR-O,92.5,93,255,270,277.5,277.5,175,-185,185,185,275,290,297.5,297.5,760,3,M,Raw,SBD
Adam Fulat,GL,MR-O,92.7,93,250,270,277.5,277.5,160,170,-175,170,280,300,-315,300,747.5,4,M,Raw,SBD
Ramone Burton,SW,MR-O,88.6,93,220,235,240,240,150,160,167.5,167.5,300,310,320,320,727.5,5,M,Raw,SBD
Hugo Duarte,EM,MR-O,92.1,93,255,267.5,275,275,-147.5,147.5,152.5,152.5,280,292.5,-295,292.5,720,6,M,Raw,SBD
Pierre Shillingford,GL,MR-O,92.3,93,245,255,-262.5,255,170,-180,-180,170,292.5,-305,,292.5,717.5,7,M,Raw,SBD
Lenny Oseni,GL,MR-O,92.6,93,230,245,-252.5,245,160,170,-175,170,265,280,,280,695,8,M,Raw,SBD
Hamed Farjam,NM,MR-O,91.2,93,240,-242.5,-257.5,240,150,-160,-160,150,280,300,-312.5,300,690,9,M,Raw,SBD
Peter Smith,EM,MR-O,91.8,93,225,242.5,252.5,252.5,130,137.5,-147.5,137.5,245,260,280,280,670,10,M,Raw,SBD
Bartek Biernacki,WM,MR-O,92.2,93,227.5,240,250,250,130,140,142.5,142.5,255,275,-287.5,275,667.5,11,M,Raw,SBD
Yusufu Shehu,SE,MR-O,91.3,93,207.5,217.5,227.5,227.5,142.5,150,-155,150,260,272.5,280,280,657.5,12,M,Raw,SBD
Benjamin Jenkins,NW,MR-O,90.3,93,227.5,242.5,250,250,-132.5,-137.5,137.5,137.5,240,257.5,-272.5,257.5,645,13,M,Raw,SBD
Declan Powell,GL,MR-O,87.3,93,200,212.5,222.5,222.5,155,-162.5,162.5,162.5,227.5,240,250,250,635,14,M,Raw,SBD
Richard Cooper,SE,MR-O,89.7,93,200,210,-215,210,150,-160,-160,150,250,265,275,275,635,15,M,Raw,SBD
Sam Dawkins,WAL,MR-O,90.4,93,220,-232.5,232.5,232.5,145,-152.5,152.5,152.5,225,245,-260,245,630,16,M,Raw,SBD
Tom Jenkins,EM,MR-O,91.8,93,197.5,215,225,225,130,137.5,142.5,142.5,220,240,255,255,622.5,17,M,Raw,SBD
Brady Crooks,YNE,MR-O,92.6,93,-210,210,222.5,222.5,140,147.5,-155,147.5,230,245,-257.5,245,615,18,M,Raw,SBD
Sam Watt,YNE,MR-O,104.7,105,-302.5,310,327.5,327.5,175,-185,-185,175,315,340,341.5,341.5,844,1,M,Raw,SBD
Joshua Greenfield,YNE,MR-O,105,105,317.5,336.5,345.5,345.5,172.5,180,185,185,290,310,-325,310,840.5,2,M,Raw,SBD
Michael Pennington,NM,MR-O,104.6,105,265,275,282.5,282.5,190,200,-202.5,200,310,330,335,335,817.5,3,M,Raw,SBD
Aaron Hull,YNE,MR-O,103.8,105,285,300,-305,300,200,215,-222.5,215,285,300,-310,300,815,4,M,Raw,SBD
Thomas Brannick,SM,MR-O,104.7,105,-272.5,-272.5,272.5,272.5,182.5,195,-205,195,285,300,-310,300,767.5,5,M,Raw,SBD
Scott McAlpine,SCO,MR-O,101.6,105,-280,280,-290,280,180,185,-190,185,300,-310,-315,300,765,6,M,Raw,SBD
Ross Brimsted,SE,MR-O,104.3,105,267.5,-282.5,-282.5,267.5,170,177.5,182.5,182.5,300,-317.5,-322.5,300,750,7,M,Raw,SBD
James Blundel,EM,MR-O,103.4,105,240,255,-270,255,170,180,187.5,187.5,275,300,-320,300,742.5,8,M,Raw,SBD
Michael Tennant,SE,MR-O,102.5,105,237.5,252.5,260,260,147.5,155,-160,155,290,310,-320,310,725,9,M,Raw,SBD
Chris Patterson,SM,MR-O,103.9,105,245,260,-265,260,160,-165,-165,160,250,275,282.5,282.5,702.5,10,M,Raw,SBD
Doug Arnold,WAL,MR-O,102.5,105,245,255,-265,255,132.5,140,-145,140,275,290,-295,290,685,11,M,Raw,SBD
Mark Topham,YNE,MR-O,104.5,105,212.5,217.5,-222.5,217.5,170,175,180,180,270,280,-285,280,677.5,12,M,Raw,SBD
Dave Downs,SE,MR-O,103.2,105,230,240,-247.5,240,140,150,-155,150,260,-270,272.5,272.5,662.5,13,M,Raw,SBD
Matt Greenhalgh,SW,MR-O,104.2,105,220,230,240,240,140,145,150,150,247.5,-260,-262.5,247.5,637.5,14,M,Raw,SBD
Paul Olowogboye,GL,MR-O,103.6,105,270,-275,-275,270,150,157.5,-162.5,157.5,-270,-270,,,,DQ,M,Raw,SBD
Tony Cliffe,NW,MR-O,119,120,305,320,-330,320,225,235,-245,235,310,335,-363.5,335,890,1,M,Raw,SBD
Joseph Walton #1,WAL,MR-O,118.5,120,310,325,-332.5,325,175,182.5,187.5,187.5,290,310,-325,310,822.5,2,M,Raw,SBD
Francis Sanders,EM,MR-O,119.3,120,265,285,300,300,162.5,170,175,175,295,315,325,325,800,3,M,Raw,SBD
Joe Martin,SE,MR-O,113.6,120,260,272.5,280,280,177.5,187.5,-190,187.5,272.5,287.5,-302.5,287.5,755,4,M,Raw,SBD
Elliot Leadbeater,SW,MR-O,118.1,120,242.5,255,265,265,155,165,170,170,272.5,287.5,300,300,735,5,M,Raw,SBD
Angus Hopkins,SE,MR-O,115.6,120,230,242.5,-250,242.5,165,175,-180,175,240,255,265,265,682.5,6,M,Raw,SBD
Jack Morecroft,SE,MR-O,113.5,120,215,227.5,235,235,145,152.5,-157.5,152.5,245,260,267.5,267.5,655,7,M,Raw,SBD
Steven Cuthbert,YNE,MR-O,116.2,120,227.5,242.5,255,255,125,132.5,140,140,240,260,-272.5,260,655,8,M,Raw,SBD
Wesley Hall #1,WM,MR-O,131.9,120+,305,325,-335,325,200,-210,-210,200,315,330,350,350,875,1,M,Raw,SBD
Ajay Sharma,WM,MR-O,140.4,120+,300,-320,320,320,200,212.5,-217.5,212.5,300,315,-325,315,847.5,2,M,Raw,SBD
Ross Shahin-Ajerlo,NW,MR-O,128.4,120+,237.5,-240,250,250,192.5,205,212.5,212.5,282.5,302.5,310,310,772.5,3,M,Raw,SBD
