WeightClassKg,Event,Sex,Equipment,Division,Name,Best3BenchKg,Best3DeadliftKg,TotalKg,State,Country,Bench4Kg,Deadlift4Kg,Place
56,B,M,Single-ply,Elite Open,Eric Head,182.5,,182.5,GA,USA,187.5,,1
75,B,M,Single-ply,Elite Open,Ray Hickman,253,,253,OR,USA,,,1
140,B,M,Single-ply,Elite Open,Tiny Meeker,408.5,,408.5,TX,USA,,,1
140+,B,M,Single-ply,Elite Open,Mike Womack,,,,CA,USA,,,DQ
60,B,M,Single-ply,Open,Charles Venturella,172.5,,172.5,PA,USA,,,1
67.5,B,M,Single-ply,Open,David R Smith,180,,180,TX,USA,,,1
67.5,B,M,Single-ply,Open,Carlito Bareng,172.5,,172.5,CA,USA,,,2
67.5,B,M,Single-ply,Open,Willis McCoy,125,,125,OH,USA,,,4
67.5,B,M,Single-ply,Open,Paul Wach,95,,95,UT,USA,,,5
75,B,M,Single-ply,Open,Jon Cunningham,191,,191,UT,USA,,,1
75,B,M,Single-ply,Open,Justin Bittner,170,,170,PA,USA,,,2
75,B,M,Single-ply,Open,John Petersen,165.5,,165.5,WI,USA,,,4
75,B,M,Single-ply,Open,Fulton White,152.5,,152.5,NV,USA,,,7
75,B,M,Single-ply,Open,Dave Constantineau,150.5,,150.5,WI,USA,,,8
75,B,M,Single-ply,Open,Dan Hanson,,,,MN,USA,,,DQ
82.5,B,M,Single-ply,Open,Josh Decker,250,,250,MI,USA,,,1
82.5,B,M,Single-ply,Open,Andy Furnas,230,,230,OH,USA,,,2
82.5,B,M,Single-ply,Open,Ryan Harris,227.5,,227.5,OR,USA,,,3
82.5,B,M,Single-ply,Open,Chris Rayner,190,,190,OK,USA,,,4
82.5,B,M,Single-ply,Open,Don Linerud,,,,ID,USA,,,DQ
82.5,B,M,Single-ply,Open,Jeff Sussman,,,,CO,USA,,,DQ
90,B,M,Single-ply,Open,Trey Jewett,300.5,,300.5,TX,USA,,,1
90,B,M,Single-ply,Open,Kim Päivöke,250,,250,,Finland,,,2
90,B,M,Single-ply,Open,Jody Woods,250,,250,CA,USA,,,3
90,B,M,Single-ply,Open,Coby Washburn,240,,240,TX,USA,,,4
90,B,M,Single-ply,Open,Byron Beebe,192.5,,192.5,OR,USA,,,6
90,B,M,Single-ply,Open,Jason Frickey,182.5,,182.5,LA,USA,,,8
90,B,M,Single-ply,Open,Steve Urueta,180,,180,OR,USA,,,9
90,B,M,Single-ply,Open,Joe Young,175,,175,NV,USA,,,11
90,B,M,Single-ply,Open,Bob Hill,147.5,,147.5,OR,USA,,,12
90,B,M,Single-ply,Open,Ben Brizendine,,,,OR,USA,,,DQ
100,B,M,Single-ply,Open,Rick Marrama,307.5,,307.5,MA,USA,,,1
100,B,M,Single-ply,Open,Petri Hietamäki,280,,280,,Finland,,,2
100,B,M,Single-ply,Open,Kenneth Millrany,277.5,,277.5,TN,USA,,,3
100,B,M,Single-ply,Open,Matt Vinopal,245,,245,WI,USA,,,4
100,B,M,Single-ply,Open,Matthew Ogurek,240,,240,MI,USA,,,5
100,B,M,Single-ply,Open,Rob Golgano,240,,240,ME,USA,,,6
100,B,M,Single-ply,Open,James Houston,240,,240,CA,USA,,,7
100,B,M,Single-ply,Open,Tatu Avola,240,,240,,Finland,,,8
100,B,M,Single-ply,Open,Will Beavers,237.5,,237.5,CA,USA,,,9
100,B,M,Single-ply,Open,Juha Pukkila,220.5,,220.5,,Finland,,,12
100,B,M,Single-ply,Open,Matt Bell,205,,205,IL,USA,,,13
100,B,M,Single-ply,Open,Ryan Duble,187.5,,187.5,OR,USA,,,14
110,B,M,Single-ply,Open,James Hunter,300,,300,CA,USA,,,1
110,B,M,Single-ply,Open,Joey Murphy,265,,265,GA,USA,,,2
110,B,M,Single-ply,Open,Carlton James Jr,242.5,,242.5,TX,USA,,,3
110,B,M,Single-ply,Open,Tyson Eugene Baker,155,,155,OR,USA,,,4
110,B,M,Single-ply,Open,Mark Fierro,,,,CO,USA,,,DQ
117.5,B,M,Single-ply,Open,Adrian Larsen,322.5,,322.5,OR,USA,,,1
117.5,B,M,Single-ply,Open,Tom Emelander,318,,318,TX,USA,,,2
117.5,B,M,Single-ply,Open,John Erickson,300,,300,OK,USA,,,3
117.5,B,M,Single-ply,Open,Marc Villarreal,257.5,,257.5,TX,USA,,,4
117.5,B,M,Single-ply,Open,Daniel Reeves,,,,AZ,USA,,,DQ
125,B,M,Single-ply,Open,Patrick Holloway,290,,290,AZ,USA,,,1
125,B,M,Single-ply,Open,Jani Toivo Kristian Ihalainen,275,,275,,Finland,,,2
125,B,M,Single-ply,Open,Chris Henry,240,,240,OR,USA,,,4
140,B,M,Single-ply,Open,Bill Gillespie,342.5,,342.5,VA,USA,,,1
140,B,M,Single-ply,Open,Roger Ryan,300,,300,IL,USA,,,2
140,B,M,Single-ply,Open,John Hudson,290,,290,TX,USA,,,3
140,B,M,Single-ply,Open,Frederick Alexander,285,,285,TX,USA,,,4
140,B,M,Single-ply,Open,Jerry Pritchett,250,,250,AZ,USA,,,5
140,B,M,Single-ply,Open,Forest Hofer,247.5,,247.5,WA,USA,,,6
140,B,M,Single-ply,Open,Joe Mickelson,225,,225,WA,USA,,,8
140+,B,M,Single-ply,Open,James Crawford III,345,,345,WA,USA,,,1
140+,B,M,Single-ply,Open,James Mersberg,312.5,,312.5,HI,USA,,,2
60,B,M,Single-ply,Open,Carlos Daniel Escobedo,95,,95,CA,USA,,,2
67.5,B,M,Single-ply,Open,Mathieu Coudriaud,145,,145,,,,,3
75,B,M,Single-ply,Open,Aramiq Amirchian,167.5,,167.5,AZ,USA,,,3
75,B,M,Single-ply,Open,Jed Lee,162.5,,162.5,OH,USA,,,5
75,B,M,Single-ply,Open,Dan Hanson,155,,155,MN,USA,,,6
82.5,B,M,Single-ply,Open,Miguel Guillen,185,,185,MI,USA,,,5
82.5,B,M,Single-ply,Open,Jay Huitt,182.5,,182.5,OR,USA,,,6
90,B,M,Single-ply,Open,Nick Berriman,205,,205,OR,USA,,,5
90,B,M,Single-ply,Open,David Onan,190,,190,MN,USA,,,7
90,B,M,Single-ply,Open,Steve Urueta,180,,180,OR,USA,,,10
100,B,M,Single-ply,Open,David Bradshaw,237.5,,237.5,CA,USA,,,10
100,B,M,Single-ply,Open,Bryan Haney,223,,223,OH,USA,,,11
100,B,M,Single-ply,Open,Kyle Herzik,182.5,,182.5,NV,USA,,,15
100,B,M,Single-ply,Open,Dylan Wentz,172.5,,172.5,OR,USA,,,16
110,B,M,Single-ply,Open,Leonard Pokora,,,,MI,USA,,,DQ
117.5,B,M,Single-ply,Open,Mike Drake,227.5,,227.5,CA,USA,,,5
117.5,B,M,Single-ply,Open,Al Suarez,145,,145,FL,USA,,,6
125,B,M,Single-ply,Open,Bill Welch,242.5,,242.5,TN,USA,,,3
125,B,M,Single-ply,Open,Jim Presley,240,,240,CA,USA,,,5
125,B,M,Single-ply,Open,Sergio Gonzalez,145,,145,FL,USA,,,6
140,B,M,Single-ply,Open,Tracy Lundin,240,,240,OR,USA,,,7
140,B,M,Single-ply,Open,Alan Aerts,217.5,,217.5,CA,USA,,,9
140+,B,M,Single-ply,Open,Leo Contreras,180,,180,CA,USA,,,3
82.5,B,M,Single-ply,Disabled,Vilmar Oliveira,140,,140,,Brazil,150.5,,1
90,B,M,Single-ply,Disabled,Scott Rickford,157.5,,157.5,MN,USA,,,1
100,B,M,Single-ply,Disabled,Reid Solar,185,,185,AZ,USA,,,1
117.5,B,M,Single-ply,Disabled,Mike Bonifield,150,,150,CA,USA,,,1
48,B,M,Single-ply,Special Olympian,Shane Rocha,30,,30,NV,USA,,,1
52,B,M,Single-ply,Special Olympian,Freddy Boza,68,,68,CA,USA,,,1
75,B,M,Single-ply,Special Olympian,Chad McFarland,103,,103,OR,USA,,,1
110,B,M,Single-ply,Special Olympian,Brady Tanner,165,,165,KS,USA,,,1
110,B,M,Single-ply,Special Olympian,Nick Ceglia,127.5,,127.5,OR,USA,,,2
140+,B,M,Single-ply,Special Olympian,Ryan Johnson,227.5,,227.5,NV,USA,,,1
56,B,M,Single-ply,Teen 12-13,Kade Haymore,60,,60,AZ,USA,,,1
56,B,M,Single-ply,Teen 12-13,Cory Grizzle,52.5,,52.5,OR,USA,,,2
56,B,M,Single-ply,Teen 12-13,Matthew Nothstine,35,,35,CA,USA,,,3
75,B,M,Single-ply,Teen 12-13,Storm Draayer,52.5,,52.5,MN,USA,,,1
82.5,B,M,Single-ply,Teen 12-13,Corey Reece,92.5,,92.5,GA,USA,,,1
56,B,M,Single-ply,Teen 14-15,Ivan Rodriguez,70,,70,CA,USA,,,1
60,B,M,Single-ply,Teen 14-15,Chace Akina,75,,75,HI,USA,,,1
100,B,M,Single-ply,Teen 14-15,Jacob Harris,,,,ID,USA,,,DQ
110,B,M,Single-ply,Teen 14-15,Jose Perez #4,105,,105,CA,USA,,,1
52,B,M,Single-ply,Teen 16-17,Freddy Boza,68,,68,CA,USA,,,1
52,B,M,Single-ply,Teen 16-17,Devin Street,65,,65,ID,USA,,,2
60,B,M,Single-ply,Teen 16-17,Shawn Tisdale,92.5,,92.5,CA,USA,,,1
67.5,B,M,Single-ply,Teen 16-17,Brandon Tovey,137.5,,137.5,OR,USA,,,1
75,B,M,Single-ply,Teen 16-17,Jon Szparaga,130,,130,FL,USA,,,1
90,B,M,Single-ply,Teen 16-17,Sanford Graves,110,,110,CA,USA,,,1
140,B,M,Single-ply,Teen 16-17,Tyler Brown,140,,140,NV,USA,,,1
140,B,M,Single-ply,Teen 16-17,Christian Kelley,130,,130,TX,USA,,,2
52,B,M,Single-ply,Teen 18-19,Jesus Sanchez,98,,98,TX,USA,,,1
56,B,M,Single-ply,Teen 18-19,Tomy Le,62.5,,62.5,TX,USA,,,1
60,B,M,Single-ply,Teen 18-19,Miguel Jaurigui,133,,133,TX,USA,,,1
60,B,M,Single-ply,Teen 18-19,Carlos Daniel Escobedo,95,,95,CA,USA,,,2
67.5,B,M,Single-ply,Teen 18-19,Paul Miller,125,,125,NV,USA,,,1
67.5,B,M,Single-ply,Teen 18-19,Nick Tsangeos,110,,110,OH,USA,,,2
75,B,M,Single-ply,Teen 18-19,Donnie Miskinis,115,,115,OH,USA,,,1
75,B,M,Single-ply,Teen 18-19,Scott Johnson,107.5,,107.5,CA,USA,,,2
82.5,B,M,Single-ply,Teen 18-19,Judd Sato III,185,,185,HI,USA,,,1
82.5,B,M,Single-ply,Teen 18-19,Enrique Lopez,150,,150,TX,USA,,,2
82.5,B,M,Single-ply,Teen 18-19,Ilian Rojas,142.5,,142.5,TX,USA,,,3
90,B,M,Single-ply,Teen 18-19,Jake Garbush,185,,185,WA,USA,,,1
90,B,M,Single-ply,Teen 18-19,Richard Kelley,182.5,,182.5,TX,USA,,,2
100,B,M,Single-ply,Teen 18-19,Dylan Wentz,172.5,,172.5,OR,USA,,,1
100,B,M,Single-ply,Teen 18-19,Raymond Garcia,132.5,,132.5,CA,USA,,,2
110,B,M,Single-ply,Teen 18-19,Michael Pickens,202.5,,202.5,NV,USA,,,1
117.5,B,M,Single-ply,Teen 18-19,Austin Shipley,227.5,,227.5,AZ,USA,,,1
117.5,B,M,Single-ply,Teen 18-19,Halit Dilber,190,,190,TX,USA,,,2
140,B,M,Single-ply,Teen 18-19,Jason Patterson,175,,175,WA,USA,,,1
140+,B,M,Single-ply,Teen 18-19,Tevin Browne,166,,166,NV,USA,,,1
56,B,M,Single-ply,Juniors 20-25,Jose Martinez,67.5,,67.5,,Mexico,72.5,,1
60,B,M,Single-ply,Juniors 20-25,Dustin Hanson,172.5,,172.5,MT,USA,,,1
60,B,M,Single-ply,Juniors 20-25,Antonio Moreno,115.5,,115.5,,Mexico,117.5,,2
60,B,M,Single-ply,Juniors 20-25,Robert Nguyen,112.5,,112.5,TX,USA,,,3
67.5,B,M,Single-ply,Juniors 20-25,Nick Lenhart,173,,173,UT,USA,,,1
67.5,B,M,Single-ply,Juniors 20-25,Joel Frank,166,,166,NV,USA,,,2
67.5,B,M,Single-ply,Juniors 20-25,Mathieu Coudriaud,150,,150,,France,,,3
67.5,B,M,Single-ply,Juniors 20-25,Nick Buck,,,,WI,USA,,,DQ
67.5,B,M,Single-ply,Juniors 20-25,Cormac Moore,,,,MT,USA,,,DQ
75,B,M,Single-ply,Juniors 20-25,Jeff Button,183,,183,TX,USA,,,1
75,B,M,Single-ply,Juniors 20-25,Justin Bittner,170,,170,PA,USA,,,2
75,B,M,Single-ply,Juniors 20-25,Ray Segura,142.5,,142.5,WA,USA,,,3
75,B,M,Single-ply,Juniors 20-25,Humberto Trejo,102.5,,102.5,TX,USA,,,4
82.5,B,M,Single-ply,Juniors 20-25,Chris Rayner,190,,190,OK,USA,,,1
82.5,B,M,Single-ply,Juniors 20-25,Carlos Mata,150,,150,TX,USA,,,2
82.5,B,M,Single-ply,Juniors 20-25,Julian Bartholomew,135,,135,LA,USA,,,3
82.5,B,M,Single-ply,Juniors 20-25,A. J. Mangum,110,,110,TX,USA,,,4
90,B,M,Single-ply,Juniors 20-25,David Onan,192.5,,192.5,MN,USA,,,1
90,B,M,Single-ply,Juniors 20-25,Brian Shekels,185,,185,WI,USA,,,2
90,B,M,Single-ply,Juniors 20-25,Dustin McFarland,147.5,,147.5,OR,USA,,,3
90,B,M,Single-ply,Juniors 20-25,Bill Sanders,,,,MA,USA,,,DQ
100,B,M,Single-ply,Juniors 20-25,Waldo Villarreal,180,,180,TX,USA,,,1
100,B,M,Single-ply,Juniors 20-25,Adam Contreras,160,,160,CA,USA,,,2
110,B,M,Single-ply,Juniors 20-25,Jose Trejo,190,,190,TX,USA,,,1
110,B,M,Single-ply,Juniors 20-25,Garrett Muro,185,,185,NV,USA,,,2
110,B,M,Single-ply,Juniors 20-25,Tyson Eugene Baker,155,,155,OR,USA,,,3
117.5,B,M,Single-ply,Juniors 20-25,Daniel Reeves,102.5,,102.5,AZ,USA,,,1
125,B,M,Single-ply,Juniors 20-25,Valente Inniss-Thompson,283.5,,283.5,TX,USA,,,1
125,B,M,Single-ply,Juniors 20-25,Chris Owens,,,,TX,USA,,,DQ
140+,B,M,Single-ply,Juniors 20-25,Frank Ginez III,267.5,,267.5,TX,USA,,,1
67.5,B,M,Single-ply,Submasters 33-39,David R Smith,,,,TX,USA,,,DQ
75,B,M,Single-ply,Submasters 33-39,John Petersen,165.5,,165.5,WI,USA,,,1
82.5,B,M,Single-ply,Submasters 33-39,Aaron Pina,150,,150,CA,USA,,,1
90,B,M,Single-ply,Submasters 33-39,Charles Farmer,265.5,,265.5,MT,USA,,,1
90,B,M,Single-ply,Submasters 33-39,Kim Päivöke,250,,250,,Finland,,,2
90,B,M,Single-ply,Submasters 33-39,Joe Young,175,,175,NV,USA,,,3
90,B,M,Single-ply,Submasters 33-39,Ben Brizendine,,,,OR,USA,,,DQ
90,B,M,Single-ply,Submasters 33-39,Jeremy Nunes,,,,CA,USA,,,DQ
90,B,M,Single-ply,Submasters 33-39,Coby Washburn,,,,TX,USA,,,DQ
100,B,M,Single-ply,Submasters 33-39,Matthew Ogurek,240,,240,MI,USA,,,1
100,B,M,Single-ply,Submasters 33-39,Ryan Duble,187.5,,187.5,OR,USA,,,2
100,B,M,Single-ply,Submasters 33-39,James Houston,,,,CA,USA,,,DQ
110,B,M,Single-ply,Submasters 33-39,Joseph Gerald Pablo,165,,165,MT,USA,,,1
110,B,M,Single-ply,Submasters 33-39,Ike Pablo,150,,150,MT,USA,,,2
110,B,M,Single-ply,Submasters 33-39,Christian Draayer,145,,145,MN,USA,,,3
110,B,M,Single-ply,Submasters 33-39,James Hunter,,,,CA,USA,,,DQ
117.5,B,M,Single-ply,Submasters 33-39,Marc Villarreal,257.5,,257.5,TX,USA,,,1
117.5,B,M,Single-ply,Submasters 33-39,Harjeet Kumar,212.5,,212.5,,India,,,2
125,B,M,Single-ply,Submasters 33-39,Jani Toivo Kristian Ihalainen,285,,285,,Finland,,,1
140,B,M,Single-ply,Submasters 33-39,Tiny Meeker,408.5,,408.5,TX,USA,,,1
140+,B,M,Single-ply,Submasters 33-39,James Crawford III,345,,345,WA,USA,,,1
140+,B,M,Single-ply,Submasters 33-39,Scott Wesley Jordan,335,,335,AZ,USA,,,2
67.5,B,M,Single-ply,Masters 40-46,Kenny Lyons,142.5,,142.5,UT,USA,,,1
67.5,B,M,Single-ply,Masters 40-46,Willis McCoy,125,,125,OH,USA,,,2
75,B,M,Single-ply,Masters 40-46,Jon Cunningham,191,,191,UT,USA,,,1
75,B,M,Single-ply,Masters 40-46,George Nabeshima,142.5,,142.5,HI,USA,,,2
82.5,B,M,Single-ply,Masters 40-46,Andy Furnas,230,,230,OH,USA,,,1
82.5,B,M,Single-ply,Masters 40-46,Keith Daniels,,,,HI,USA,,,DQ
90,B,M,Single-ply,Masters 40-46,Doug Noebe,203,,203,OH,USA,,,1
90,B,M,Single-ply,Masters 40-46,Barry Sullivan,190,,190,AZ,USA,,,2
90,B,M,Single-ply,Masters 40-46,Jason Frickey,182.5,,182.5,LA,USA,,,3
90,B,M,Single-ply,Masters 40-46,Rolando Espinoza,167.5,,167.5,TX,USA,,,4
100,B,M,Single-ply,Masters 40-46,Kenneth Millrany,277.5,,277.5,TN,USA,,,1
100,B,M,Single-ply,Masters 40-46,Rob Golgano,240,,240,ME,USA,,,2
100,B,M,Single-ply,Masters 40-46,Juha Pukkila,220.5,,220.5,,Finland,227.5,,3
100,B,M,Single-ply,Masters 40-46,Fenn Cournoyer,192.5,,192.5,MN,USA,,,4
100,B,M,Single-ply,Masters 40-46,Steven Petersen,185,,185,TX,USA,,,5
100,B,M,Single-ply,Masters 40-46,Dean Ideue,,,,HI,USA,,,DQ
100,B,M,Single-ply,Masters 40-46,James Seaver,,,,AZ,USA,,,DQ
110,B,M,Single-ply,Masters 40-46,Frank Wakakuwa,282.5,,282.5,HI,USA,,,1
110,B,M,Single-ply,Masters 40-46,David Fischer,273,,273,GA,USA,,,2
110,B,M,Single-ply,Masters 40-46,Joey Murphy,265,,265,GA,USA,,,3
110,B,M,Single-ply,Masters 40-46,Kent Doerfler,255,,255,OR,USA,,,4
110,B,M,Single-ply,Masters 40-46,Aaron Carrion,227.5,,227.5,CA,USA,,,5
110,B,M,Single-ply,Masters 40-46,Gary McFarland,197.5,,197.5,CA,USA,,,6
117.5,B,M,Single-ply,Masters 40-46,Patrick Parnell,295,,295,TX,USA,,,1
117.5,B,M,Single-ply,Masters 40-46,Mike Drake,227.5,,227.5,CA,USA,,,2
125,B,M,Single-ply,Masters 40-46,Patrick Holloway,290,,290,AZ,USA,,,1
125,B,M,Single-ply,Masters 40-46,Gary Gulseth,240,,240,WI,USA,,,2
125,B,M,Single-ply,Masters 40-46,John Stewart,,,,TX,USA,,,DQ
140,B,M,Single-ply,Masters 40-46,John Hudson,290,,290,TX,USA,,,1
140,B,M,Single-ply,Masters 40-46,Warren Orr,225,,225,,Canada,227.5,,2
140+,B,M,Single-ply,Masters 40-46,Harjinder Kumar,272.5,,272.5,,India,282.5,,1
60,B,M,Single-ply,Masters 47-53,Charles Venturella,172.5,,172.5,PA,USA,,,1
67.5,B,M,Single-ply,Masters 47-53,Paul Wach,95,,95,UT,USA,,,1
75,B,M,Single-ply,Masters 47-53,Rick King,190,,190,OR,USA,,,1
75,B,M,Single-ply,Masters 47-53,Fulton White,152.5,,152.5,NV,USA,,,2
75,B,M,Single-ply,Masters 47-53,Dave Constantineau,150.5,,150.5,WI,USA,,,3
82.5,B,M,Single-ply,Masters 47-53,Bob Levering,197.5,,197.5,CA,USA,,,1
82.5,B,M,Single-ply,Masters 47-53,Leamon Woodley,170,,170,WA,USA,,,2
82.5,B,M,Single-ply,Masters 47-53,Paul Janoff,167.5,,167.5,CA,USA,,,3
82.5,B,M,Single-ply,Masters 47-53,Mark Lo,,,,HI,USA,,,DQ
90,B,M,Single-ply,Masters 47-53,Jody Woods,250,,250,CA,USA,,,1
90,B,M,Single-ply,Masters 47-53,Fil Dena III,200,,200,NV,USA,,,2
90,B,M,Single-ply,Masters 47-53,Mike Basayne,140,,140,CA,USA,,,3
100,B,M,Single-ply,Masters 47-53,James Noblit,210,,210,OR,USA,,,1
100,B,M,Single-ply,Masters 47-53,Robert Harris,187.5,,187.5,NV,USA,,,2
100,B,M,Single-ply,Masters 47-53,Steven Hardesty,177.5,,177.5,CO,USA,,,3
100,B,M,Single-ply,Masters 47-53,Gene A Wenzel,110,,110,OH,USA,,,4
110,B,M,Single-ply,Masters 47-53,Ed Macauley,247.5,,247.5,OR,USA,,,1
110,B,M,Single-ply,Masters 47-53,George Phipps,197.5,,197.5,NV,USA,,,2
110,B,M,Single-ply,Masters 47-53,Harry Munro,175,,175,CA,USA,,,3
110,B,M,Single-ply,Masters 47-53,Michael Mc Hale,160,,160,CO,USA,,,4
110,B,M,Single-ply,Masters 47-53,Kenneth Engleman,,,,CA,USA,,,DQ
117.5,B,M,Single-ply,Masters 47-53,Mark Stanford,252.5,,252.5,AZ,USA,,,1
125,B,M,Single-ply,Masters 47-53,Bill Welch,242.5,,242.5,TN,USA,,,1
125,B,M,Single-ply,Masters 47-53,Jim Presley,240,,240,CA,USA,,,2
125,B,M,Single-ply,Masters 47-53,Jaime Tovar,,,,CA,USA,,,DQ
140,B,M,Single-ply,Masters 47-53,Bill Gillespie,342.5,,342.5,VA,USA,,,1
140,B,M,Single-ply,Masters 47-53,Joe Mickelson,225,,225,WA,USA,,,2
140,B,M,Single-ply,Masters 47-53,Alan Aerts,217.5,,217.5,CA,USA,,,3
140,B,M,Single-ply,Masters 47-53,Blair Fisher,172.5,,172.5,,Canada,182.5,,4
140+,B,M,Single-ply,Masters 47-53,James Mersberg,312.5,,312.5,HI,USA,,,1
140+,B,M,Single-ply,Masters 47-53,Gary Gertner,222.5,,222.5,CO,USA,,,2
140+,B,M,Single-ply,Masters 47-53,Keith Sayles,150,,150,TX,USA,,,3
60,B,M,Single-ply,Masters 54-60,Michel Jean Moreiro,105,,105,,France,107.5,,1
75,B,M,Single-ply,Masters 54-60,Al Nebo,165,,165,CA,USA,,,1
75,B,M,Single-ply,Masters 54-60,Perry Plush,150,,150,WA,USA,,,2
75,B,M,Single-ply,Masters 54-60,Gary Miller #2,,,,NV,USA,,,DQ
82.5,B,M,Single-ply,Masters 54-60,Joe Pablo,147.5,,147.5,MT,USA,,,1
82.5,B,M,Single-ply,Masters 54-60,Dennis Cain,128,,128,NV,USA,,,2
82.5,B,M,Single-ply,Masters 54-60,George Jeffery Thornton,103,,103,AZ,USA,,,3
90,B,M,Single-ply,Masters 54-60,Ernest Reyes,195,,195,UT,USA,,,1
90,B,M,Single-ply,Masters 54-60,Maurice Lowry,167.5,,167.5,OK,USA,,,2
90,B,M,Single-ply,Masters 54-60,Rocky Mc Cullough,160,,160,TX,USA,,,3
90,B,M,Single-ply,Masters 54-60,Bruce Begue,102.5,,102.5,OH,USA,,,4
100,B,M,Single-ply,Masters 54-60,Terry Baldwin #2,250,,250,MT,USA,,,1
100,B,M,Single-ply,Masters 54-60,Jeffrey Allen Jones,200,,200,NV,USA,,,2
100,B,M,Single-ply,Masters 54-60,Jim Curley,140,,140,CO,USA,,,3
110,B,M,Single-ply,Masters 54-60,Rob Carbo,204,,204,CA,USA,,,1
110,B,M,Single-ply,Masters 54-60,Gary Stevens,175,,175,WY,USA,,,2
110,B,M,Single-ply,Masters 54-60,Stephen Cohle,170,,170,MI,USA,,,3
110,B,M,Single-ply,Masters 54-60,Thomas Wright,118,,118,KS,USA,,,4
125,B,M,Single-ply,Masters 54-60,Willard Crossen Jr,250,,250,WA,USA,,,1
125,B,M,Single-ply,Masters 54-60,Jeff Fahrenbruch,,,,AZ,USA,,,DQ
140,B,M,Single-ply,Masters 54-60,Bruce Sabin,252.5,,252.5,CA,USA,,,1
140,B,M,Single-ply,Masters 54-60,Forest Hofer,247.5,,247.5,WA,USA,,,2
140,B,M,Single-ply,Masters 54-60,Roger Ryan,,,,IL,USA,,,DQ
140+,B,M,Single-ply,Masters 54-60,Leo Contreras,180,,180,CA,USA,,,1
140+,B,M,Single-ply,Masters 54-60,Peter Herdt,,,,ID,USA,,,DQ
67.5,B,M,Single-ply,Masters 61-67,Bryan Yager,142.5,,142.5,CA,USA,147.5,,1
75,B,M,Single-ply,Masters 61-67,Ron White,107.5,,107.5,WA,USA,,,1
82.5,B,M,Single-ply,Masters 61-67,Michael Minietta,160,,160,NV,USA,,,1
82.5,B,M,Single-ply,Masters 61-67,Michel Rioland,132.5,,132.5,,France,,,2
82.5,B,M,Single-ply,Masters 61-67,Gary Witzel,127.5,,127.5,WA,USA,,,3
82.5,B,M,Single-ply,Masters 61-67,Daniel Hofeditz,115,,115,AZ,USA,,,4
90,B,M,Single-ply,Masters 61-67,Dan Swift,220,,220,IL,USA,,,1
90,B,M,Single-ply,Masters 61-67,Joe Beteta,172.5,,172.5,OR,USA,,,2
90,B,M,Single-ply,Masters 61-67,Doug Dienelt,165,,165,CA,USA,,,3
90,B,M,Single-ply,Masters 61-67,Bob Hill,147.5,,147.5,OR,USA,,,4
100,B,M,Single-ply,Masters 61-67,Dave Marba,207.5,,207.5,CA,USA,,,1
100,B,M,Single-ply,Masters 61-67,Jim Parham,180.5,,180.5,OK,USA,,,2
100,B,M,Single-ply,Masters 61-67,Jon Wolbers,180,,180,,Canada,185,,3
100,B,M,Single-ply,Masters 61-67,Julian Leos,145,,145,NV,USA,,,4
110,B,M,Single-ply,Masters 61-67,Leonard Pokora,228,,228,MI,USA,,,1
110,B,M,Single-ply,Masters 61-67,Howard Garris,167.5,,167.5,CA,USA,,,2
110,B,M,Single-ply,Masters 61-67,Terry Bunce,165,,165,OR,USA,,,3
117.5,B,M,Single-ply,Masters 61-67,Johnny Park,166,,166,OK,USA,,,1
125,B,M,Single-ply,Masters 61-67,Ed Acey,180,,180,UT,USA,,,1
125,B,M,Single-ply,Masters 61-67,Manuel Herrera,178,,178,UT,USA,,,2
140,B,M,Single-ply,Masters 61-67,Robert O. Smith,242.5,,242.5,,Canada,,,1
60,B,M,Single-ply,Masters 68-74,Salvatore Morabito,70,,70,CA,USA,,,1
67.5,B,M,Single-ply,Masters 68-74,Larry Vincent,117.5,,117.5,OR,USA,,,1
67.5,B,M,Single-ply,Masters 68-74,Thomas English,105,,105,NV,USA,,,2
67.5,B,M,Single-ply,Masters 68-74,Skip Schacher,82.5,,82.5,MT,USA,,,3
75,B,M,Single-ply,Masters 68-74,Arlindo da Silva,95,,95,,Brazil,,,1
82.5,B,M,Single-ply,Masters 68-74,Rudy Lozano,170,,170,CA,USA,182.5,,1
82.5,B,M,Single-ply,Masters 68-74,Ed Angstrom,157.5,,157.5,IA,USA,,,2
82.5,B,M,Single-ply,Masters 68-74,Sonny Nummi,112.5,,112.5,ID,USA,,,3
82.5,B,M,Single-ply,Masters 68-74,Earle Conway,95,,95,AZ,USA,,,4
82.5,B,M,Single-ply,Masters 68-74,Larry Joiner,85,,85,CA,USA,,,5
90,B,M,Single-ply,Masters 68-74,James Rouse,150,,150,IL,USA,,,1
90,B,M,Single-ply,Masters 68-74,Alfred Franke,146,,146,NV,USA,,,2
90,B,M,Single-ply,Masters 68-74,John Herbein,115,,115,PA,USA,,,3
100,B,M,Single-ply,Masters 68-74,Bob Bassman,170,,170,TX,USA,,,1
100,B,M,Single-ply,Masters 68-74,William Prince,153,,153,NV,USA,,,2
100,B,M,Single-ply,Masters 68-74,James Hayden,152.5,,152.5,AZ,USA,,,3
100,B,M,Single-ply,Masters 68-74,Roger Kunz,132.5,,132.5,CA,USA,,,4
110,B,M,Single-ply,Masters 68-74,John Ketchersid,117.5,,117.5,CA,USA,,,1
117.5,B,M,Single-ply,Masters 68-74,Mike Bonifield,150,,150,CA,USA,,,1
60,B,M,Single-ply,Masters 75-79,Steve Smith,80,,80,FL,USA,,,1
75,B,M,Single-ply,Masters 75-79,Ron Goodman,102.5,,102.5,CA,USA,,,1
75,B,M,Single-ply,Masters 75-79,Andre Charbit,100,,100,,France,,,2
82.5,B,M,Single-ply,Masters 75-79,Charles Vause,92.5,,92.5,HI,USA,,,1
82.5,B,M,Single-ply,Masters 75-79,David Boyes,57.5,,57.5,LA,USA,,,2
90,B,M,Single-ply,Masters 75-79,Nick Di Liddo,117.5,,117.5,CA,USA,,,1
100,B,M,Single-ply,Masters 75-79,Harold Smith,153.5,,153.5,MT,USA,155,,1
110,B,M,Single-ply,Masters 75-79,Russell Combest,117.5,,117.5,OH,USA,,,1
117.5,B,M,Single-ply,Masters 75-79,Robert Wilson,62.5,,62.5,CA,USA,65,,1
67.5,B,M,Single-ply,Masters 80-84,Robert Fornachon,82.5,,82.5,CA,USA,,,1
67.5,B,M,Single-ply,Masters 80-84,Arthur Whinston,35,,35,OR,USA,,,2
75,B,M,Single-ply,Masters 80-84,Jim Schall,62.5,,62.5,WA,USA,,,1
82.5,B,M,Single-ply,Masters 80-84,Nixon Munly,77.5,,77.5,OR,USA,,,1
100,B,M,Single-ply,Masters 80-84,Eugene L Miranda,105,,105,CA,USA,,,1
100,B,M,Single-ply,Masters 80-84,James Weiss,85,,85,CA,USA,,,2
90,B,M,Single-ply,Masters 85-89,Seymour Perlis,60,,60,AZ,USA,62.5,,1
75,B,M,Single-ply,Law-Fire Open,Mike Bingham,205.5,,205.5,PA,USA,,,1
82.5,B,M,Single-ply,Law-Fire Open,Dave Claroni,147.5,,147.5,ME,USA,,,1
90,B,M,Single-ply,Law-Fire Open,Nick Berriman,205,,205,OR,USA,,,1
100,B,M,Single-ply,Law-Fire Open,Greg Alves,205,,205,CA,USA,,,1
125,B,M,Single-ply,Law-Fire Open,Jeffrey Begue,282.5,,282.5,OH,USA,,,1
140,B,M,Single-ply,Law-Fire Open,Tommy Harrison,322.5,,322.5,IL,USA,,,1
140,B,M,Single-ply,Law-Fire Open,Tracy Lundin,240,,240,OR,USA,,,2
140+,B,M,Single-ply,Law-Fire Open,Hiram Kaikaina,,,,HI,USA,,,DQ
100,B,M,Single-ply,Submasters 33-39,Kerry Barbetti,147.5,,147.5,MN,USA,,,3
125,B,M,Single-ply,Submasters 33-39,Jeffrey Begue,282.5,,282.5,OH,USA,,,2
140,B,M,Single-ply,Submasters 33-39,Tommy Harrison,322.5,,322.5,IL,USA,,,2
140+,B,M,Single-ply,Submasters 33-39,Keoni Reich,252.5,,252.5,HI,USA,,,3
140+,B,M,Single-ply,Submasters 33-39,Hiram Kaikaina,,,,HI,USA,,,DQ
75,B,M,Single-ply,Law-Fire 40-47,Mike Bingham,205.5,,205.5,PA,USA,,,1
82.5,B,M,Single-ply,Law-Fire 40-47,Darren Carr,200,,200,UT,USA,,,1
82.5,B,M,Single-ply,Law-Fire 40-47,Bryan Vandiver,110,,110,OK,USA,,,2
100,B,M,Single-ply,Law-Fire 40-47,Brian Reynolds,197.5,,197.5,WA,USA,,,1
100,B,M,Single-ply,Law-Fire 40-47,Dean Ideue,,,,HI,USA,,,DQ
110,B,M,Single-ply,Law-Fire 40-47,Frank Wakakuwa,282.5,,282.5,HI,USA,,,1
110,B,M,Single-ply,Law-Fire 40-47,Dennis Lowry,237.5,,237.5,CA,USA,,,2
110,B,M,Single-ply,Law-Fire 40-47,Gary McFarland,195,,195,CA,USA,,,3
110,B,M,Single-ply,Law-Fire 40-47,David Fischer,,,,GA,USA,,,DQ
117.5,B,M,Single-ply,Law-Fire 40-47,Robert Lincoln Jr,295,,295,CA,USA,,,1
117.5,B,M,Single-ply,Law-Fire 40-47,Jerry Warren,177.5,,177.5,OK,USA,,,2
117.5,B,M,Single-ply,Law-Fire 40-47,Stephen Burns,145,,145,NV,USA,,,3
140,B,M,Single-ply,Law-Fire 40-47,Warren Orr,210,,210,,Canada,,,1
90,B,M,Single-ply,Law-Fire 48-55,Charles McFarland,145,,145,OR,USA,,,1
100,B,M,Single-ply,Law-Fire 48-55,Greg Alves,205,,205,CA,USA,,,1
100,B,M,Single-ply,Law-Fire 48-55,Steven Hardesty,177.5,,177.5,CO,USA,,,2
100,B,M,Single-ply,Law-Fire 48-55,William Denniston,167.5,,167.5,MI,USA,,,3
140+,B,M,Single-ply,Law-Fire 48-55,Dennis Schultz,47.5,,47.5,CA,USA,,,1
90,B,M,Single-ply,Law-Fire 56,Bruce Begue,152.5,,152.5,OH,USA,,,1
90,B,M,Single-ply,Law-Fire 56,Jorge Guardado,120,,120,OK,USA,,,2
117.5,B,M,Single-ply,Law-Fire 56,Johnny Park,166,,166,OK,USA,,,1
140,B,M,Single-ply,Law-Fire 56,Bruce Sabin,252.5,,252.5,CA,USA,,,1
52,D,M,Single-ply,Open,Josh Friedman,,120,120,TX,USA,,,1
67.5,D,M,Single-ply,Open,Barry Kunkel,,232.5,232.5,OR,USA,,,1
67.5,D,M,Single-ply,Open,Carlito Bareng,,222.5,222.5,CA,USA,,,2
67.5,D,M,Single-ply,Open,David Moya,,210,210,CA,USA,,,3
67.5,D,M,Single-ply,Open,Willis McCoy,,200.5,200.5,OH,USA,,,4
67.5,D,M,Single-ply,Open,Paul Wach,,148,148,UT,USA,,,5
75,D,M,Single-ply,Open,Ryan Snelling,,290,290,MO,USA,,,1
75,D,M,Single-ply,Open,Richard Cirigliano,,273,273,CA,USA,,,2
75,D,M,Single-ply,Open,Gregory Kleyn,,255,255,IL,USA,,,3
75,D,M,Single-ply,Open,Fulton White,,232.5,232.5,NV,USA,,,4
75,D,M,Single-ply,Open,Dave Constantineau,,210,210,WI,USA,,,6
82.5,D,M,Single-ply,Open,Leamon Woodley,,305,305,WA,USA,,,1
82.5,D,M,Single-ply,Open,Josh Decker,,285,285,MI,USA,,,2
82.5,D,M,Single-ply,Open,Robert Krowech,,257.5,257.5,MN,USA,,,3
90,D,M,Single-ply,Open,Tom Eiseman,,325,325,NJ,USA,,,1
90,D,M,Single-ply,Open,Matthew Marsiglia,,305,305,MI,USA,,,2
90,D,M,Single-ply,Open,Jared Wilsey,,298,298,TN,USA,,,3
90,D,M,Single-ply,Open,Gary Ferstler,,295,295,HI,USA,,,4
90,D,M,Single-ply,Open,Jody Woods,,275,275,CA,USA,,,5
90,D,M,Single-ply,Open,Robert Godard,,272.5,272.5,OR,USA,,,6
90,D,M,Single-ply,Open,Joe Young,,220,220,NV,USA,,,8
90,D,M,Single-ply,Open,Ivan Gamboa,,167.5,167.5,,Mexico,,,10
100,D,M,Single-ply,Open,Petri Hietamäki,,320,320,,Finland,,,1
100,D,M,Single-ply,Open,Tatu Avola,,320,320,,Finland,,,2
100,D,M,Single-ply,Open,Steve Lemari,,312.5,312.5,LA,USA,,,3
100,D,M,Single-ply,Open,Mitch Edelstein,,302.5,302.5,MN,USA,,,4
100,D,M,Single-ply,Open,Matt Vinopal,,297.5,297.5,WI,USA,,,5
100,D,M,Single-ply,Open,Adan Rios,,285,285,AZ,USA,,,6
100,D,M,Single-ply,Open,Andy Munsey,,260,260,OR,USA,,,8
110,D,M,Single-ply,Open,Kari Pöntinen,,325,325,,Finland,,,1
110,D,M,Single-ply,Open,Brent Howard,,325,325,NV,USA,,,2
110,D,M,Single-ply,Open,Garrett Muro,,317.5,317.5,NV,USA,,,3
110,D,M,Single-ply,Open,Al Bianchi,,310,310,MA,USA,,,4
110,D,M,Single-ply,Open,Harry Jackson,,267.5,267.5,VA,USA,,,6
117.5,D,M,Single-ply,Open,Tom Emelander,,318,318,TX,USA,,,1
117.5,D,M,Single-ply,Open,Bobby Driskill,,310,310,AL,USA,,,2
117.5,D,M,Single-ply,Open,Terry Putman,,290,290,OK,USA,,,3
117.5,D,M,Single-ply,Open,Colin Keohuloa,,280,280,NV,USA,,,4
125,D,M,Single-ply,Open,Patrick Holloway,,372.5,372.5,AZ,USA,,,1
125,D,M,Single-ply,Open,Nicolas Lepine,,312.5,312.5,IL,USA,,,2
140,D,M,Single-ply,Open,Jim Nickerson,,338,338,OR,USA,,,1
140,D,M,Single-ply,Open,Jerry Pritchett,,337.5,337.5,AZ,USA,,,2
140,D,M,Single-ply,Open,Andy Medak,,295,295,WA,USA,,,3
140,D,M,Single-ply,Open,Thomas Guiney,,285,285,OK,USA,,,4
140,D,M,Single-ply,Open,Joe Mickelson,,240,240,WA,USA,,,6
140+,D,M,Single-ply,Open,Dean Munsey,,296,296,OR,USA,,,1
60,D,M,Single-ply,Open,Carlos Daniel Escobedo,,172.5,172.5,CA,USA,,,1
75,D,M,Single-ply,Open,Jed Lee,,232.5,232.5,OH,USA,,,5
75,D,M,Single-ply,Open,Aramiq Amirchian,,200,200,AZ,USA,,,7
82.5,D,M,Single-ply,Open,Dan Marxheimer,,247.5,247.5,WA,USA,,,4
82.5,D,M,Single-ply,Open,Miguel Guillen,,207.5,207.5,MI,USA,,,5
90,D,M,Single-ply,Open,Mark Pearce,,267.5,267.5,TX,USA,,,7
90,D,M,Single-ply,Open,John Lisenbee,,185,185,OK,USA,,,9
100,D,M,Single-ply,Open,Ryan Rutledge,,280.5,280.5,MN,USA,,,7
100,D,M,Single-ply,Open,Dylan Wentz,,252.5,252.5,OR,USA,,,9
100,D,M,Single-ply,Open,Kyle Herzik,,230,230,NV,USA,,,10
100,D,M,Single-ply,Open,Dan Peterson,,207.5,207.5,CA,USA,,,11
110,D,M,Single-ply,Open,Dennis Schmidt Jr,,275.5,275.5,MN,USA,,,5
110,D,M,Single-ply,Open,Harry Jackson,,267.5,267.5,VA,USA,,,7
140,D,M,Single-ply,Open,Alan Aerts,,260,260,CA,USA,,,5
140+,D,M,Single-ply,Open,Leo Contreras,,142.5,142.5,CA,USA,,,2
75,D,M,Single-ply,Disabled,Matthew Taylor,,227.5,227.5,WA,USA,,,1
82.5,D,M,Single-ply,Disabled,Vilmar Oliveira,,200,200,,Brazil,,210,1
90,D,M,Single-ply,Disabled,John Herbein,,182.5,182.5,PA,USA,,,1
100,D,M,Single-ply,Disabled,Reid Solar,,185,185,AZ,USA,,,1
110,D,M,Single-ply,Disabled,Sanford Graves III,,167.5,167.5,CA,USA,,182.5,1
48,D,M,Single-ply,Special Olympian,Shane Rocha,,80,80,NV,USA,,,1
52,D,M,Single-ply,Special Olympian,Freddy Boza,,110,110,CA,USA,,,1
75,D,M,Single-ply,Special Olympian,Chad McFarland,,196,196,OR,USA,,,1
110,D,M,Single-ply,Special Olympian,Brady Tanner,,250.5,250.5,KS,USA,,251,1
110,D,M,Single-ply,Special Olympian,Nick Ceglia,,205,205,OR,USA,,,2
140+,D,M,Single-ply,Special Olympian,Ryan Johnson,,182.5,182.5,NV,USA,,,1
56,D,M,Single-ply,Teen 12-13,Cory Grizzle,,110,110,OR,USA,,,1
56,D,M,Single-ply,Teen 12-13,Kade Haymore,,105,105,AZ,USA,,,2
56,D,M,Single-ply,Teen 12-13,Matthew Nothstine,,70,70,CA,USA,,,3
67.5,D,M,Single-ply,Teen 12-13,Antonio Waldorf,,97.5,97.5,MN,USA,,,1
75,D,M,Single-ply,Teen 12-13,Storm Draayer,,105,105,MN,USA,,,1
82.5,D,M,Single-ply,Teen 12-13,Corey Reece,,150,150,GA,USA,,,1
44,D,M,Single-ply,Teen 12-13,Kirby Winson,,107.5,107.5,MN,USA,,,1
56,D,M,Single-ply,Teen 14-15,Bryan Adams,,163,163,CA,USA,,,1
56,D,M,Single-ply,Teen 14-15,Ivan Rodriguez,,110,110,CA,USA,,,2
60,D,M,Single-ply,Teen 14-15,Chace Akina,,152.5,152.5,HI,USA,,,1
100,D,M,Single-ply,Teen 14-15,Jacob Harris,,203,203,ID,USA,,,1
110,D,M,Single-ply,Teen 14-15,Jose Perez #4,,220,220,CA,USA,,,1
52,D,M,Single-ply,Teen 16-17,Devin Street,,157.5,157.5,ID,USA,,159,1
52,D,M,Single-ply,Teen 16-17,Freddy Boza,,110,110,CA,USA,,,2
60,D,M,Single-ply,Teen 16-17,Shawn Tisdale,,140,140,CA,USA,,,1
75,D,M,Single-ply,Teen 16-17,Dylan Kitchen,,182.5,182.5,CA,USA,,,1
75,D,M,Single-ply,Teen 16-17,Jon Szparaga,,160,160,FL,USA,,,2
75,D,M,Single-ply,Teen 16-17,Abel Urdiales,,155,155,CA,USA,,,3
90,D,M,Single-ply,Teen 16-17,Sanford Graves,,197.5,197.5,CA,USA,,,1
100,D,M,Single-ply,Teen 16-17,Mark Stamper,,205,205,CA,USA,,,1
140,D,M,Single-ply,Teen 16-17,Tyler Brown,,200,200,NV,USA,,,1
52,D,M,Single-ply,Teen 18-19,Jesus Sanchez,,150,150,TX,USA,,,1
56,D,M,Single-ply,Teen 18-19,Tomy Le,,122.5,122.5,TX,USA,,,1
60,D,M,Single-ply,Teen 18-19,Carlos Daniel Escobedo,,172.5,172.5,CA,USA,,,1
67.5,D,M,Single-ply,Teen 18-19,Nick Tsangeos,,179,179,OH,USA,,,1
67.5,D,M,Single-ply,Teen 18-19,Christopher Riso,,177.5,177.5,WA,USA,,,2
67.5,D,M,Single-ply,Teen 18-19,Daniel Blanc,,147.5,147.5,CA,USA,,,3
75,D,M,Single-ply,Teen 18-19,Donnie Miskinis,,212.5,212.5,OH,USA,,,1
75,D,M,Single-ply,Teen 18-19,Scott Johnson,,205,205,CA,USA,,,2
75,D,M,Single-ply,Teen 18-19,Wilson Marinero,,120,120,TX,USA,,,3
82.5,D,M,Single-ply,Teen 18-19,Travis Smith,,212.5,212.5,NV,USA,,,1
82.5,D,M,Single-ply,Teen 18-19,Ilian Rojas,,195,195,TX,USA,,,2
82.5,D,M,Single-ply,Teen 18-19,Judd Sato III,,192.5,192.5,HI,USA,,,3
90,D,M,Single-ply,Teen 18-19,Ben Rice,,310,310,WA,USA,,,1
90,D,M,Single-ply,Teen 18-19,Jake Garbush,,272.5,272.5,WA,USA,,,2
100,D,M,Single-ply,Teen 18-19,Dylan Wentz,,252.5,252.5,OR,USA,,,1
100,D,M,Single-ply,Teen 18-19,Raymond Garcia,,197.5,197.5,CA,USA,,,2
100,D,M,Single-ply,Teen 18-19,Stephen Trieu,,182.5,182.5,TX,USA,,,3
110,D,M,Single-ply,Teen 18-19,Robert Ramos,,170,170,TX,USA,,,1
117.5,D,M,Single-ply,Teen 18-19,Austin Shipley,,250,250,AZ,USA,,,1
125,D,M,Single-ply,Teen 18-19,Raymundo Sanchez,,227.5,227.5,,Mexico,,,1
140,D,M,Single-ply,Teen 18-19,Jason Patterson,,222.5,222.5,WA,USA,,,1
140+,D,M,Single-ply,Teen 18-19,Tevin Browne,,245,245,NV,USA,,,1
56,D,M,Single-ply,Juniors 20-25,Jose Martinez,,137.5,137.5,,Mexico,,,1
60,D,M,Single-ply,Juniors 20-25,Antonio Moreno,,182.5,182.5,,Mexico,,187.5,1
60,D,M,Single-ply,Juniors 20-25,Robert Nguyen,,180,180,TX,USA,,,2
60,D,M,Single-ply,Juniors 20-25,Aurelio Garcia,,160,160,TX,USA,,,3
67.5,D,M,Single-ply,Juniors 20-25,Nick Lenhart,,245,245,UT,USA,,,1
67.5,D,M,Single-ply,Juniors 20-25,Waldo Cardenas,,212.5,212.5,TX,USA,,,2
75,D,M,Single-ply,Juniors 20-25,Ray Segura,,195,195,WA,USA,,,1
75,D,M,Single-ply,Juniors 20-25,Raul Hernandez,,172.5,172.5,,Mexico,,,2
75,D,M,Single-ply,Juniors 20-25,Humberto Trejo,,160,160,TX,USA,,,3
82.5,D,M,Single-ply,Juniors 20-25,A. J. Mangum,,320.5,320.5,TX,USA,,,1
82.5,D,M,Single-ply,Juniors 20-25,Carlos Mata,,232.5,232.5,TX,USA,,,2
82.5,D,M,Single-ply,Juniors 20-25,Julian Bartholomew,,215,215,LA,USA,,,3
82.5,D,M,Single-ply,Juniors 20-25,Marvin Fuentes,,187.5,187.5,TX,USA,,,4
90,D,M,Single-ply,Juniors 20-25,Matthew Marsiglia,,305,305,MI,USA,,,1
90,D,M,Single-ply,Juniors 20-25,Bill Sanders,,295,295,MA,USA,,,2
90,D,M,Single-ply,Juniors 20-25,Dustin McFarland,,260,260,OR,USA,,,3
90,D,M,Single-ply,Juniors 20-25,Christopher Calderon,,237.5,237.5,TX,USA,,,4
100,D,M,Single-ply,Juniors 20-25,Jon Mokma,,260,260,MI,USA,,,1
100,D,M,Single-ply,Juniors 20-25,Andy Munsey,,260,260,OR,USA,,,2
100,D,M,Single-ply,Juniors 20-25,Adam Contreras,,182.5,182.5,CA,USA,,,3
110,D,M,Single-ply,Juniors 20-25,Garrett Muro,,317.5,317.5,NV,USA,,,1
110,D,M,Single-ply,Juniors 20-25,Jose Trejo,,212.5,212.5,TX,USA,,,2
125,D,M,Single-ply,Juniors 20-25,Valente Inniss-Thompson,,272.5,272.5,TX,USA,,,1
140+,D,M,Single-ply,Juniors 20-25,Frank Ginez III,,275,275,TX,USA,,,1
75,D,M,Single-ply,Submasters 33-39,Marchand Fleming,,250,250,OK,USA,,,1
75,D,M,Single-ply,Submasters 33-39,Chad McFarland,,196,196,OR,USA,,,2
75,D,M,Single-ply,Submasters 33-39,John Petersen,,187.5,187.5,WI,USA,,,3
82.5,D,M,Single-ply,Submasters 33-39,Aaron Pina,,217.5,217.5,CA,USA,,,1
90,D,M,Single-ply,Submasters 33-39,Brad Koyle,,272.5,272.5,UT,USA,,,1
90,D,M,Single-ply,Submasters 33-39,Charles Farmer,,260,260,MT,USA,,,2
90,D,M,Single-ply,Submasters 33-39,Jeremy Nunes,,242.5,242.5,CA,USA,,,3
90,D,M,Single-ply,Submasters 33-39,Joe Young,,220,220,NV,USA,,,4
100,D,M,Single-ply,Submasters 33-39,Shahid Shabazz,,250,250,IL,USA,,,2
100,D,M,Single-ply,Submasters 33-39,Marc Taylor,,227.5,227.5,MN,USA,,,3
110,D,M,Single-ply,Submasters 33-39,Kari Pöntinen,,325,325,,Finland,,,1
110,D,M,Single-ply,Submasters 33-39,Christian Draayer,,232.5,232.5,MN,USA,,,2
117.5,D,M,Single-ply,Submasters 33-39,Harjeet Kumar,,272.5,272.5,,India,,,1
140+,D,M,Single-ply,Submasters 33-39,Keoni Reich,,315,315,HI,USA,,,1
67.5,D,M,Single-ply,Masters 40-46,Willis McCoy,,200.5,200.5,OH,USA,,,1
90,D,M,Single-ply,Masters 40-46,Mark Pearce,,267.5,267.5,TX,USA,,,1
90,D,M,Single-ply,Masters 40-46,Doug Noebe,,227.5,227.5,OH,USA,,,2
90,D,M,Single-ply,Masters 40-46,Rolando Espinoza,,227.5,227.5,TX,USA,,,3
100,D,M,Single-ply,Masters 40-46,Al Tortorelli,,295.5,295.5,CA,USA,,,1
100,D,M,Single-ply,Masters 40-46,Tim Sparkes,,282.5,282.5,AZ,USA,,,2
100,D,M,Single-ply,Masters 40-46,Steven Petersen,,267.5,267.5,TX,USA,,,3
110,D,M,Single-ply,Masters 40-46,Al Bianchi,,310,310,MA,USA,,,1
110,D,M,Single-ply,Masters 40-46,Robert Exum,,282.5,282.5,CA,USA,,,2
110,D,M,Single-ply,Masters 40-46,Brian Graupmann,,242.5,242.5,MN,USA,,,3
117.5,D,M,Single-ply,Masters 40-46,Terry Putman,,272.5,272.5,OK,USA,,,1
117.5,D,M,Single-ply,Masters 40-46,Lance Davis,,260,260,UT,USA,,,2
125,D,M,Single-ply,Masters 40-46,Patrick Holloway,,372.5,372.5,AZ,USA,,,1
140,D,M,Single-ply,Masters 40-46,Thomas Guiney,,285,285,OK,USA,,,1
140,D,M,Single-ply,Masters 40-46,Naresh Kumar,,230,230,,India,,,2
140,D,M,Single-ply,Masters 40-46,Warren Orr,,220,220,,Canada,,,3
140,D,M,Single-ply,Masters 40-46,Mark Phillips,,,,TN,USA,,,DQ
140+,D,M,Single-ply,Masters 40-46,Dean Munsey,,296,296,OR,USA,,,1
140+,D,M,Single-ply,Masters 40-46,Harjinder Kumar,,,,,India,,,DQ
67.5,D,M,Single-ply,Masters 47-53,Paul Wach,,148,148,UT,USA,,,1
75,D,M,Single-ply,Masters 47-53,David Felton,,247.5,247.5,WI,USA,,,1
75,D,M,Single-ply,Masters 47-53,Fulton White,,232.5,232.5,NV,USA,,,2
75,D,M,Single-ply,Masters 47-53,Dave Constantineau,,210,210,WI,USA,,,3
82.5,D,M,Single-ply,Masters 47-53,Leamon Woodley,,305,305,WA,USA,,,1
82.5,D,M,Single-ply,Masters 47-53,Chris Goyes,,235,235,TX,USA,,,2
82.5,D,M,Single-ply,Masters 47-53,Mark Lo,,235,235,HI,USA,,,3
82.5,D,M,Single-ply,Masters 47-53,David Brekke,,207.5,207.5,CA,USA,,,4
90,D,M,Single-ply,Masters 47-53,Tom Eiseman,,325,325,NJ,USA,,,1
90,D,M,Single-ply,Masters 47-53,Jody Woods,,275,275,CA,USA,,,2
90,D,M,Single-ply,Masters 47-53,Dan Guches,,260,260,OR,USA,,,3
100,D,M,Single-ply,Masters 47-53,Steve Lemari,,312.5,312.5,LA,USA,,,1
100,D,M,Single-ply,Masters 47-53,Mitch Edelstein,,302.5,302.5,MN,USA,,,2
100,D,M,Single-ply,Masters 47-53,Robert Harris,,232.5,232.5,NV,USA,,,3
100,D,M,Single-ply,Masters 47-53,Steve Gaytan,,227.5,227.5,CA,USA,,,4
100,D,M,Single-ply,Masters 47-53,Dan Peterson,,207.5,207.5,CA,USA,,,5
100,D,M,Single-ply,Masters 47-53,Gene A Wenzel,,200,200,OH,USA,,,6
110,D,M,Single-ply,Masters 47-53,Harry Munro,,245,245,CA,USA,,,1
110,D,M,Single-ply,Masters 47-53,Kenneth Engleman,,197.5,197.5,CA,USA,,,2
117.5,D,M,Single-ply,Masters 47-53,Bobby Driskill,,310,310,AL,USA,,,1
140,D,M,Single-ply,Masters 47-53,Andy Medak,,295,295,WA,USA,,,1
140,D,M,Single-ply,Masters 47-53,Alan Aerts,,260,260,CA,USA,,,2
140,D,M,Single-ply,Masters 47-53,Blair Fisher,,257.5,257.5,,Canada,,,3
140,D,M,Single-ply,Masters 47-53,Joe Mickelson,,240,240,WA,USA,,,4
140,D,M,Single-ply,Masters 47-53,Tom James,,227.5,227.5,CA,USA,,,5
140+,D,M,Single-ply,Masters 47-53,James Mersberg,,227.5,227.5,HI,USA,,,1
75,D,M,Single-ply,Masters 54-60,Richard Cirigliano,,273,273,CA,USA,,,1
75,D,M,Single-ply,Masters 54-60,Gregory Kleyn,,255,255,IL,USA,,,2
82.5,D,M,Single-ply,Masters 54-60,Richard Hagedorn,,250,250,AL,USA,,,1
82.5,D,M,Single-ply,Masters 54-60,George Jeffery Thornton,,145,145,AZ,USA,,,2
90,D,M,Single-ply,Masters 54-60,Charles McFarland,,255,255,OR,USA,,,1
90,D,M,Single-ply,Masters 54-60,Randy Waldorf,,212.5,212.5,MN,USA,,,2
100,D,M,Single-ply,Masters 54-60,Jim Curley,,220,220,CO,USA,,,1
100,D,M,Single-ply,Masters 54-60,Dennis Cameron,,190,190,NV,USA,,,2
110,D,M,Single-ply,Masters 54-60,Cliff Sandberg,,262.5,262.5,WA,USA,,,1
110,D,M,Single-ply,Masters 54-60,Marvin Hollan,,262.5,262.5,TX,USA,,,2
110,D,M,Single-ply,Masters 54-60,Bill Anderberg,,250,250,OR,USA,,,3
110,D,M,Single-ply,Masters 54-60,Gary Stevens,,232.5,232.5,WY,USA,,,4
110,D,M,Single-ply,Masters 54-60,Thomas Wright,,182.5,182.5,KS,USA,,,5
140+,D,M,Single-ply,Masters 54-60,Leo Contreras,,142.5,142.5,CA,USA,,,1
75,D,M,Single-ply,Masters 61-67,James Christian,,207.5,207.5,TX,USA,,,1
75,D,M,Single-ply,Masters 61-67,Ray Gandeza Sr,,205,205,HI,USA,,,2
75,D,M,Single-ply,Masters 61-67,Ron White,,127.5,127.5,WA,USA,,,3
75,D,M,Single-ply,Masters 61-67,Martin Montgomery,,,,IN,USA,,,DQ
82.5,D,M,Single-ply,Masters 61-67,Robert Krowech,,257.5,257.5,MN,USA,,,1
82.5,D,M,Single-ply,Masters 61-67,Jerry Shetka,,227.5,227.5,MN,USA,,,2
82.5,D,M,Single-ply,Masters 61-67,Jack Rankin,,210,210,WA,USA,,,3
90,D,M,Single-ply,Masters 61-67,Bob Hochstein,,245,245,IL,USA,,,1
90,D,M,Single-ply,Masters 61-67,Doug Dienelt,,240,240,CA,USA,,,2
100,D,M,Single-ply,Masters 61-67,Jon Wolbers,,272.5,272.5,,Canada,,,1
110,D,M,Single-ply,Masters 61-67,Robert Wass,,212.5,212.5,OR,USA,,,1
110,D,M,Single-ply,Masters 61-67,Tom Overholtzer,,212.5,212.5,CA,USA,,,2
117.5,D,M,Single-ply,Masters 61-67,Bud Davis,,305,305,UT,USA,,310.5,1
125,D,M,Single-ply,Masters 61-67,Manuel Herrera,,217.5,217.5,UT,USA,,,1
60,D,M,Single-ply,Masters 68-74,Salvatore Morabito,,125.5,125.5,CA,USA,,,1
67.5,D,M,Single-ply,Masters 68-74,Larry Vincent,,155,155,OR,USA,,,1
67.5,D,M,Single-ply,Masters 68-74,Thomas English,,122.5,122.5,NV,USA,,,2
75,D,M,Single-ply,Masters 68-74,Arlindo da Silva,,170,170,,Brazil,,,1
82.5,D,M,Single-ply,Masters 68-74,Dan Martin,,207.5,207.5,NV,USA,,,1
82.5,D,M,Single-ply,Masters 68-74,Ed Angstrom,,190,190,IA,USA,,,2
82.5,D,M,Single-ply,Masters 68-74,Sonny Nummi,,172.5,172.5,ID,USA,,,3
90,D,M,Single-ply,Masters 68-74,James Rouse,,238,238,IL,USA,,,1
90,D,M,Single-ply,Masters 68-74,Alfred Franke,,237.5,237.5,NV,USA,,,2
90,D,M,Single-ply,Masters 68-74,John Herbein,,182.5,182.5,PA,USA,,,3
100,D,M,Single-ply,Masters 68-74,Jim Huggins,,185,185,WA,USA,,,1
60,D,M,Single-ply,Masters 75-79,Steve Smith,,115,115,FL,USA,,,1
100,D,M,Single-ply,Masters 75-79,John Felton,,178,178,MN,USA,,,1
110,D,M,Single-ply,Masters 75-79,Russell Combest,,217.5,217.5,OH,USA,,,1
110,D,M,Single-ply,Masters 75-79,Lou Corulli,,102.5,102.5,WA,USA,,,2
75,D,M,Single-ply,Masters 80-84,Jim Schall,,122.5,122.5,WA,USA,,,1
82.5,D,M,Single-ply,Masters 80-84,Roy Kahn,,92.5,92.5,CA,USA,,,1
100,D,M,Single-ply,Masters 80-84,James Weiss,,127.5,127.5,CA,USA,,,1
82.5,D,M,Single-ply,Masters 85-89,Bladen McClelland,,125,125,MI,USA,,,1
82.5,D,M,Single-ply,Law-Fire Open,Dave Claroni,,220.5,220.5,ME,USA,,,1
90,D,M,Single-ply,Law-Fire Open,Nick Berriman,,220,220,OR,USA,,,1
100,D,M,Single-ply,Law-Fire Open,Greg Alves,,225,225,CA,USA,,,1
140,D,M,Single-ply,Law-Fire Open,Tommy Harrison,,275,275,IL,USA,,,1
140,D,M,Single-ply,Law-Fire Open,Manny Burruel,,255,255,CA,USA,,,2
100,D,M,Single-ply,Submasters 33-39,Kerry Barbetti,,272.5,272.5,MN,USA,,,1
140,D,M,Single-ply,Submasters 33-39,Tommy Harrison,,275,275,IL,USA,,,1
140+,D,M,Single-ply,Submasters 33-39,Keoni Reich,,315,315,HI,USA,,,2
117.5,D,M,Single-ply,Law-Fire 40-47,Lance Davis,,260,260,UT,USA,,,1
140,D,M,Single-ply,Law-Fire 40-47,Warren Orr,,220,220,,Canada,,,1
100,D,M,Single-ply,Law-Fire 48-55,Greg Alves,,225,225,CA,USA,,,1
100,D,M,Single-ply,Law-Fire 48-55,William Denniston,,212.5,212.5,MI,USA,,,2
140,D,M,Single-ply,Law-Fire 48-55,Manny Burruel,,255,255,CA,USA,,,1
100,D,M,Single-ply,Law-Fire 56,Dennis Cameron,,190,190,NV,USA,,,1
110,D,M,Single-ply,Law-Fire 56,Marvin Hollan,,262.5,262.5,TX,USA,,,1
110,D,M,Single-ply,Law-Fire 56,Tom Overholtzer,,212.5,212.5,CA,USA,,,2
48,B,F,Single-ply,Open,Yu-Xin Hao,75,,75,OH,USA,,,1
48,B,F,Single-ply,Open,Patricia Loera-Lewis,72.5,,72.5,CA,USA,,,2
52,B,F,Single-ply,Open,Hedy Miller,90,,90,UT,USA,,,1
60,B,F,Single-ply,Open,Mary Ann Hobbs,50,,50,WA,USA,,,1
60,B,F,Single-ply,Open,Dolores Garcia-Munro,40,,40,CA,USA,,,2
67.5,B,F,Single-ply,Open,Marilynn Mathis,120,,120,TX,USA,,,1
67.5,B,F,Single-ply,Open,Virpi Pukkila,120,,120,,Finland,,,2
67.5,B,F,Single-ply,Open,Jeanne Watts,113,,113,CA,USA,,,3
67.5,B,F,Single-ply,Open,Kim Carter,102.5,,102.5,IL,USA,,,4
67.5,B,F,Single-ply,Open,Rachele Unson,95,,95,WA,USA,,,5
67.5,B,F,Single-ply,Open,Nancy Carpenter,95,,95,,Canada,,,6
75,B,F,Single-ply,Open,Peach Presley,85,,85,CA,USA,,,1
82.5,B,F,Single-ply,Open,Annie Bowman,127.5,,127.5,WA,USA,,,1
82.5,B,F,Single-ply,Open,Karen Campbell,,,,ME,USA,,,DQ
90,B,F,Single-ply,Open,Julie Kimoto,120,,120,HI,USA,,,1
90,B,F,Single-ply,Open,Marlita Pera,107.5,,107.5,CA,USA,,,2
90,B,F,Single-ply,Open,Lauren Vaterlaus,85,,85,CA,USA,,,3
44,B,F,Single-ply,Special Olympian,Kathleen Sitton,35,,35,OR,USA,,,1
52,B,F,Single-ply,Teen 12-13,Brianna Judd,52.5,,52.5,AZ,USA,,,1
67.5,B,F,Single-ply,Teen 12-13,Ali Miskinis,65,,65,OH,USA,68.5,,1
44,B,F,Single-ply,Teen 12-13,Payton Haymore,35,,35,AZ,USA,,,1
52,B,F,Single-ply,Teen 14-15,Christa Judd,45,,45,AZ,USA,,,1
52,B,F,Single-ply,Teen 14-15,Tessa Campbell,35,,35,CA,USA,,,2
48,B,F,Single-ply,Teen 16-17,Angela Rocha,55,,55,TX,USA,,,1
48,B,F,Single-ply,Teen 16-17,Cheyenne Tavares,50.5,,50.5,HI,USA,,,2
56,B,F,Single-ply,Teen 16-17,Amanda Wenzel,47.5,,47.5,WA,USA,,,1
75,B,F,Single-ply,Teen 16-17,Sarah Biddle,80,,80,IN,USA,,,1
75,B,F,Single-ply,Teen 16-17,Tasha Dotson,40,,40,WA,USA,,,2
56,B,F,Single-ply,Teen 18-19,Ambyr Reyes,97.5,,97.5,UT,USA,102.5,,1
82.5,B,F,Single-ply,Teen 18-19,Hannah Biddle,62.5,,62.5,IN,USA,,,1
60,B,F,Single-ply,Juniors 20-25,Karina Phipps,70,,70,NV,USA,,,1
60,B,F,Single-ply,Juniors 20-25,Mary-Ann Sutton,45,,45,CA,USA,,,2
60,B,F,Single-ply,Juniors 20-25,Rocio Ruiz,35,,35,,Mexico,,,3
67.5,B,F,Single-ply,Juniors 20-25,Linda Okoro,63,,63,TX,USA,,,1
82.5,B,F,Single-ply,Juniors 20-25,Courtney Meeker,137.5,,137.5,TX,USA,,,1
90,B,F,Single-ply,Juniors 20-25,Kayleigh Mc Aviney,105,,105,NV,USA,,,1
90,B,F,Single-ply,Juniors 20-25,Lauren Vaterlaus,85,,85,CA,USA,,,2
90,B,F,Single-ply,Juniors 20-25,Olga Hernandez,57.5,,57.5,TX,USA,,,3
48,B,F,Single-ply,Submasters 33-39,Patricia Loera-Lewis,72.5,,72.5,CA,USA,,,1
60,B,F,Single-ply,Submasters 33-39,Mary Ann Hobbs,50,,50,WA,USA,,,1
67.5,B,F,Single-ply,Submasters 33-39,Mondae Nunes,87.5,,87.5,CA,USA,,,2
75,B,F,Single-ply,Submasters 33-39,Rosie Mc Gill,,,,TX,USA,,,DQ
90,B,F,Single-ply,Submasters 33-39,Marlita Pera,107.5,,107.5,CA,USA,,,1
52,B,F,Single-ply,Masters 40-46,Lisa Nerio,62.5,,62.5,CO,USA,,,1
52,B,F,Single-ply,Masters 40-46,Rebecca Moore,62.5,,62.5,WA,USA,,,2
56,B,F,Single-ply,Masters 40-46,Claudia Rivera,82.5,,82.5,CA,USA,,,1
56,B,F,Single-ply,Masters 40-46,Marla McElroy,72.5,,72.5,IL,USA,,,2
67.5,B,F,Single-ply,Masters 40-46,Brenda Nolen,120.5,,120.5,CA,USA,,,1
67.5,B,F,Single-ply,Masters 40-46,Virpi Pukkila,120,,120,,Finland,,,2
67.5,B,F,Single-ply,Masters 40-46,Jeanne Watts,113,,113,CA,USA,,,3
67.5,B,F,Single-ply,Masters 40-46,Teresa Jacobs,100,,100,WA,USA,,,4
67.5,B,F,Single-ply,Masters 40-46,Rachele Unson,95,,95,WA,USA,,,5
82.5,B,F,Single-ply,Masters 40-46,Karen Campbell,,,,ME,USA,,,DQ
90,B,F,Single-ply,Masters 40-46,Michanne Berry,142.5,,142.5,IL,USA,,,1
44,B,F,Single-ply,Masters 40-46,Elizabeth Cabe,40,,40,HI,USA,,,1
90+,B,F,Single-ply,Masters 40-46,Jane Morales Costa,70,,70,,Brazil,,,1
56,B,F,Single-ply,Masters 47-53,Denise Ruff,77.5,,77.5,OR,USA,,,1
56,B,F,Single-ply,Masters 47-53,Sarah Sanford,67.5,,67.5,MN,USA,,,2
56,B,F,Single-ply,Masters 47-53,Bonnie Aerts,65,,65,CA,USA,,,3
56,B,F,Single-ply,Masters 47-53,Karon Denniston,58.5,,58.5,MI,USA,,,4
60,B,F,Single-ply,Masters 47-53,Beverly Anolin,81,,81,CA,USA,,,1
60,B,F,Single-ply,Masters 47-53,Diana Sutton,55,,55,OR,USA,,,2
60,B,F,Single-ply,Masters 47-53,Dolores Garcia-Munro,40,,40,CA,USA,,,3
67.5,B,F,Single-ply,Masters 47-53,Nancy Carpenter,95,,95,,Canada,,,1
75,B,F,Single-ply,Masters 47-53,Lisa Staplin,102.5,,102.5,MN,USA,,,1
75,B,F,Single-ply,Masters 47-53,Peach Presley,85,,85,CA,USA,,,2
75,B,F,Single-ply,Masters 47-53,Liz Houser,64,,64,CO,USA,,,3
82.5,B,F,Single-ply,Masters 47-53,Pamela Michaels-Olson,95,,95,WA,USA,,,1
90,B,F,Single-ply,Masters 47-53,Margie Huston,62.5,,62.5,WA,USA,,,1
44,B,F,Single-ply,Masters 47-53,Pamela Robinson,63,,63,CA,USA,,,1
52,B,F,Single-ply,Masters 54-60,Hedy Miller,90,,90,UT,USA,,,1
67.5,B,F,Single-ply,Masters 54-60,Marilynn Mathis,120,,120,TX,USA,,,1
82.5,B,F,Single-ply,Masters 54-60,Wilma Lee Cadavona,82.5,,82.5,ID,USA,,,1
82.5,B,F,Single-ply,Masters 54-60,Patricia Filinick,75,,75,CA,USA,,,2
90,B,F,Single-ply,Masters 54-60,Marilyn Lewis,90,,90,WA,USA,,,1
44,B,F,Single-ply,Masters 54-60,Sherry Abblett,46,,46,CA,USA,,,1
90+,B,F,Single-ply,Masters 54-60,Sue Vaterlaus,102.5,,102.5,CA,USA,,,1
52,B,F,Single-ply,Masters 61-67,Jacqueline Templer,40,,40,AZ,USA,,,1
60,B,F,Single-ply,Masters 61-67,Faith Ireland,67.5,,67.5,WA,USA,68.5,,1
60,B,F,Single-ply,Masters 61-67,Leona Pereza,42.5,,42.5,HI,USA,,,2
67.5,B,F,Single-ply,Masters 61-67,Lynn Ford,26,,26,CA,USA,,,1
82.5,B,F,Single-ply,Masters 61-67,Pat Robey,97.5,,97.5,WA,USA,,,1
82.5,B,F,Single-ply,Masters 61-67,Louise Jones #1,59,,59,CA,USA,,,2
60,B,F,Single-ply,Masters 68-74,Mary Miller,55.5,,55.5,IN,USA,57.5,,1
60,B,F,Single-ply,Masters 68-74,Sue Clark,50,,50,TX,USA,,,2
75,B,F,Single-ply,Masters 68-74,Gerda Shupe,62.5,,62.5,CA,USA,65,,1
82.5,B,F,Single-ply,Masters 68-74,Barbara Meraz,32.5,,32.5,CA,USA,,,1
90,B,F,Single-ply,Masters 68-74,Winifred Pristell,80.5,,80.5,WA,USA,81,,1
67.5,B,F,Single-ply,Masters 80-84,Melicent Whinston,33,,33,OR,USA,34,,1
67.5,B,F,Single-ply,Masters 80-84,Ann Fornachon,30,,30,CA,USA,,,2
90,B,F,Single-ply,Masters 80-84,Gloria Mighell,31.5,,31.5,OR,USA,,,1
75,B,F,Single-ply,Masters 85-89,Shirley Coen,26.5,,26.5,CA,USA,,,1
90,B,F,Single-ply,Law-Fire Open,Julie Kimoto,118,,118,HI,USA,,,1
67.5,B,F,Single-ply,Submasters 33-39,Kim Carter,102.5,,102.5,IL,USA,,,1
56,B,F,Single-ply,Law-Fire 40-47,Leticia Rosales-Buie,67.5,,67.5,CA,USA,,,1
48,D,F,Single-ply,Open,Cheryl Anderson,,155.5,155.5,MN,USA,,,1
48,D,F,Single-ply,Open,Patricia Loera-Lewis,,122.5,122.5,CA,USA,,,2
60,D,F,Single-ply,Open,Velma Panlasigui,,137.5,137.5,HI,USA,,,1
60,D,F,Single-ply,Open,Mary Ann Hobbs,,132.5,132.5,WA,USA,,,2
60,D,F,Single-ply,Open,Dolores Garcia-Munro,,107.5,107.5,CA,USA,,,3
67.5,D,F,Single-ply,Open,Jeanne Watts,,175,175,CA,USA,,,1
67.5,D,F,Single-ply,Open,Marilynn Mathis,,170,170,TX,USA,,,2
67.5,D,F,Single-ply,Open,Kim Carter,,145.5,145.5,IL,USA,,,3
67.5,D,F,Single-ply,Open,Rachele Unson,,142.5,142.5,WA,USA,,,4
67.5,D,F,Single-ply,Open,Amanda Iceton,,120,120,KS,USA,,,5
75,D,F,Single-ply,Open,Theresa Holte,,196.5,196.5,OR,USA,,,1
75,D,F,Single-ply,Open,Jamie Clawson,,122.5,122.5,MT,USA,,,2
82.5,D,F,Single-ply,Open,Karen Campbell,,200,200,ME,USA,,,1
82.5,D,F,Single-ply,Open,Rebekah Schmidt,,197.5,197.5,MN,USA,,,2
82.5,D,F,Single-ply,Open,Annie Bowman,,170,170,WA,USA,,,3
90,D,F,Single-ply,Open,Marlita Pera,,170.5,170.5,CA,USA,,,1
44,D,F,Single-ply,Open,Elizabeth Cabe,,128,128,HI,USA,,,1
44,D,F,Single-ply,Special Olympian,Kathleen Sitton,,65.5,65.5,OR,USA,,,1
52,D,F,Single-ply,Teen 12-13,Brianna Judd,,92.5,92.5,AZ,USA,,,1
67.5,D,F,Single-ply,Teen 12-13,Ali Miskinis,,97.5,97.5,OH,USA,,,1
44,D,F,Single-ply,Teen 12-13,Payton Haymore,,75,75,AZ,USA,,,1
52,D,F,Single-ply,Teen 14-15,Christa Judd,,87.5,87.5,AZ,USA,,,1
75,D,F,Single-ply,Teen 14-15,Nicole Cartwright,,147.5,147.5,CA,USA,,157.5,1
90,D,F,Single-ply,Teen 14-15,Jacqueline Wickens,,165,165,NV,USA,,,1
48,D,F,Single-ply,Teen 16-17,Cheyenne Tavares,,118,118,HI,USA,,123,1
48,D,F,Single-ply,Teen 16-17,Angela Rocha,,115.5,115.5,TX,USA,,,2
52,D,F,Single-ply,Teen 16-17,Shelby Stott,,92.5,92.5,WA,USA,,,1
56,D,F,Single-ply,Teen 16-17,Amanda Wenzel,,95,95,WA,USA,,,1
75,D,F,Single-ply,Teen 16-17,Sarah Biddle,,137.5,137.5,IN,USA,,,1
75,D,F,Single-ply,Teen 16-17,Tasha Dotson,,82.5,82.5,WA,USA,,,2
82.5,D,F,Single-ply,Teen 18-19,Hannah Biddle,,120,120,IN,USA,,,1
48,D,F,Single-ply,Submasters 33-39,Cheryl Anderson,,155.5,155.5,MN,USA,,,1
48,D,F,Single-ply,Submasters 33-39,Patricia Loera-Lewis,,122.5,122.5,CA,USA,,,2
60,D,F,Single-ply,Submasters 33-39,Mary Ann Hobbs,,132.5,132.5,WA,USA,,,1
75,D,F,Single-ply,Submasters 33-39,Rosie Mc Gill,,125,125,TX,USA,,,1
90,D,F,Single-ply,Submasters 33-39,Marlita Pera,,170.5,170.5,CA,USA,,,1
90+,D,F,Single-ply,Submasters 33-39,Leilana McKindra,,195,195,IN,USA,,,1
52,D,F,Single-ply,Masters 40-46,Rebecca Moore,,92.5,92.5,WA,USA,,,1
56,D,F,Single-ply,Masters 40-46,Claudia Rivera,,117.5,117.5,CA,USA,,,1
60,D,F,Single-ply,Masters 40-46,Velma Panlasigui,,137.5,137.5,HI,USA,,,1
67.5,D,F,Single-ply,Masters 40-46,Teresa Jacobs,,182.5,182.5,WA,USA,,,1
67.5,D,F,Single-ply,Masters 40-46,Jeanne Watts,,175,175,CA,USA,,,2
67.5,D,F,Single-ply,Masters 40-46,Kelly Kennedy,,162.5,162.5,OR,USA,,,3
67.5,D,F,Single-ply,Masters 40-46,Rachele Unson,,142.5,142.5,WA,USA,,,4
67.5,D,F,Single-ply,Masters 40-46,Brenda Nolen,,122.5,122.5,CA,USA,,,5
75,D,F,Single-ply,Masters 40-46,Josefina Jackson,,137.5,137.5,TX,USA,,,1
82.5,D,F,Single-ply,Masters 40-46,Karen Campbell,,200,200,ME,USA,,,1
82.5,D,F,Single-ply,Masters 40-46,Jennifer Taylor,,197.5,197.5,OR,USA,,,2
90,D,F,Single-ply,Masters 40-46,Michanne Berry,,120,120,IL,USA,,,1
44,D,F,Single-ply,Masters 40-46,Elizabeth Cabe,,128,128,HI,USA,,,1
52,D,F,Single-ply,Masters 47-53,Jeanne Morris,,105,105,WA,USA,,,1
56,D,F,Single-ply,Masters 47-53,Denise Ruff,,167.5,167.5,OR,USA,,,1
56,D,F,Single-ply,Masters 47-53,Bonnie Aerts,,130.5,130.5,CA,USA,,,2
56,D,F,Single-ply,Masters 47-53,Karon Denniston,,93,93,MI,USA,,,3
60,D,F,Single-ply,Masters 47-53,Beverly Anolin,,145,145,CA,USA,,,1
60,D,F,Single-ply,Masters 47-53,Dolores Garcia-Munro,,107.5,107.5,CA,USA,,,2
75,D,F,Single-ply,Masters 47-53,Theresa Holte,,196.5,196.5,OR,USA,,,1
82.5,D,F,Single-ply,Masters 47-53,Pamela Michaels-Olson,,175.5,175.5,WA,USA,,,1
90,D,F,Single-ply,Masters 47-53,Margie Huston,,147.5,147.5,WA,USA,,,1
67.5,D,F,Single-ply,Masters 54-60,Marilynn Mathis,,170,170,TX,USA,,,1
90,D,F,Single-ply,Masters 54-60,Marilyn Lewis,,147.5,147.5,WA,USA,,,1
60,D,F,Single-ply,Masters 61-67,Faith Ireland,,125,125,WA,USA,,,1
75,D,F,Single-ply,Masters 61-67,Judith Petray,,140,140,CA,USA,,,1
82.5,D,F,Single-ply,Masters 61-67,Pat Robey,,110,110,WA,USA,,,1
60,D,F,Single-ply,Masters 68-74,Sue Clark,,112.5,112.5,TX,USA,,,1
90,D,F,Single-ply,Masters 68-74,Winifred Pristell,,123,123,WA,USA,,126.5,1
67.5,D,F,Single-ply,Masters 80-84,Melicent Whinston,,65,65,OR,USA,,71,1
90,D,F,Single-ply,Masters 80-84,Gloria Mighell,,35,35,OR,USA,,36.5,1
67.5,D,F,Single-ply,Submasters 33-39,Kim Carter,,145.5,145.5,IL,USA,,,1
56,D,F,Single-ply,Law-Fire 48-55,Leticia Rosales-Buie,,122.5,122.5,CA,USA,,,1
