Place,Name,CyrillicName,Division,BirthDate,Age,WeightClassKg,Sex,Event,Equipment,Tested,BodyweightKg,Country,Squat1Kg,Squat2Kg,Squat3Kg,Best3SquatKg,Bench1Kg,Bench2Kg,Bench3Kg,Best3BenchKg,Bench4Kg,Deadlift1Kg,Deadlift2Kg,Deadlift3Kg,Best3DeadliftKg,Deadlift4Kg,TotalKg
1,Irina Bozhenkova,Ирина Боженкова,Open,1969-07-19,50,67.5,F,BD,Raw,Yes,64.4,Bulgaria,,,,,60,65,70,70,,160,-167.5,-167.5,160,,230
2,Polina Zagurskaya,Полина Загурская,Open,1986-09-19,33,68.5,F,BD,Raw,Yes,59.2,Bulgaria,,,,,45,-47.5,-47.5,45,,115,122.5,132.5,132.5,,177.5
3,Elena Kulgavaya,Елена Кульгавая,Open,1990-03-02,29,69.5,F,BD,Raw,Yes,65.9,Bulgaria,,,,,47.5,50,55,55,,100,107.5,112.5,112.5,,167.5
4,Elena Ponochovnaya,Елена Поночовная,Open,1986-10-08,33,70.5,F,BD,Raw,Yes,61.9,Bulgaria,,,,,42.5,47.5,50,50,,90,100,107.5,107.5,,157.5
1,Timofey Grubyy,Тимофей Грубый,Sub-Juniors 17-19,2002-02-26,17,82.5,M,BD,Raw,Yes,74.1,Bulgaria,,,,,115,120,125,125,,190,-195,195,195,,320
2,Nikita Kovalkov,Никита Ковальков,Sub-Juniors 17-19,2001-10-07,18,82.5,M,BD,Raw,Yes,82.2,Bulgaria,,,,,107.5,-115,115,115,,175,-182.5,-182.5,175,,290
1,Mikhail Brovko,Михаил Бровко,Open,1985-10-15,34,82.5+,M,BD,Raw,Yes,89.2,Bulgaria,,,,,190,195,200,200,,300,310,-330,310,,510
2,Alesandr Semenyuk,Алесандр Семенюк,Open,1995-05-16,24,82.5+,M,BD,Raw,Yes,88.2,Bulgaria,,,,,170,180,190,190,,-280,280,-300,280,,470
3,Ratnieks Edgar,Ратниекс Эдгар,Open,1987-01-13,32,82.5+,M,BD,Raw,Yes,108.8,Latvia,,,,,200,-210,-215,200,,300,-320,-320,300,,500
4,Yuriy Lyubimov,Юрий Любимов,Open,1988-10-08,31,82.5+,M,BD,Raw,Yes,92,Bulgaria,,,,,-165,172.5,-175,172.5,,245,255,-267.5,255,,427.5
5,Aleksey Ivanov,Алексей Иванов,Open,1994-04-11,25,82.5+,M,BD,Raw,Yes,93.6,Bulgaria,,,,,140,150,160,160,,270,-280,-280,270,,430
6,Aleksandr Kozlov,Александр Козлов,Open,1994-02-02,25,82.5+,M,BD,Raw,Yes,99.3,Bulgaria,,,,,150,155,160,160,,260,270,-282.5,270,,430
7,Andrey Baturin,Андрей Батурин,Open,1980-12-13,38,82.5+,M,BD,Raw,Yes,106.9,Bulgaria,,,,,-132.5,135,142.5,142.5,,232.5,245,-255,245,,387.5
1,Ruslan Kravchuk,Руслан Кравчук,Masters 40-49,1972-05-28,47,125,M,BD,Raw,Yes,118,Bulgaria,,,,,180,-190,-190,180,,290,-305,,290,,470
1,Nikolay Porabanyuk,Николай Порабанюк,Masters 60-69,1959-03-27,60,100,M,BD,Raw,Yes,97.6,Bulgaria,,,,,-90,95,100,100,,185,200,,200,,300
2,Sergey Poletaev,Сергей Полетаев,Masters 60-69,1951-12-01,67,100,M,BD,Raw,Yes,82.6,Bulgaria,,,,,-95,-95,95,95,,160,-170,,160,,255
DQ,Diana Ivanina,Диана Иванина,Open,1997-01-11,22,67.5,F,B,Multi-ply,No,62.3,Bulgaria,,,,,-115,-115,-115,,,,,,,,
1,Sergey Kapyrin,Сергей Капырин,Open,1971-01-18,48,82.5+,M,B,Multi-ply,No,107.2,Bulgaria,,,,,-290,290,305,305,-330,,,,,,305
2,Aleksandr Makey,Александр Макей,Open,1964-02-15,55,82.5+,M,B,Multi-ply,No,106.2,Bulgaria,,,,,-280,280,300,300,,,,,,,300
3,Aleksandr Zaytsev,Александр Зайцев,Open,1978-01-01,41,82.5+,M,B,Multi-ply,No,143.2,Russia,,,,,270,290,-312.5,290,,,,,,,290
4,Igor Ekimchik,Игорь Екимчик,Open,1967-03-14,52,82.5+,M,B,Multi-ply,No,89.5,Bulgaria,,,,,235,250,-260,250,,,,,,,250
1,Aleksandr Zaytsev,Александр Зайцев,Masters 40-49,1978-01-01,41,125+,M,B,Multi-ply,No,143.2,Russia,,,,,270,290,-312.5,290,,,,,,,290
1,Aleksandr Makey,Александр Макей,Masters 50-59,1964-02-15,55,110,M,B,Multi-ply,No,106.2,Bulgaria,,,,,-280,280,300,300,,,,,,,300
2,Igor Ekimchik,Игорь Екимчик,Masters 50-59,1967-03-14,52,110,M,B,Multi-ply,No,89.5,Bulgaria,,,,,235,250,-260,250,,,,,,,250
1,Aleksandra Zakrevskaya,Александра Закревская,Open,1984-08-31,35,67.5,F,B,Multi-ply,No,55,Bulgaria,,,,,70,-80,80,80,,,,,,,80
1,Roman Prokopenko,Роман Прокопенко,Sub-Juniors 17-19,2001-11-30,17,75,M,B,Multi-ply,No,72.9,Bulgaria,,,,,-130,130,-150,130,,,,,,,130
1,Viktor Gorbachevskiy,Виктор Горбачевский,Open,1969-04-28,50,100,M,B,Multi-ply,No,99.3,Bulgaria,,,,,205,212.5,215,215,,,,,,,215
2,Aleksandr Manyuk,Александр Манюк,Open,1993-09-25,26,100,M,B,Multi-ply,No,87.7,Bulgaria,,,,,205,-222.5,-222.5,205,,,,,,,205
1,Viktor Gorbachevskiy,Виктор Горбачевский,Masters 50-59,1969-04-28,50,100,M,B,Multi-ply,No,99.3,Bulgaria,,,,,205,212.5,215,215,,,,,,,215
1,Vladimir Arkhipov,Владимир Архипов,Masters 70-79,1942-09-26,77,110,M,B,Multi-ply,No,105.2,Bulgaria,,,,,80,-90,90,90,,,,,,,90
1,Aleksandra Zakrevskaya,Александра Закревская,Open,1984-08-31,35,56,M,B,Single-ply,Yes,55,Bulgaria,,,,,70,-77.5,-77.5,70,,,,,,,70
1,Stanislav Vasilev,Станислав Васильев,Open,1986-03-12,33,82.5,M,B,Single-ply,Yes,80.7,Bulgaria,,,,,-230,230,-240,230,,,,,,,230
2,Vitaliy Shashkov,Виталий Шашков,Open,1985-03-11,34,82.5,M,B,Single-ply,Yes,81.7,Bulgaria,,,,,175,185,-200,185,,,,,,,185
3,Evgeniy Morozov,Евгений Морозов,Open,1966-10-24,53,82.5,M,B,Single-ply,Yes,82.1,Bulgaria,,,,,170,185,-200,185,,,,,,,185
1,Dmitriy Shashkov,Дмитрий Шашков,Open,1982-07-29,37,125,M,B,Single-ply,Yes,100.5,Bulgaria,,,,,360,-367.5,-370,360,,,,,,,360
2,Vadim Korzhenevich,Вадим Корженевич,Open,1989-08-17,30,125,M,B,Single-ply,Yes,106.8,Bulgaria,,,,,247.5,260,270,270,,,,,,,270
3,Mikhail Gasyuk,Михаил Гасюк,Open,1986-11-20,32,125,M,B,Single-ply,Yes,123.2,Bulgaria,,,,,262.5,280,-300,280,,,,,,,280
4,Anatoliy Markovichenko,Анатолий Марковиченко,Open,1973-08-23,46,125,M,B,Single-ply,Yes,109.5,Bulgaria,,,,,225,240,-250,240,,,,,,,240
5,Nikolay Khimenkov,Николай Хименков,Open,1986-11-23,32,125,M,B,Single-ply,Yes,110.8,Bulgaria,,,,,230,-237.5,-237.5,230,,,,,,,230
6,Aleksandr Logvinov,Александр Логвинов,Open,1986-05-04,33,125,M,B,Single-ply,Yes,94.8,Bulgaria,,,,,202.5,-210,-210,202.5,,,,,,,202.5
1,Anatoliy Markovichenko,Анатолий Марковиченко,Masters 40-49,1973-08-23,46,110,M,B,Single-ply,Yes,109.5,Bulgaria,,,,,225,240,-250,240,,,,,,,240
1,Vladimir Kurilenko,Владимир Куриленко,Masters 50-59,1964-02-04,55,125,M,B,Single-ply,Yes,110.9,Bulgaria,,,,,210,220,-230,220,,,,,,,220
2,Evgeniy Morozov,Евгений Морозов,Masters 50-59,1966-10-24,53,125,M,B,Single-ply,Yes,82.1,Bulgaria,,,,,170,185,-200,185,,,,,,,185
3,Igor Artemyev,Игорь Артемьев,Masters 50-59,1968-09-10,51,125,M,B,Single-ply,Yes,84.4,Bulgaria,,,,,160,167.5,-172.5,167.5,,,,,,,167.5
1,Angelina Nikanovich,Ангелина Никанович,Open,1993-10-30,26,75,F,B,Raw,Yes,57.3,Bulgaria,,,,,77.5,82.5,85,85,,,,,,,85
2,Ekaterina Overchuk,Екатерина Оверчук,Open,1986-06-06,33,75,F,B,Raw,Yes,71.7,Bulgaria,,,,,85,90,97.5,97.5,,,,,,,97.5
3,Aleksandra Papshoy,Александра Папшой,Open,1989-09-03,30,75,F,B,Raw,Yes,54.9,Bulgaria,,,,,50,52.5,-55,52.5,,,,,,,52.5
1,Sergey Petrovets,Сергей Петровец,Teen,2000-08-29,19,100,M,B,Raw,Yes,78.3,Bulgaria,,,,,155,-160,,155,,,,,,,155
2,Valentin Konstantinov,Валентин Константинов,Teen,2003-02-14,16,100,M,B,Raw,Yes,73.7,Bulgaria,,,,,132.5,137.5,-142.5,137.5,,,,,,,137.5
3,Ruslan Gerasimenko,Руслан Герасименко,Teen,2001-08-26,18,100,M,B,Raw,Yes,67.5,Bulgaria,,,,,-115,115,125,125,,,,,,,125
4,Daniil Samarskiy,Даниил Самарский,Teen,2003-01-12,16,100,M,B,Raw,Yes,63.1,Russia,,,,,105,112.5,-120,112.5,,,,,,,112.5
5,Timofey Grubyy,Тимофей Грубый,Teen,2002-02-26,17,100,M,B,Raw,Yes,74.1,Bulgaria,,,,,115,120,125,125,,,,,,,125
6,Aleksey Mizulo,Алексей Мизуло,Teen,2000-06-26,19,100,M,B,Raw,Yes,98,Bulgaria,,,,,120,127.5,130,130,,,,,,,130
7,Ivan Kniga,Иван Книга,Teen,2002-03-04,17,100,M,B,Raw,Yes,59.5,Bulgaria,,,,,80,82.5,-87.5,82.5,,,,,,,82.5
8,David Grinkevich,Давид Гринкевич,Teen,2001-03-22,18,100,M,B,Raw,Yes,82.2,Bulgaria,,,,,95,-100,-100,95,,,,,,,95
1,Gleb Bolotnikov,Глеб Болотников,Juniors 20-23,1998-02-25,21,100,M,B,Raw,Yes,88.9,Bulgaria,,,,,170,180,185,185,,,,,,,185
2,Viktor Shagulin,Виктор Шагулин,Juniors 20-23,1998-01-13,21,100,M,B,Raw,Yes,95.1,Bulgaria,,,,,175,182.5,-185,182.5,,,,,,,182.5
3,Evgeniy Lazarchik,Евгений Лазарчик,Juniors 20-23,1996-11-11,22,100,M,B,Raw,Yes,88.5,Bulgaria,,,,,165,170,-180,170,,,,,,,170
4,Evgeniy Yanovich,Евгений Янович,Juniors 20-23,1996-11-01,23,100,M,B,Raw,Yes,81.4,Bulgaria,,,,,155,-160,,155,,,,,,,155
5,Maksim Andreev,Максим Андреев,Juniors 20-23,1996-07-15,23,100,M,B,Raw,Yes,89.8,Bulgaria,,,,,147.5,152.5,155,155,,,,,,,155
6,Vladislav Dudarenko,Владислав Дударенко,Juniors 20-23,1999-06-08,20,100,M,B,Raw,Yes,86.4,Bulgaria,,,,,145,150,-152.5,150,,,,,,,150
7,Vladislav Gerasimenko,Владислав Герасименко,Juniors 20-23,1999-04-14,20,100,M,B,Raw,Yes,67.4,Bulgaria,,,,,115,-125,-125,115,,,,,,,115
1,Evgeniy Bulkin,Евгений Булкин,Open,1989-09-21,30,82.5,M,B,Raw,Yes,72.3,Bulgaria,,,,,195,200,202.5,202.5,,,,,,,202.5
2,Igor Krupitsa,Игорь Крупица,Open,1968-06-03,51,82.5,M,B,Raw,Yes,73.6,Bulgaria,,,,,155,160,-165,160,,,,,,,160
3,Viktor Novik,Виктор Новик,Open,1984-03-20,35,82.5,M,B,Raw,Yes,80.8,Bulgaria,,,,,155,162.5,170,170,,,,,,,170
4,Dmitriy Rachkovskiy,Дмитрий Рачковский,Open,1991-07-06,28,82.5,M,B,Raw,Yes,81.4,Bulgaria,,,,,160,170,-172.5,170,,,,,,,170
5,Andrey Degtyarev,Андрей Дегтярев,Open,1994-07-21,25,82.5,M,B,Raw,Yes,82.3,Bulgaria,,,,,-160,-170,170,170,,,,,,,170
6,Anton Bushmakin,Антон Бушмакин,Open,1989-07-01,30,82.5,M,B,Raw,Yes,80.3,Bulgaria,,,,,125,-127.5,127.5,127.5,,,,,,,127.5
1,Vitaliy Porimon,Виталий Поримон,Open,1986-02-25,33,90,M,B,Raw,Yes,84.4,Bulgaria,,,,,210,-217.5,,210,,,,,,,210
2,Aleksandr Pashkovskiy,Александр Пашковский,Open,1982-12-25,36,90,M,B,Raw,Yes,88.4,Bulgaria,,,,,200,207.5,-212.5,207.5,,,,,,,207.5
3,Dmitriy Abakumov,Дмитрий Абакумов,Open,1985-11-01,34,90,M,B,Raw,Yes,89.4,Bulgaria,,,,,172.5,180,-182.5,180,,,,,,,180
4,Maksim Drozdov,Максим Дроздов,Open,1995-03-10,24,90,M,B,Raw,Yes,85,Bulgaria,,,,,170,175,,175,,,,,,,175
5,Yuriy Varivoda,Юрий Варивода,Open,1980-04-23,39,90,M,B,Raw,Yes,86.6,Bulgaria,,,,,157.5,162.5,-167.5,162.5,,,,,,,162.5
6,Evgeniy Lukyanchik,Евгений Лукьянчик,Open,1985-10-18,34,90,M,B,Raw,Yes,89.9,Bulgaria,,,,,132.5,142.5,-152.5,142.5,,,,,,,142.5
7,Maksim Kravets,Максим Кравец,Open,1988-12-11,30,90,M,B,Raw,Yes,87,Bulgaria,,,,,125,130,135,135,,,,,,,135
DQ,Vladimir Lazovskiy,Владимир Лазовский,Open,1982-02-04,37,90,M,B,Raw,Yes,87.4,Bulgaria,,,,,-177.5,-180,-180,,,,,,,,
1,Ilya Marchenkov,Илья Марченков,Open,1985-10-04,34,100,M,B,Raw,Yes,98.9,Bulgaria,,,,,210,-212.5,212.5,212.5,,,,,,,212.5
2,Artem Budrik,Артем Будрик,Open,1986-08-05,33,100,M,B,Raw,Yes,96.9,Bulgaria,,,,,200,205,-210,205,,,,,,,205
3,Aleksey Kosykh,Алексей Косых,Open,1987-01-25,32,100,M,B,Raw,Yes,93.7,Bulgaria,,,,,180,190,200,200,,,,,,,200
4,Aleksey Somov,Алексей Сомов,Open,1985-04-23,34,100,M,B,Raw,Yes,97.4,Bulgaria,,,,,200,-210,-212.5,200,,,,,,,200
5,Dmitriy Pishchalov,Дмитрий Пищалов,Open,1991-10-12,28,100,M,B,Raw,Yes,99.8,Bulgaria,,,,,190,195,-200,195,,,,,,,195
6,Filipp Podshivalov,Филипп Подшивалов,Open,1985-10-30,34,100,M,B,Raw,Yes,96.8,Bulgaria,,,,,185,190,-195,190,,,,,,,190
7,Dmitriy Lipay,Дмитрий Липай,Open,1990-12-12,28,100,M,B,Raw,Yes,98.5,Bulgaria,,,,,180,190,-195,190,,,,,,,190
8,Kirill Kupriyanov,Кирилл Куприянов,Open,1985-07-28,34,100,M,B,Raw,Yes,94.8,Bulgaria,,,,,155,160,-170,160,,,,,,,160
9,Leonid Trubin,Леонид Трубин,Open,1988-01-19,31,100,M,B,Raw,Yes,99.5,Bulgaria,,,,,140,150,-160,150,,,,,,,150
10,Aleksandr Belinskiy,Александр Белинский,Open,1990-05-07,29,100,M,B,Raw,Yes,98.5,Bulgaria,,,,,130,140,145,145,,,,,,,145
1,Filipp Khokha,Филипп Хоха,Open,1989-07-25,30,100+,M,B,Raw,Yes,105.6,Bulgaria,,,,,230,240,-245,240,,,,,,,240
2,Vasiliy Romanovskiy,Василий Романовский,Open,1984-05-13,35,100+,M,B,Raw,Yes,105.9,Bulgaria,,,,,225,235,-242.5,235,,,,,,,235
3,Anatoliy Rebko,Анатолий Ребко,Open,1975-02-04,44,100+,M,B,Raw,Yes,140.3,Bulgaria,,,,,210,215,217.5,217.5,,,,,,,217.5
4,Ratnieks Edgar,Ратниекс Эдгар,Open,1987-01-13,32,100+,M,B,Raw,Yes,108.8,Latvia,,,,,200,-210,-215,200,,,,,,,200
5,Andrey Zavilenskiy,Андрей Завиленский,Open,1992-05-11,27,100+,M,B,Raw,Yes,121.7,Bulgaria,,,,,-185,190,-207.5,190,,,,,,,190
6,Dmitriy Voytko,Дмитрий Войтко,Open,1979-09-22,40,100+,M,B,Raw,Yes,102.4,Bulgaria,,,,,-167.5,167.5,-197.5,167.5,,,,,,,167.5
1,Anatoliy Rebko,Анатолий Ребко,Masters 40-49,1975-02-04,44,,M,B,Raw,Yes,140.3,Bulgaria,,,,,210,215,217.5,217.5,,,,,,,217.5
2,Sergey Konstantovich,Сергей Константович,Masters 40-49,1978-10-07,41,,M,B,Raw,Yes,94,Bulgaria,,,,,175,182.5,187.5,187.5,191,,,,,,187.5
3,Aleksey Krivko,Алексей Кривко,Masters 40-49,1978-01-02,41,,M,B,Raw,Yes,102.9,Bulgaria,,,,,-175,175,182.5,182.5,,,,,,,182.5
4,Aleksey Yanovskiy,Алексей Яновский,Masters 40-49,1977-02-15,42,,M,B,Raw,Yes,80.4,Bulgaria,,,,,140,150,-155,150,,,,,,,150
5,Vadim Gorin,Вадим Горин,Masters 40-49,1978-12-03,40,,M,B,Raw,Yes,111.6,Bulgaria,,,,,-167.5,167.5,-175,167.5,,,,,,,167.5
6,Dmitriy Baranovskiy,Дмитрий Барановский,Masters 40-49,1972-08-12,47,,M,B,Raw,Yes,79.6,Bulgaria,,,,,140,-145,-145,140,,,,,,,140
7,Vitaliy Shapoval,Виталий Шаповал,Masters 40-49,1978-10-10,41,,M,B,Raw,Yes,73.2,Bulgaria,,,,,90,95,-97.5,95,,,,,,,95
1,Igor Krupitsa,Игорь Крупица,Masters 50-59,1968-06-03,51,110,M,B,Raw,Yes,73.6,Bulgaria,,,,,155,160,-165,160,,,,,,,160
2,Sergey Kharlap,Сергей Харлап,Masters 50-59,1968-01-10,51,110,M,B,Raw,Yes,103.6,Bulgaria,,,,,180,185,190,190,,,,,,,190
3,Valeriy Murashko,Валерий Мурашко,Masters 50-59,1961-03-15,58,110,M,B,Raw,Yes,57.5,Bulgaria,,,,,75,80,-85,80,,,,,,,80
1,Vasiliy Ivanchenko,Василий Иванченко,Masters 60-69,1957-03-14,62,100,M,B,Raw,Yes,90.6,Bulgaria,,,,,120,127.5,130,130,,,,,,,130
2,Vladimir Zhukov,Владимир Жуков,Masters 60-69,1959-11-03,60,100,M,B,Raw,Yes,97.6,Bulgaria,,,,,120,125,130,130,,,,,,,130
3,Sergey Poletaev,Сергей Полетаев,Masters 60-69,1951-12-01,67,100,M,B,Raw,Yes,82.6,Bulgaria,,,,,-95,-95,95,95,,,,,,,95
1,Antonina Zaleshchyonok,Антонина Залещёнок,Open,1995-10-23,24,67.5,F,D,Raw,Yes,59.5,Bulgaria,,,,,,,,,,140,150,160,160,,160
2,Irina Bozhenkova,Ирина Боженкова,Open,1969-07-19,50,67.5,F,D,Raw,Yes,64.4,Bulgaria,,,,,,,,,,160,-167.5,-167.5,160,,160
3,Polina Zagurskaya,Полина Загурская,Open,1986-09-19,33,67.5,F,D,Raw,Yes,59.2,Bulgaria,,,,,,,,,,115,122.5,132.5,132.5,,132.5
4,Elena Kulgavaya,Елена Кульгавая,Open,1990-03-02,29,67.5,F,D,Raw,Yes,65.9,Bulgaria,,,,,,,,,,100,107.5,112.5,112.5,,112.5
1,Dmitriy Lysenko,Дмитрий Лысенко,Sub-Juniors 17-19,2001-02-23,18,100,M,D,Raw,Yes,98.2,Bulgaria,,,,,,,,,,-270,-270,270,270,,270
2,Timofey Grubyy,Тимофей Грубый,Sub-Juniors 17-19,2002-02-26,17,100,M,D,Raw,Yes,74.1,Bulgaria,,,,,,,,,,190,-195,195,195,,195
3,Vladislav Korolev,Владислав Королев,Sub-Juniors 17-19,2000-03-31,19,100,M,D,Raw,Yes,71.4,Bulgaria,,,,,,,,,,185,-215,-215,185,,185
1,Artur Makarov,Артур Макаров,Juniors 20-23,1997-07-24,22,110,M,D,Raw,Yes,110,Bulgaria,,,,,,,,,,280,290,-295,290,,290
2,Arkadiy Adamyan,Аркадий Адамян,Juniors 20-23,1998-07-25,21,110,M,D,Raw,Yes,80.3,Bulgaria,,,,,,,,,,250,-260,-260,250,,250
3,Aleksey Shcherbakov,Алексей Щербаков,Juniors 20-23,1996-07-22,23,110,M,D,Raw,Yes,108.8,Bulgaria,,,,,,,,,,-240,240,-260,240,,240
1,Nikolay Morozov,Николай Морозов,Open,1976-09-07,43,,M,D,Raw,Yes,93.1,Bulgaria,,,,,,,,,,320,340,-360,340,,340
2,Aleksandr Alekseev,Александр Алексеев,Open,1980-06-27,39,,M,D,Raw,Yes,127.1,Latvia,,,,,,,,,,320,340,-360,340,,340
3,Fyodor Salychits,Фёдор Салычиц,Open,1992-06-24,27,,M,D,Raw,Yes,109.8,Bulgaria,,,,,,,,,,310,-332.5,-332.5,310,,310
1,Vladislav Astapkovich,Владислав Астапкович,Open,2000-05-11,19,90,M,D,Raw,Yes,70.1,Bulgaria,,,,,,,,,,225,235,240,240,,240
2,Aleksandr Savoshchik,Александр Савощик,Open,1985-11-10,33,90,M,D,Raw,Yes,88.3,Bulgaria,,,,,,,,,,-270,270,-280,270,,270
3,Vitaliy Panteleev,Виталий Пантелеев,Open,1989-11-06,30,90,M,D,Raw,Yes,74,Bulgaria,,,,,,,,,,220,-235,-240,220,,220
DQ,Ruslan Khilimonchik,Руслан Хилимончик,Open,1976-09-11,43,90,M,D,Raw,Yes,74.7,Bulgaria,,,,,,,,,,-242.5,-247.5,-247.5,,,
1,Nikolay Morozov,Николай Морозов,Open,1976-09-07,43,100,M,D,Raw,Yes,93.1,Bulgaria,,,,,,,,,,320,340,-360,340,,340
2,Aleksandr Yakubovskiy,Александр Якубовский,Open,1983-10-01,36,100,M,D,Raw,Yes,97.8,Bulgaria,,,,,,,,,,265,282.5,-290,282.5,,282.5
3,Pavel Yurkevich,Павел Юркевич,Open,1994-05-12,25,100,M,D,Raw,Yes,98.3,Bulgaria,,,,,,,,,,260,272.5,-282.5,272.5,,272.5
4,Aleksandr Kozlov,Александр Козлов,Open,1994-02-02,25,100,M,D,Raw,Yes,99.3,Bulgaria,,,,,,,,,,260,270,-282.5,270,,270
5,Ivan Kuznetsov,Иван Кузнецов,Open,1990-11-19,28,100,M,D,Raw,Yes,96.1,Bulgaria,,,,,,,,,,210,230,-245,230,,230
6,Roman Senchuk,Роман Сенчук,Open,1987-09-14,32,100,M,D,Raw,Yes,99.2,Bulgaria,,,,,,,,,,200,-210,-210,200,,200
1,Aleksandr Alekseev,Александр Алексеев,Open,1980-06-27,39,100+,M,D,Raw,Yes,127.1,Latvia,,,,,,,,,,320,340,-360,340,,340
2,Fyodor Salychits,Фёдор Салычиц,Open,1992-06-24,27,100+,M,D,Raw,Yes,109.8,Bulgaria,,,,,,,,,,310,-332.5,-332.5,310,,310
3,Vladislav Marchik,Владислав Марчик,Open,1992-10-07,27,100+,M,D,Raw,Yes,107.3,Bulgaria,,,,,,,,,,300,-312.5,-312.5,300,,300
4,Vadim Levchenko,Вадим Левченко,Open,1987-11-05,32,100+,M,D,Raw,Yes,107.5,Bulgaria,,,,,,,,,,232.5,252.5,-260,252.5,,252.5
5,Maksim Mikutin,Максим Микутин,Open,1988-09-23,31,100+,M,D,Raw,Yes,106.4,Bulgaria,,,,,,,,,,210,230,-252.5,230,,230
1,Mikhail Verbitskiy,Михаил Вербицкий,Masters 60-69,1951-07-31,68,90,M,D,Raw,Yes,90,Bulgaria,,,,,,,,,,210,,,210,,210
1,Ruslan Kravchuk,Руслан Кравчук,Masters 40-49,1972-05-28,47,125,M,D,Raw,Yes,118,Bulgaria,,,,,,,,,,290,-305,,290,,290
2,Igor Pyzhyanov,Игорь Пыжьянов,Masters 40-49,1972-12-28,46,125,M,D,Raw,Yes,106.2,Bulgaria,,,,,,,,,,190,205,-212.5,205,,205
DQ,Ruslan Khilimonchik,Руслан Хилимончик,Masters 40-49,1976-09-11,43,125,M,D,Raw,Yes,74.7,Bulgaria,,,,,,,,,,-242.5,-247.5,-247.5,,,
DQ,Aleksandr Alekseev,Александр Алексеев,Masters 40-49,1972-02-23,47,125,M,D,Raw,Yes,91.5,Bulgaria,,,,,,,,,,-240,-250,-250,,,
1,Anna Katko,Анна Катько,Juniors 20-23,1999-10-19,20,75,F,SBD,Wraps,Yes,61.9,Bulgaria,-100,100,107.5,107.5,47.5,50,-55,50,,85,92.5,97.5,97.5,,255
DQ,Mariya Sinegovskaya,Мария Синеговская,Juniors 20-23,1997-04-11,22,75,F,SBD,Wraps,Yes,70.4,Bulgaria,-105,-105,-105,,47.5,50,55,55,,85,92.5,,92.5,,
1,Aleksandra Karpukhina,Александра Карпухина,Open,1995-06-01,24,82.5,F,SBD,Wraps,Yes,80.3,Bulgaria,180,190,200,200,107.5,115,-117.5,115,,130,140,145,145,,460
2,Elena Pers,Елена Перс,Open,1979-01-21,40,82.5,F,SBD,Wraps,Yes,74.2,Bulgaria,165,-175,-175,165,-85,85,-95,85,,160,-170,170,170,,420
3,Olga Trotskaya,Ольга Троцкая,Open,1986-07-25,33,82.5,F,SBD,Wraps,Yes,81.6,Bulgaria,-140,140,-152.5,140,67.5,72.5,75,75,,140,150,160,160,,375
4,Alina Bylinskaya,Алина Былинская,Open,1986-11-03,33,82.5,F,SBD,Wraps,Yes,59.2,Bulgaria,100,-110,-115,100,45,50,-55,50,,-110,-110,110,110,,260
1,Evgeniy Saskovets,Евгений Сасковец,Teen,2000-12-12,18,100,M,SBD,Wraps,Yes,73.1,Bulgaria,185,-200,200,200,125,132.5,-137.5,132.5,,210,220,-230,220,,552.5
2,Dmitriy Lysenko,Дмитрий Лысенко,Teen,2001-02-23,18,100,M,SBD,Wraps,Yes,98.2,Bulgaria,202.5,212.5,-217.5,212.5,135,140,-142.5,140,,-270,-270,270,270,,622.5
3,Filipp Bolokhov,Филипп Болохов,Teen,2002-04-02,17,100,M,SBD,Wraps,Yes,80.2,Bulgaria,-140,140,-150,140,100,105,-107.5,105,,160,170,,170,,415
4,Nikita Zhevnov,Никита Жевнов,Teen,2004-01-29,15,100,M,SBD,Wraps,Yes,67.4,Bulgaria,-107.5,107.5,112.5,112.5,65,70,-72.5,70,,140,145,-147.5,145,,327.5
DQ,Vyacheslav Baltsuk,Вячеслав Бальцук,Teen,2004-01-27,15,100,M,SBD,Wraps,Yes,55.9,Bulgaria,110,115,120,120,65,70,72.5,72.5,,-140,-140,-140,,,
DQ,Aleksey Mizulo,Алексей Мизуло,Teen,2000-06-26,19,100,M,SBD,Wraps,Yes,98,Bulgaria,-180,-180,-180,,115,125,-130,125,,-160,160,,160,,
1,Aleksandr Kravtsevich,Александр Кравцевич,Juniors 20-23,1999-03-07,20,100,M,SBD,Wraps,Yes,96,Bulgaria,260,270,280,280,180,190,197.5,197.5,,310,327.5,335,335,342.5,812.5
2,Andrey Chernysh,Андрей Черныш,Juniors 20-23,1997-03-22,22,100,M,SBD,Wraps,Yes,90,Bulgaria,240,270,,270,140,145,150,150,,240,255,260,260,,680
3,Stas Sanotskiy,Стас Саноцкий,Juniors 20-23,1996-12-06,22,100,M,SBD,Wraps,Yes,64.4,Bulgaria,200,215,220,220,112.5,115,-117.5,115,,170,190,200,200,,535
4,Dmitriy Sobolev,Дмитрий Соболев,Juniors 20-23,1998-04-04,21,100,M,SBD,Wraps,Yes,82.3,Bulgaria,225,-240,240,240,127.5,-135,135,135,,250,-260,-260,250,,625
DQ,Sergey Bogachev,Сергей Богачев,Juniors 20-23,1997-02-19,22,100,M,SBD,Wraps,Yes,81.7,Bulgaria,-250,-250,-250,,-140,,,,,-252.5,,,,,
1,Dmitriy Kedrovskiy,Дмитрий Кедровский,Masters 40-49,1971-10-19,48,67.5,M,SBD,Wraps,Yes,66,Bulgaria,190,200,-210,200,100,-105,-105,100,,155,165,170,170,,470
1,Aleksandr Vorobev,Александр Воробьев,Open,1990-09-04,29,82.5,M,SBD,Wraps,Yes,79.2,Bulgaria,260,275,-285,275,165,175,-180,175,,257.5,265,270,270,,720
2,Anton Khodko,Антон Ходько,Open,1992-09-13,27,82.5,M,SBD,Wraps,Yes,81.2,Bulgaria,-302.5,302.5,-312.5,302.5,150,155,-160,155,,240,255,-262.5,255,,712.5
3,Aleksandr Pipkin,Александр Пипкин,Open,1991-06-11,28,82.5,M,SBD,Wraps,Yes,82.1,Bulgaria,-230,230,240,240,137.5,145,152.5,152.5,,255,270,280,280,-285,672.5
4,Fyodor Kornyushko,Фёдор Корнюшко,Open,1989-03-20,30,82.5,M,SBD,Wraps,Yes,82.3,Bulgaria,205,220,-230,220,135,142.5,-150,142.5,,240,260,-272.5,260,,622.5
5,Evgeniy Pavlotskiy,Евгений Павлоцкий,Open,1987-05-14,32,82.5,M,SBD,Wraps,Yes,80.5,Bulgaria,225,240,-245,240,122.5,125,-127.5,125,,250,-260,-260,250,,615
6,Mikhail Semenido,Михаил Семенидо,Open,1991-11-01,28,82.5,M,SBD,Wraps,Yes,73.4,Bulgaria,-150,-150,160,160,115,120,-125,120,,-200,200,-205,200,,480
1,Oleg Sidorko,Олег Сидорко,Open,1992-09-03,27,90,M,SBD,Wraps,Yes,88.8,Bulgaria,-265,265,-275,265,165,-172.5,172.5,172.5,,270,-290,290,290,,727.5
2,Vladislav Merlyak,Владислав Мерляк,Open,1996-03-07,23,90,M,SBD,Wraps,Yes,89.5,Bulgaria,232.5,242.5,-250,242.5,160,167.5,172.5,172.5,,245,252.5,260,260,,675
3,Aleksandr Leshchinskiy,Александр Лещинский,Open,1992-09-17,27,90,M,SBD,Wraps,Yes,89.9,Bulgaria,240,245,-250,245,-162.5,162.5,165,165,,240,-250,-250,240,,650
4,Mikhail Zhdanko,Михаил Жданко,Open,1980-05-03,39,90,M,SBD,Wraps,Yes,89.8,Bulgaria,-220,230,245,245,155,-165,-165,155,,-245,245,-267.5,245,,645
DQ,Nikolay Popov,Николай Попов,Open,1986-08-06,33,90,M,SBD,Wraps,Yes,88,Bulgaria,215,230,-240,230,140,145,147.5,147.5,,-215,,,,,
1,Aleksandr Buyan,Александр Буян,Open,1990-03-02,29,100,M,SBD,Wraps,Yes,93.2,Bulgaria,280,290,-300,290,190,-200,-200,190,,320,325,-330,325,,805
2,Artur Tyakotev,Артур Тякотев,Open,1994-03-27,25,100,M,SBD,Wraps,Yes,99,Bulgaria,260,270,-280,270,160,170,-175,170,,280,-285,,280,,720
3,Dmitriy Laptsevich,Дмитрий Лапцевич,Open,1987-06-05,32,100,M,SBD,Wraps,Yes,97.3,Bulgaria,-255,255,260,260,170,180,-185,180,,260,270,-280,270,,710
4,Dmitriy Zlotnikov,Дмитрий Злотников,Open,1989-08-02,30,100,M,SBD,Wraps,Yes,97.9,Bulgaria,210,222.5,230,230,150,157.5,160,160,,230,240,250,250,,640
5,Ivan Kuznetsov,Иван Кузнецов,Open,1990-11-19,28,100,M,SBD,Wraps,Yes,96.1,Bulgaria,190,200,210,210,-130,130,140,140,,210,230,-245,230,,580
6,Leonid Trubin,Леонид Трубин,Open,1988-01-19,31,100,M,SBD,Wraps,Yes,99.5,Bulgaria,175,185,195,195,140,150,-160,150,,-185,185,-200,185,,530
1,Sergey Tarasov,Сергей Тарасов,Open,1994-06-24,25,100+,M,SBD,Wraps,Yes,116.9,Bulgaria,320,340,350,350,160,170,177.5,177.5,,320,335,342.5,342.5,,870
2,Filipp Khokha,Филипп Хоха,Open,1989-07-25,30,100+,M,SBD,Wraps,Yes,105.6,Bulgaria,280,-290,295,295,230,240,-245,240,,260,280,-290,280,,815
3,Ratnieks Edgar,Ратниекс Эдгар,Open,1987-01-13,32,100+,M,SBD,Wraps,Yes,108.8,Latvia,280,300,-310,300,200,-210,-215,200,,300,-320,-320,300,,800
4,Vladimir Goyan,Владимир Гоян,Open,1986-05-04,33,100+,M,SBD,Wraps,Yes,105.4,Bulgaria,270,-290,290,290,180,190,-200,190,,270,290,-300,290,,770
5,Dmitriy Zharkin,Дмитрий Жаркин,Open,1977-10-25,42,100+,M,SBD,Wraps,Yes,106.2,Bulgaria,-280,280,300,300,180,190,-200,190,,-280,280,-290,280,,770
6,Pavel Soroka,Павел Сорока,Open,1981-10-15,38,100+,M,SBD,Wraps,Yes,106.1,Bulgaria,-270,-280,280,280,160,170,180,180,,250,260,,260,,720
7,Dzhamal Anishchenko,Джамаль Анищенко,Open,1993-06-20,26,100+,M,SBD,Wraps,Yes,109.9,Bulgaria,240,-250,-250,240,160,165,172.5,172.5,,270,280,-285,280,,692.5
8,Vadim Levchenko,Вадим Левченко,Open,1987-11-05,32,100+,M,SBD,Wraps,Yes,107.5,Bulgaria,190,200,215,215,130,140,-145,140,,232.5,252.5,-260,252.5,,607.5
