Place,Name,BirthYear,Country,BodyweightKg,Squat1Kg,Squat2Kg,Squat3Kg,Best3SquatKg,Bench1Kg,Bench2Kg,Bench3Kg,Best3BenchKg,Deadlift1Kg,Deadlift2Kg,Deadlift3Kg,Best3DeadliftKg,TotalKg,WeightClassKg,Division,Event,Sex,Equipment
1,Eric Kupperstein,1966,USA,55.93,180,-202.5,202.5,202.5,105,117.5,122.5,122.5,210,232.5,248.5,248.5,573.5,56,Masters 1,SBD,M,Single-ply
1,Henrik Rilke,1970,Germany,59.79,190,200,205,205,115,122.5,127.5,127.5,195,210,217.5,217.5,550,60,Masters 1,SBD,M,Single-ply
2,Kevin Jones #11,1962,USA,59.7,172.5,185,190,190,110,117.5,122.5,122.5,172.5,-185,185,185,497.5,60,Masters 1,SBD,M,Single-ply
3,Štefan Koľšovský,1961,Slovakia,59.91,190,-205,-207.5,190,142.5,-147.5,147.5,147.5,150,157.5,-162.5,157.5,495,60,Masters 1,SBD,M,Single-ply
4,Afanasiy Markov,1964,Russia,58.9,170,180,185,185,100,107.5,112.5,112.5,190,-197.5,-197.5,190,487.5,60,Masters 1,SBD,M,Single-ply
1,Lewis Noppers,1970,Canada,67.5,230,240,247.5,247.5,150,157.5,160,160,250,272.5,-275,272.5,680,67.5,Masters 1,SBD,M,Single-ply
2,Timo Heiskanen,1970,Finland,67.34,-240,240,247.5,247.5,140,147.5,-152.5,147.5,262.5,275,-285,275,670,67.5,Masters 1,SBD,M,Single-ply
3,Aissa Abdelkader,1969,Algeria,67.12,220,-225,-225,220,155,-160,-160,155,280,-293,-295,280,655,67.5,Masters 1,SBD,M,Single-ply
4,Peep Päll,1970,Estonia,66.71,-232.5,232.5,-242.5,232.5,147.5,-152.5,-152.5,147.5,252.5,-262.5,-275,252.5,632.5,67.5,Masters 1,SBD,M,Single-ply
5,Gregory Simmons,1965,USA,67.45,-222.5,222.5,-240,222.5,145,152.5,155,155,225,237.5,-242.5,237.5,615,67.5,Masters 1,SBD,M,Single-ply
6,Karel Ruso,1965,Czechia,67.35,232.5,247.5,250,250,95,102.5,-110,102.5,170,215,232.5,232.5,585,67.5,Masters 1,SBD,M,Single-ply
7,Jonas Telégin,1965,Sweden,67.28,210,222.5,-225,222.5,135,-142.5,,135,210,225,,225,582.5,67.5,Masters 1,SBD,M,Single-ply
1,Kader Baali,1968,France,74.75,270,282.5,-292.5,282.5,185,-192.5,-192.5,185,270,282.5,-292.5,282.5,750,75,Masters 1,SBD,M,Single-ply
2,Jörg Müller,1966,Germany,74.55,270,290,302.5,302.5,155,162.5,-170,162.5,245,255,-262.5,255,720,75,Masters 1,SBD,M,Single-ply
3,Fernando Jimenez,1961,Spain,74.14,250,-265,-265,250,175,182.5,187.5,187.5,245,255,257.5,257.5,695,75,Masters 1,SBD,M,Single-ply
4,Nobuyuki Hamada,1969,Japan,74.51,-270,-270,270,270,175,180,-185,180,235,245,-252.5,245,695,75,Masters 1,SBD,M,Single-ply
5,Sean Muir,1970,Australia,74.37,237.5,247.5,-252.5,247.5,-157.5,157.5,165,165,250,262.5,-285,262.5,675,75,Masters 1,SBD,M,Single-ply
6,Bjørn Astad,1963,Norway,74.97,257.5,-270,272.5,272.5,150,-157.5,-157.5,150,175,-210,210,210,632.5,75,Masters 1,SBD,M,Single-ply
7,Michel Ruffault,1964,France,73.84,210,230,-240,230,120,130,-140,130,260,-270,-270,260,620,75,Masters 1,SBD,M,Single-ply
1,Jeff Becker,1963,Canada,82.18,-282.5,287.5,295,295,180,-187.5,187.5,187.5,282.5,-292.5,-292.5,282.5,765,82.5,Masters 1,SBD,M,Single-ply
2,Rolf Hampel,1961,Germany,81.22,280,300,-305,300,130,137.5,142.5,142.5,275,290,300,300,742.5,82.5,Masters 1,SBD,M,Single-ply
3,Alimbek Rakhimov,1966,Kyrgyzstan,80.94,-260,-260,260,260,160,-170,172.5,172.5,260,267.5,-282.5,267.5,700,82.5,Masters 1,SBD,M,Single-ply
4,Abdelaziz Aliouate,1965,France,82.48,-260,260,270,270,150,-160,-160,150,260,-280,-280,260,680,82.5,Masters 1,SBD,M,Single-ply
5,Ari Oksanen,1964,Finland,81.01,-230,230,-240,230,175,182.5,187.5,187.5,220,240,250,250,667.5,82.5,Masters 1,SBD,M,Single-ply
6,Keiichi Yokoi,1968,Japan,80.2,240,250,-255,250,170,175,-180,175,240,-250,-250,240,665,82.5,Masters 1,SBD,M,Single-ply
7,Sandro D'Angelo,1964,Canada,80.69,230,-237.5,-242.5,230,142.5,-147.5,147.5,147.5,240,250,255,255,632.5,82.5,Masters 1,SBD,M,Single-ply
8,Douglas D'Gama,1962,UK,81.83,215,-227.5,227.5,227.5,-160,160,-165,160,235,245,-250,245,632.5,82.5,Masters 1,SBD,M,Single-ply
DQ,Konstantin Khardin,1968,Uzbekistan,80.3,230,-240,-240,230,130,140,-142.5,140,-250,-250,,,,82.5,Masters 1,SBD,M,Single-ply
DD,Stefano Bettati,1968,Italy,82.22,300,-315,-315,300,-165,165,-170,165,300,-310,-310,300,,82.5,Masters 1,SBD,M,Single-ply
1,Mario Schnurr,1966,Germany,90,290,305,312.5,312.5,185,190,195,195,285,300,-315,300,807.5,90,Masters 1,SBD,M,Single-ply
2,Piet van Haaren,1963,Netherlands,88.72,305,-325,-325,305,155,-160,160,160,280,300,312.5,312.5,777.5,90,Masters 1,SBD,M,Single-ply
3,Peer Hänsicke,1961,Germany,89.88,270,282.5,-290,282.5,205,-212.5,-212.5,205,230,240,250,250,737.5,90,Masters 1,SBD,M,Single-ply
4,Roberto Bettati,1964,Italy,88.05,240,260,270,270,150,160,167.5,167.5,245,262.5,270,270,707.5,90,Masters 1,SBD,M,Single-ply
5,Toru Moriya,1970,Japan,88.3,220,240,250,250,190,200,210,210,220,240,-257.5,240,700,90,Masters 1,SBD,M,Single-ply
6,Erik Rasmussen,1962,Denmark,88.94,265,277.5,-282.5,277.5,-185,185,190,190,232.5,-250,-250,232.5,700,90,Masters 1,SBD,M,Single-ply
7,Petteri Hakkarainen,1967,Finland,89.42,235,240,,240,170,180,-185,180,230,250,260,260,680,90,Masters 1,SBD,M,Single-ply
8,Fabiano Fulvi,1969,Italy,89.09,210,-220,-220,210,160,-165,165,165,250,260,-265,260,635,90,Masters 1,SBD,M,Single-ply
9,Michal Sekot,1961,Czechia,89.57,220,232.5,-240,232.5,165,172.5,180,180,210,220,-230,220,632.5,90,Masters 1,SBD,M,Single-ply
10,Nikolay Kurakin,1967,Russia,89.82,260,270,-280,270,155,162.5,167.5,167.5,195,,,195,632.5,90,Masters 1,SBD,M,Single-ply
11,Antti Timonen,1961,Finland,89.91,-230,230,-240,230,152.5,-160,160,160,230,240,-245,240,630,90,Masters 1,SBD,M,Single-ply
12,Eric Dumas,1964,Australia,87.81,205,217.5,227.5,227.5,-135,-135,135,135,210,222.5,-232.5,222.5,585,90,Masters 1,SBD,M,Single-ply
13,Jonathan Gallmeier,1968,USA,84.66,185,192.5,-200,192.5,132.5,140,147.5,147.5,185,197.5,207.5,207.5,547.5,90,Masters 1,SBD,M,Single-ply
14,John Schellekens,1962,Netherlands,88.98,175,-180,180,180,120,-125,-125,120,220,230,-235,230,530,90,Masters 1,SBD,M,Single-ply
DQ,Hoi Leung,1969,Canada,89.63,-255,-255,-255,,175,185,187.5,187.5,270,280,-285,280,,90,Masters 1,SBD,M,Single-ply
1,Frédéric Buttigieg,1964,France,99.98,300,-320,320,320,230,237.5,-240,237.5,290,-302.5,-302.5,290,847.5,100,Masters 1,SBD,M,Single-ply
2,Stefan Olsson,1968,Sweden,96.97,-290,310,,310,200,207.5,210,210,270,285,-292.5,285,805,100,Masters 1,SBD,M,Single-ply
3,Dave Dunford,1967,New Zealand,99.18,290,305,-315,305,205,210,-215,210,-280,280,-295,280,795,100,Masters 1,SBD,M,Single-ply
4,Kenneth Gack,1970,USA,98.84,282.5,300,-305,300,215,-227.5,-227.5,215,255,267.5,-280,267.5,782.5,100,Masters 1,SBD,M,Single-ply
5,Imrich Švec,1966,Slovakia,99.68,290,-310,-310,290,220,-230,-237.5,220,250,-265,-265,250,760,100,Masters 1,SBD,M,Single-ply
6,Thomas Ziegler,1967,Germany,99.88,-242.5,-242.5,242.5,242.5,-185,-185,185,185,245,252.5,255,255,682.5,100,Masters 1,SBD,M,Single-ply
7,Seppo Norpila,1963,Finland,96.52,230,-240,-240,230,195,200,205,205,235,245,-250,245,680,100,Masters 1,SBD,M,Single-ply
8,Lars Höglander,1964,Sweden,99.85,-265,265,-285,265,175,-180,-182.5,175,230,-250,-252.5,230,670,100,Masters 1,SBD,M,Single-ply
9,Milan Hofbauer,1966,Czechia,98.31,-230,230,240,240,150,160,170,170,235,247.5,-255,247.5,657.5,100,Masters 1,SBD,M,Single-ply
10,Jaroslaw Dabrowski,1965,Poland,97.3,-220,220,230,230,-145,145,-150,145,230,240,-250,240,615,100,Masters 1,SBD,M,Single-ply
DQ,Claudio D'Ovidio,1969,Italy,99.97,325,335,-342.5,335,-240,-240,-240,,200,,,200,,100,Masters 1,SBD,M,Single-ply
1,Tom Nicholls,1963,Canada,109.72,315,330,335,335,235,242.5,245,245,300,320,-330,320,900,110,Masters 1,SBD,M,Single-ply
2,Jiří Gryga,1963,Czechia,107.04,290,300,310,310,180,-185,-185,180,310,320,330,330,820,110,Masters 1,SBD,M,Single-ply
3,Zoltán Kanát,1962,Czechia,109.28,305,317.5,325,325,-220,220,-225,220,260,275,-280,275,820,110,Masters 1,SBD,M,Single-ply
4,Mikael Hedesund,1967,Sweden,109.77,295,-315,315,315,192.5,-197.5,-197.5,192.5,285,300,-315,300,807.5,110,Masters 1,SBD,M,Single-ply
5,Viacheslav Romanov,1967,Russia,108.83,290,310,320,320,195,205,-210,205,-267.5,277.5,-292.5,277.5,802.5,110,Masters 1,SBD,M,Single-ply
6,Shigeki Minami,1965,Japan,109.45,290,302.5,307.5,307.5,255,-265.5,,255,230,240,-250,240,802.5,110,Masters 1,SBD,M,Single-ply
7,Jari Niskanen,1963,Finland,108.58,-285,295,-305,295,210,215,220,220,270,-287.5,-297.5,270,785,110,Masters 1,SBD,M,Single-ply
8,Pasi Kemppainen,1970,Finland,108.06,280,300,305,305,200,210,-220,210,240,260,-272.5,260,775,110,Masters 1,SBD,M,Single-ply
9,Morten Haug Harald,1969,Norway,109.1,260,275,285,285,210,215,-232.5,215,260,275,-280,275,775,110,Masters 1,SBD,M,Single-ply
10,Gregory Nucci,1962,USA,107.09,260,267.5,275,275,-192.5,-192.5,192.5,192.5,230,245,-255,245,712.5,110,Masters 1,SBD,M,Single-ply
11,Klaus Andersen,1964,Denmark,109.76,185,192.5,-200,192.5,-132.5,132.5,-140,132.5,205,220,-227.5,220,545,110,Masters 1,SBD,M,Single-ply
DQ,Ferdinand Pollinger,1968,Austria,105.25,,,,,,,,,,,,,,110,Masters 1,SBD,M,Single-ply
DQ,Håkan Persson,1967,Sweden,109.25,315,322.5,330,330,-220,-220,-220,,270,290,300,300,,110,Masters 1,SBD,M,Single-ply
1,Roman Dzyuba,1968,Ukraine,119.93,360,380,-390,380,210,220,-230,220,310,320,-330,320,920,125,Masters 1,SBD,M,Single-ply
2,Raimo Lumijärvi,1962,Finland,124.26,325,335,-340,335,225,232.5,-237.5,232.5,300,315,-322.5,315,882.5,125,Masters 1,SBD,M,Single-ply
3,Bill Collins,1961,USA,123.82,287.5,305,-312.5,305,227.5,235,237.5,237.5,272.5,280,-285,280,822.5,125,Masters 1,SBD,M,Single-ply
4,Jens Jepsen,1970,Denmark,120.03,275,-292.5,292.5,292.5,212.5,-222.5,225,225,240,255,265,265,782.5,125,Masters 1,SBD,M,Single-ply
5,Andreas Reiners,1968,Australia,124.23,-290,-310,315,315,-190,190,-215,190,240,255,270,270,775,125,Masters 1,SBD,M,Single-ply
6,Chris Woodhead,1963,UK,124.91,285,300,307.5,307.5,170,177.5,180,180,240,260,267.5,267.5,755,125,Masters 1,SBD,M,Single-ply
7,Tony Chard,1968,France,115.22,225,245,-265,245,-180,-180,180,180,280,305,-320,305,730,125,Masters 1,SBD,M,Single-ply
8,Jiří Lacina,1969,Czechia,116.25,220,230,235,235,190,-200,-200,190,245,255,-265,255,680,125,Masters 1,SBD,M,Single-ply
1,Robert Eriksson,1966,Sweden,139.92,325,-345,345,345,230,240,245,245,290,300,310,310,900,125+,Masters 1,SBD,M,Single-ply
2,Morten Sørig,1969,Denmark,143.86,360,-370,-372.5,360,-250,250,-257.5,250,260,-272.5,272.5,272.5,882.5,125+,Masters 1,SBD,M,Single-ply
3,Andreas Koch,1964,Germany,133.06,310,330,337.5,337.5,210,225,-232.5,225,265,290,300,300,862.5,125+,Masters 1,SBD,M,Single-ply
4,Juho Jaatinen,1966,Finland,128.6,325,340,,340,250,-265,-265,250,250,270,-280,270,860,125+,Masters 1,SBD,M,Single-ply
5,Wim Wamsteeker,1969,Netherlands,135.72,310,335,342.5,342.5,195,205,210,210,260,277.5,285,285,837.5,125+,Masters 1,SBD,M,Single-ply
6,Stephane Virga,1970,France,147.79,285,305,-315,305,-245,-245,250,250,270,-290,-292.5,270,825,125+,Masters 1,SBD,M,Single-ply
DQ,Stephen Johnson,1961,USA,128.51,-230,-230,-230,,175,-192.5,-192.5,175,232.5,242.5,-250,242.5,,125+,Masters 1,SBD,M,Single-ply
DQ,Maik Kleidt,1968,Germany,140.27,-360,-360,-370,,230,240,250,250,240,265,-287.5,265,,125+,Masters 1,SBD,M,Single-ply
1,Antonio Taguibao,1958,Philippines,55.42,170,180,-190,180,85,-90,90,90,170,180,,180,450,56,Masters 2,SBD,M,Single-ply
2,Lkhagwa Sharaw,1955,Mongolia,52.09,90,-100,-105,90,40,-50,,40,100,110,-115,110,240,56,Masters 2,SBD,M,Single-ply
1,Masami Yoshida,1957,Japan,59.75,160,170,175,175,132.5,137.5,140,140,185,195,205,205,520,60,Masters 2,SBD,M,Single-ply
2,Nikolay Aksenov,1957,Russia,58.73,175,185,-195,185,95,102.5,105,105,195,205,-230,205,495,60,Masters 2,SBD,M,Single-ply
3,Anatoliy Bochkovskiy,1954,Ukraine,59.43,185,-195,-195,185,87.5,92.5,-95,92.5,190,,,190,467.5,60,Masters 2,SBD,M,Single-ply
DQ,Alexander Moiseev,1954,Belarus,59.29,175,-185,185,185,-102.5,-102.5,-102.5,,182.5,-192.5,-192.5,182.5,,60,Masters 2,SBD,M,Single-ply
1,Masayuki Takahashi,1960,Japan,67.23,-235,235,240,240,172.5,180,183,183,195,205,210,210,633,67.5,Masters 2,SBD,M,Single-ply
2,Adam Jasiński,1951,Poland,67.48,210,230,237.5,237.5,120,-125,127.5,127.5,200,210,222.5,222.5,587.5,67.5,Masters 2,SBD,M,Single-ply
3,Alain Cuvelier,1953,France,66.86,200,210,-220,210,110,-125,-125,110,200,210,-220,210,530,67.5,Masters 2,SBD,M,Single-ply
4,Timo Leino,1958,Finland,61.83,175,185,-190,185,117.5,127.5,-132.5,127.5,185,195,-200,195,507.5,67.5,Masters 2,SBD,M,Single-ply
5,Georges Auberval,1956,France,66.19,185,195,-200,195,90,-95,95,95,205,212.5,217.5,217.5,507.5,67.5,Masters 2,SBD,M,Single-ply
6,Paul Mears #1,1953,USA,66.91,162.5,175,-180,175,90,95,-97.5,95,180,-190,-190,180,450,67.5,Masters 2,SBD,M,Single-ply
DQ,Andreas Petzold,1960,Germany,67.31,-170,-170,-170,,-110,110,115,115,200,210,-215,210,,67.5,Masters 2,SBD,M,Single-ply
1,Clifford Haynes,1960,UK,74.2,210,220,230,230,170,180.5,185,185,215,225,-232.5,225,640,75,Masters 2,SBD,M,Single-ply
2,Roland Asmus,1960,Germany,75,220,-230,230,230,135,142.5,150,150,242.5,252.5,-262.5,252.5,632.5,75,Masters 2,SBD,M,Single-ply
3,Allen Ottolangui,1960,UK,74.75,225,235,-242.5,235,-137.5,137.5,142.5,142.5,225,235,-240,235,612.5,75,Masters 2,SBD,M,Single-ply
4,Glyn Moore,1951,Canada,74.71,-227.5,227.5,232.5,232.5,142.5,-155,155,155,210,222.5,-230,222.5,610,75,Masters 2,SBD,M,Single-ply
5,Roger Remy,1953,Belgium,74.83,210,220,227.5,227.5,115,-120,120,120,235,245,250,250,597.5,75,Masters 2,SBD,M,Single-ply
6,Walter Urban,1958,Canada,74.86,207.5,215,222.5,222.5,120,125,-127.5,125,212.5,222.5,230,230,577.5,75,Masters 2,SBD,M,Single-ply
7,Pauli Linna,1957,Finland,74.03,200,-215,-215,200,120,125,130,130,220,235,-245,235,565,75,Masters 2,SBD,M,Single-ply
8,Didier Rey,1958,France,74.04,162.5,-170,172.5,172.5,130,135,-137.5,135,212.5,225,232.5,232.5,540,75,Masters 2,SBD,M,Single-ply
9,Jan Sahlgren,1960,Denmark,74.88,200,-212.5,-212.5,200,135,-150,-150,135,190,200,-205,200,535,75,Masters 2,SBD,M,Single-ply
10,Voitto Ahopelto,1956,Finland,74.98,170,-180,185,185,-130,130,147.5,147.5,190,200,-205,200,532.5,75,Masters 2,SBD,M,Single-ply
11,Karsten Gelhar,1957,Germany,68.3,170,180,190,190,137.5,145,150,150,160,180,190,190,530,75,Masters 2,SBD,M,Single-ply
1,Valerij Kraus,1959,Germany,81.37,-275,-275,275,275,100,120,130,130,275,-285,-285,275,680,82.5,Masters 2,SBD,M,Single-ply
2,Tomas Ring,1960,Sweden,81.4,235,-252.5,257.5,257.5,175,-180,-180,175,215,227.5,235,235,667.5,82.5,Masters 2,SBD,M,Single-ply
3,Andreas Petrenz,1956,Germany,81.33,235,245,252.5,252.5,175,-182.5,185,185,227.5,-240,-240,227.5,665,82.5,Masters 2,SBD,M,Single-ply
4,Rémy Krayzel,1955,Czechia,81.99,230,242.5,-250,242.5,170,177.5,182.5,182.5,200,210,220,220,645,82.5,Masters 2,SBD,M,Single-ply
5,Karel Schoř,1955,Czechia,81.11,215,220,225,225,145,-150,-150,145,240,-252.5,255,255,625,82.5,Masters 2,SBD,M,Single-ply
6,Thomas Cencich,1960,USA,81.4,185,200,205,205,-185,185,-187.5,185,190,-205,-205,190,580,82.5,Masters 2,SBD,M,Single-ply
7,Antero Juntunen,1954,Finland,82.41,190,205,210,210,105,-112.5,112.5,112.5,220,242.5,257.5,257.5,580,82.5,Masters 2,SBD,M,Single-ply
DQ,Rawdandors Jamsran,1959,Mongolia,82.5,-175,175,-185,175,110,-120,-120,110,-175,-175,-175,,,82.5,Masters 2,SBD,M,Single-ply
1,Sigve Valentinsen,1960,Norway,86.01,270,290,300,300,195,207.5,212.5,212.5,-260,260,-270,260,772.5,90,Masters 2,SBD,M,Single-ply
2,Henryk Sulik,1959,Germany,87.94,230,-242.5,-245,230,165,-170,-170,165,220,230,237.5,237.5,632.5,90,Masters 2,SBD,M,Single-ply
3,Anthony Stevenson,1959,UK,89.04,200,210,-220,210,155,165,170,170,200,210,220,220,600,90,Masters 2,SBD,M,Single-ply
4,Walt Dengler,1957,Canada,87.62,-210,210,227.5,227.5,-120,-120,120,120,205,232.5,-240,232.5,580,90,Masters 2,SBD,M,Single-ply
5,Josef Ptáček,1953,Czechia,89.78,187.5,200,207.5,207.5,162.5,167.5,-177.5,167.5,170,190,200,200,575,90,Masters 2,SBD,M,Single-ply
6,Raymond Penland,1952,USA,89.46,175,-185,185,185,120,125,127.5,127.5,192.5,200,-205,200,512.5,90,Masters 2,SBD,M,Single-ply
7,Jaroslav Hodík,1958,Czechia,87.96,-160,165,170,170,-120,120,-125,120,200,210,-215,210,500,90,Masters 2,SBD,M,Single-ply
1,John Mitchell,1959,UK,99.25,260,285,300,300,180,-190,-190,180,262.5,280,-290,280,760,100,Masters 2,SBD,M,Single-ply
2,Eric Mauchosse,1958,France,90.91,270,285,295,295,-175,175,180,180,265,275,-285,275,750,100,Masters 2,SBD,M,Single-ply
3,Arthur Cowley,1959,UK,95.48,255,267.5,277.5,277.5,177.5,185,-190,185,255,267.5,-272.5,267.5,730,100,Masters 2,SBD,M,Single-ply
4,Ray Baxter-Vonna,1958,USA,94.29,257.5,272.5,282.5,282.5,175,-182.5,182.5,182.5,250,-272.5,-272.5,250,715,100,Masters 2,SBD,M,Single-ply
5,Siegmund Schiebe,1953,Germany,97.6,240,265,275,275,150,160,-167.5,160,260,280,-290,280,715,100,Masters 2,SBD,M,Single-ply
6,Josef Máška,1955,Czechia,99.13,250,257.5,-265,257.5,195,-202.5,-202.5,195,260,-267.5,,260,712.5,100,Masters 2,SBD,M,Single-ply
7,Rüdiger Hopp,1955,Sweden,99.19,280,295,-300,295,150,-157.5,157.5,157.5,225,252.5,-265,252.5,705,100,Masters 2,SBD,M,Single-ply
8,Patrick Maes,1959,France,98.22,250,-260,260,260,145,155,-160,155,250,260,-270,260,675,100,Masters 2,SBD,M,Single-ply
9,Serge Piret,1958,Belgium,96.01,190,200,210,210,142.5,147.5,-150,147.5,225,230,-235,230,587.5,100,Masters 2,SBD,M,Single-ply
DD,Jose Ocasio,1954,Puerto Rico,96.87,230,-250,250,250,-160,160,-170,160,-265,265,-275,265,,100,Masters 2,SBD,M,Single-ply
1,Thomas Högberg,1957,Sweden,108.96,295,-305,305,305,190,-195,-195,190,280,290,-305,290,785,110,Masters 2,SBD,M,Single-ply
2,Vladimir Tsukanov,1959,Russia,109.94,280,297.5,307.5,307.5,175,185,197.5,197.5,250,260,-265,260,765,110,Masters 2,SBD,M,Single-ply
3,Segismundo Pares,1957,USA,108,245,-257.5,-257.5,245,205,215,222.5,222.5,255,-280,-280,255,722.5,110,Masters 2,SBD,M,Single-ply
4,Volker Dell,1957,Germany,103.59,270,300,305,305,150,160,165,165,220,245,-252.5,245,715,110,Masters 2,SBD,M,Single-ply
5,Ronald Braak,1958,Netherlands,105.39,260,270,-275,270,160,170,175,175,235,242.5,245,245,690,110,Masters 2,SBD,M,Single-ply
6,Bill Sindelar,1951,USA,109.61,237.5,-247.5,-250,237.5,167.5,175,-182.5,175,235,250,-262.5,250,662.5,110,Masters 2,SBD,M,Single-ply
7,Štefan Zvada,1953,Czechia,100.74,215,225,230,230,155,160,165,165,200,230,-260,230,625,110,Masters 2,SBD,M,Single-ply
1,Jean-Luc Collart,1959,Belgium,118.07,320,-350,-350,320,200,210,212.5,212.5,280,300,-312.5,300,832.5,125,Masters 2,SBD,M,Single-ply
2,Kari Kallinki,1960,Finland,124.05,300,315,320,320,200,210,220,220,260,270,-275,270,810,125,Masters 2,SBD,M,Single-ply
3,Ron Strong,1958,Canada,115.87,275,-290,-290,275,180,187.5,-192.5,187.5,290,305,-321,305,767.5,125,Masters 2,SBD,M,Single-ply
4,Curtis Wainwright,1954,USA,120.16,237.5,247.5,262.5,262.5,172.5,182.5,187.5,187.5,230,237.5,242.5,242.5,692.5,125,Masters 2,SBD,M,Single-ply
5,Hans-Peter Falk,1951,Germany,110.42,-230,230,245,245,200,210,215,215,225,-240,-240,225,685,125,Masters 2,SBD,M,Single-ply
DQ,Dave Schneider,1956,USA,122.26,-285,-285,-285,,192.5,205,-207.5,205,262.5,-272.5,-272.5,262.5,,125,Masters 2,SBD,M,Single-ply
1,Steven Green,1951,USA,146.08,290,315,-320,315,-237.5,237.5,242.5,242.5,260,-290,-290,260,817.5,125+,Masters 2,SBD,M,Single-ply
DQ,Daniel Gaudreau,1960,USA,157.07,332.5,355,-365.5,355,-285.5,-285.5,-285.5,,-277.5,-277.5,,,,125+,Masters 2,SBD,M,Single-ply
1,Franco Giummarra,1950,Italy,55.26,180,190,200,200,65,72.5,80,80,190,200,-206,200,480,56,Masters 3,SBD,M,Single-ply
2,Kim-Won Pok,1940,Hong Kong,53.36,110,120,125,125,55,62.5,,62.5,130,142.5,-145,142.5,330,56,Masters 3,SBD,M,Single-ply
1,Milan Gombár,1948,Slovakia,57.82,160,-175,190,190,80,-115,115,115,190,205,-210,205,510,60,Masters 3,SBD,M,Single-ply
2,Hidetoshi Marumoto,1947,Japan,59.44,190,200,-205,200,100,110,115,115,180,-200,-200,180,495,60,Masters 3,SBD,M,Single-ply
3,Shinjun Oshiro,1943,Japan,57.03,-155,155,-165,155,110,-117.5,-117.5,110,155,165,-180,165,430,60,Masters 3,SBD,M,Single-ply
4,Marcel Nivault,1933,France,59.33,145,155,160,160,45,50,-52.5,50,170,180,182.5,182.5,392.5,60,Masters 3,SBD,M,Single-ply
DQ,Dagwa Sodnomsambuv,1950,Mongolia,58.71,100,120,-130,120,60,-70,-70,60,-130,-130,-130,,,60,Masters 3,SBD,M,Single-ply
DQ,Fernando Baez-Cruz,1941,Puerto Rico,59.95,120,140,-145,140,-60,-60,-60,,150,160,-182.5,160,,60,Masters 3,SBD,M,Single-ply
1,Jeffrey Jacobs,1947,USA,66.36,-192.5,-192.5,192.5,192.5,107.5,112.5,117.5,117.5,200,215,222.5,222.5,532.5,67.5,Masters 3,SBD,M,Single-ply
2,Heimo Törmä,1950,Finland,66.38,170,182.5,-187.5,182.5,-107.5,107.5,115,115,175,185,-195,185,482.5,67.5,Masters 3,SBD,M,Single-ply
3,Errico Iacomini,1949,Germany,65.61,155,-162.5,162.5,162.5,90,100,107.5,107.5,160,172.5,180,180,450,67.5,Masters 3,SBD,M,Single-ply
4,Reinhard Gröll,1935,Germany,66.1,135,142.5,147.5,147.5,85,87.5,,87.5,170,187.5,-197.5,187.5,422.5,67.5,Masters 3,SBD,M,Single-ply
1,Toshihiko Sato,1940,Japan,74.21,215,235,-240,235,-135,-135,135,135,220,230,-240,230,600,75,Masters 3,SBD,M,Single-ply
2,Mark Cucinella,1950,USA,74.43,192.5,197.5,202.5,202.5,127.5,-132.5,-132.5,127.5,-195,205,212.5,212.5,542.5,75,Masters 3,SBD,M,Single-ply
3,Heino Maiste,1949,Estonia,74.75,175,187.5,195,195,102.5,-110,110,110,220,232.5,-237.5,232.5,537.5,75,Masters 3,SBD,M,Single-ply
4,Sergio Zanetti,1945,Italy,74.55,205,210,-215,210,110,-115,-115,110,-205,205,-210,205,525,75,Masters 3,SBD,M,Single-ply
5,Wolfgang Zimmermann,1941,Czechia,73.92,145,160,,160,90,100,-110,100,200,210,-217.5,210,470,75,Masters 3,SBD,M,Single-ply
6,William Weinstock,1946,USA,74.01,160,-165,-165,160,85,90,-92.5,90,175,187.5,192.5,192.5,442.5,75,Masters 3,SBD,M,Single-ply
7,Tsegmed Byambaa,1940,Mongolia,68.99,-130,130,150,150,60,-70,,60,140,-160,-160,140,350,75,Masters 3,SBD,M,Single-ply
1,William Lincoln,1950,UK,82.18,225,237.5,245,245,157.5,-167.5,-167.5,157.5,220,230,-237.5,230,632.5,82.5,Masters 3,SBD,M,Single-ply
2,Christer Gustafsson,1949,Finland,82.34,215,230,-235,230,-140,142.5,152.5,152.5,210,217.5,-220,217.5,600,82.5,Masters 3,SBD,M,Single-ply
3,Rainer Schötz,1943,Germany,80.59,-205,215,-225,215,135,140,145,145,210,-225,225,225,585,82.5,Masters 3,SBD,M,Single-ply
4,Günter Lüdecke,1948,Germany,81.95,-207.5,210,-220,210,140,-145,145,145,215,-227.5,-232.5,215,570,82.5,Masters 3,SBD,M,Single-ply
5,Alan Tepper,1945,USA,80.25,175,185,-187.5,185,-132.5,132.5,-135,132.5,205,207.5,-212.5,207.5,525,82.5,Masters 3,SBD,M,Single-ply
6,Kalev Teder,1948,Estonia,81.19,170,-180,-180,170,-102.5,105,110,110,200,210,,210,490,82.5,Masters 3,SBD,M,Single-ply
7,Jimmie Espinoza,1941,USA,78.87,155,-165,-165,155,-132.5,132.5,-135,132.5,172.5,180,185,185,472.5,82.5,Masters 3,SBD,M,Single-ply
DQ,Toshio Kitano,1946,Japan,81.94,230,250,-256,250,-160,-160,-160,,-225,225,237.5,237.5,,82.5,Masters 3,SBD,M,Single-ply
1,Stefan Sochaňski,1948,Poland,89.62,242.5,257.5,-267.5,257.5,137.5,-145,-145,137.5,245,260,-265,260,655,90,Masters 3,SBD,M,Single-ply
2,Janos Fabri,1945,Hungary,82.94,220,225,230,230,120,130,135,135,270,-280,282.5,282.5,647.5,90,Masters 3,SBD,M,Single-ply
3,Mick Ellender,1945,UK,89.19,190,-200,200,200,145,-152.5,152.5,152.5,245,255,-265,255,607.5,90,Masters 3,SBD,M,Single-ply
4,Tadashi Tachibana,1949,Japan,89.26,210,225,-235,225,-177.5,177.5,-180,177.5,175,187.5,-207.5,187.5,590,90,Masters 3,SBD,M,Single-ply
5,Kari Mattila,1945,Sweden,89.69,205,-215,-215,205,-130,130,-137.5,130,245,250,-257.5,250,585,90,Masters 3,SBD,M,Single-ply
6,Yuriy Samussev,1950,Kazakhstan,88.74,200,-202.5,215,215,130,135,-142.5,135,215,-225,-225,215,565,90,Masters 3,SBD,M,Single-ply
1,Kenji Sasaki,1949,Japan,98.32,240,-255,-257.5,240,160,170,175,175,245,-255,-255,245,660,100,Masters 3,SBD,M,Single-ply
2,David Clark,1948,USA,96.68,-195,-195,200,200,167.5,-170,170,170,250,260,-262.5,260,630,100,Masters 3,SBD,M,Single-ply
3,Jean-Paul Belmas,1949,France,98.65,222.5,232.5,-242.5,232.5,120,125,130,130,220,237.5,240,240,602.5,100,Masters 3,SBD,M,Single-ply
4,John Gavin Walker,1939,UK,99.4,210,220,-226,220,110,117.5,120,120,222.5,230,,230,570,100,Masters 3,SBD,M,Single-ply
5,Edwin Shaw,1938,USA,94.85,-185,-185,185,185,92.5,97.5,107.5,107.5,205,215,-225,215,507.5,100,Masters 3,SBD,M,Single-ply
6,František Esser,1946,Czechia,93.75,110,130,-150,130,-150,150,160,160,170,-210,-210,170,460,100,Masters 3,SBD,M,Single-ply
7,Raymond Curtis,1932,USA,92.27,110,-127.5,127.5,127.5,105,-112.5,-112.5,105,150,160,-170,160,392.5,100,Masters 3,SBD,M,Single-ply
DQ,Mihkel Laurits,1944,Estonia,96.04,-217.5,-225,-225,,137.5,142.5,-147.5,142.5,220,227.5,230,230,,100,Masters 3,SBD,M,Single-ply
1,György Lovasz,1947,Hungary,104.9,220,,,220,177.5,182.5,-185,182.5,230,240,,240,642.5,110,Masters 3,SBD,M,Single-ply
2,Bill Helmich,1942,USA,104.88,185,197.5,200,200,132.5,142.5,-147.5,142.5,237.5,-252.5,-252.5,237.5,580,110,Masters 3,SBD,M,Single-ply
3,Reijo Jaakkola,1948,Finland,103.05,-150,150,185,185,150,-157.5,-157.5,150,180,200,-215,200,535,110,Masters 3,SBD,M,Single-ply
4,Václav Primus,1948,Czechia,100.82,152.5,165,172.5,172.5,105,110,112.5,112.5,227.5,235,240,240,525,110,Masters 3,SBD,M,Single-ply
5,Lucjan Bartnik,1950,Poland,106.25,-140,140,-150,140,125,130,-140,130,165,175,-185,175,445,110,Masters 3,SBD,M,Single-ply
6,Klaus Feldmann,1936,Germany,100.3,100,110,,110,122.5,-127.5,-127.5,122.5,150,160,165,165,397.5,110,Masters 3,SBD,M,Single-ply
DQ,Allan Fuglsang,1950,Denmark,108.85,185,200,202.5,202.5,-187.5,-187.5,-187.5,,235,242.5,252.5,252.5,,110,Masters 3,SBD,M,Single-ply
1,Květoslav Grobař,1949,Czechia,110.48,-230,-230,237.5,237.5,170,-177.5,-177.5,170,240,252.5,262.5,262.5,670,125,Masters 3,SBD,M,Single-ply
2,Crayton Taylor,1946,USA,116.15,-237.5,-237.5,237.5,237.5,-140,140,162.5,162.5,237.5,250,-262.5,250,650,125,Masters 3,SBD,M,Single-ply
3,Hans Ring,1945,Sweden,120.19,210,230,-245,230,160,170,-175,170,220,240,-252.5,240,640,125,Masters 3,SBD,M,Single-ply
1,Stanislav Gavrilkevich,1945,Ukraine,125.2,210,230,250,250,180,190,-200,190,190,210,220,220,660,125+,Masters 3,SBD,M,Single-ply
2,Christer Trygg,1949,Sweden,147.35,-180,-180,180,180,150,160,-165,160,200,-220,-220,200,540,125+,Masters 3,SBD,M,Single-ply
3,Harry Heyman,1942,USA,125.09,115,135,-155,135,-90,90,100,100,170,-180,-180,170,405,125+,Masters 3,SBD,M,Single-ply
4,Georg Boström,1947,Sweden,131.12,65,95,110,110,65,75,80,80,110,140,150,150,340,125+,Masters 3,SBD,M,Single-ply
1,Manuela Stucchi,1966,Italy,47.55,125,135,-140,135,60,67.5,-72.5,67.5,135,145,155,155,357.5,48,Masters 1,SBD,F,Single-ply
2,Kimberly Ryman,1962,USA,47.58,100,-107.5,-107.5,100,52.5,55,-57.5,55,115,127.5,130,130,285,48,Masters 1,SBD,F,Single-ply
3,Jonna O'Campo,1969,USA,46.89,-102.5,-105,105,105,50,55,57.5,57.5,110,117.5,-122.5,117.5,280,48,Masters 1,SBD,F,Single-ply
1,Magdolna Petróczki,1968,Hungary,50,130,140,145,145,75,80,82.5,82.5,145,155,160,160,387.5,52,Masters 1,SBD,F,Single-ply
2,Hiroko Arai,1963,Japan,50.44,105,115,-122.5,115,105,-110.5,110.5,110.5,110,120,132.5,132.5,358,52,Masters 1,SBD,F,Single-ply
3,Nathalie Feraud,1967,France,48.32,90,-100,100,100,55,60,62.5,62.5,110,120,-125,120,282.5,52,Masters 1,SBD,F,Single-ply
4,Yukiko Yanagisawa,1967,Japan,48.69,90,100,105,105,50,55,-57.5,55,85,95,100,100,260,52,Masters 1,SBD,F,Single-ply
1,Eva Buxbom,1969,Denmark,55.51,145,-157.5,-157.5,145,67.5,72.5,75,75,145,155,162.5,162.5,382.5,56,Masters 1,SBD,F,Single-ply
2,Danna Snow,1969,USA,53.6,90,115,-132.5,115,80,82.5,85,85,137.5,155,160,160,360,56,Masters 1,SBD,F,Single-ply
3,Saori Ishiguro,1963,Japan,55.24,110,122.5,-127.5,122.5,65,67.5,70,70,110,130,-137.5,130,322.5,56,Masters 1,SBD,F,Single-ply
1,Jeannette Gevers,1962,Australia,59.68,147.5,152.5,-157.5,152.5,90,-95,-95,90,152.5,157.5,-162.5,157.5,400,60,Masters 1,SBD,F,Single-ply
2,Anita Stavik,1965,Norway,59.58,135,145,150,150,65,70,-72.5,70,145,152.5,-157.5,152.5,372.5,60,Masters 1,SBD,F,Single-ply
3,Wing-Yuk Ip,1961,Hong Kong,59.51,105,115,120,120,70,72.5,75,75,120,125,132.5,132.5,327.5,60,Masters 1,SBD,F,Single-ply
4,Sabine Bommersbach,1964,Germany,57.1,102.5,112.5,-117.5,112.5,-50,50,55,55,115,122.5,130,130,297.5,60,Masters 1,SBD,F,Single-ply
5,Kerstin Heß,1968,Germany,57.96,80,90,100,100,42.5,47.5,-50,47.5,95,105,-110,105,252.5,60,Masters 1,SBD,F,Single-ply
1,Antonietta Orsini,1964,Italy,66.63,210,220,-225,220,140,145,-150,145,200,207.5,-213,207.5,572.5,67.5,Masters 1,SBD,F,Single-ply
2,Vicki O'Brien,1962,Australia,66.41,150,-162.5,-162.5,150,85,90,92.5,92.5,180,190,195,195,437.5,67.5,Masters 1,SBD,F,Single-ply
3,Michelle de Souza,1966,South Africa,65.83,-120,120,-147.5,120,62.5,-67.5,-67.5,62.5,150,165,-177.5,165,347.5,67.5,Masters 1,SBD,F,Single-ply
DQ,Tinamarie Crawford,1965,USA,64.6,-135,-135,-135,,57.5,62.5,-65,62.5,140,150,-152.5,150,,67.5,Masters 1,SBD,F,Single-ply
DQ,Sybille Hampel,1967,Germany,64.71,135,-145,145,145,-75,-75,-75,,135,140,-142.5,140,,67.5,Masters 1,SBD,F,Single-ply
1,Rhonda Clark,1965,USA,73.61,155,165,-172.5,165,80,87.5,-92.5,87.5,187.5,195,200,200,452.5,75,Masters 1,SBD,F,Single-ply
2,Jackie Blasbery,1963,UK,74.89,145,-155,155,155,95,102.5,105,105,170,182.5,-190,182.5,442.5,75,Masters 1,SBD,F,Single-ply
3,Carmen Sjardijn,1969,Netherlands,72.25,170,175,-180,175,92.5,97.5,-102.5,97.5,157.5,-167.5,-167.5,157.5,430,75,Masters 1,SBD,F,Single-ply
4,Susanne Steidle,1964,Germany,73.1,160,-170,170,170,95,-100,-100,95,160,-170,-170,160,425,75,Masters 1,SBD,F,Single-ply
1,Olga Berseneva,1962,Russia,80.5,-175,175,185,185,110,115,120,120,170,177.5,185,185,490,82.5,Masters 1,SBD,F,Single-ply
2,Jean Maton,1963,UK,82.04,-160,160,-170,160,100,-110,110,110,170,177.5,-182.5,177.5,447.5,82.5,Masters 1,SBD,F,Single-ply
3,Claudia Weinzierl,1970,Germany,82.33,147.5,-160,-160,147.5,120,-125,125,125,155,162.5,-167.5,162.5,435,82.5,Masters 1,SBD,F,Single-ply
1,Laura Styrlund,1964,USA,82.84,155,165,-172.5,165,100,110,117.5,117.5,165,175,-182.5,175,457.5,90,Masters 1,SBD,F,Single-ply
2,Sylvia Wunderlich,1965,Germany,83.57,117.5,125,130,130,82.5,87.5,90,90,137.5,145,150,150,370,90,Masters 1,SBD,F,Single-ply
3,Barbara Chaszczewics,1965,USA,83.48,107.5,-112.5,112.5,112.5,55,60,-62.5,60,122.5,135,-147.5,135,307.5,90,Masters 1,SBD,F,Single-ply
1,Malinda Baum,1963,USA,92.33,150,-160,-160,150,95,102.5,110,110,150,160,-175,160,420,90+,Masters 1,SBD,F,Single-ply
1,Vuokko Viitasaari,1954,Finland,47.6,115,125,130,130,70,-75,75,75,135,142.5,,142.5,347.5,48,Masters 2,SBD,F,Single-ply
2,Monika Bruder,1954,Germany,47.5,110,117.5,122.5,122.5,55,60,-62.5,60,115,-125,-125,115,297.5,48,Masters 2,SBD,F,Single-ply
3,Susan Thomson,1960,Canada,47.89,95,-102.5,-102.5,95,-67.5,-67.5,67.5,67.5,107.5,110,112.5,112.5,275,48,Masters 2,SBD,F,Single-ply
4,Bebe Burns,1942,USA,47.27,67.5,75,80,80,37.5,-40,-40,37.5,67.5,70,72.5,72.5,190,48,Masters 2,SBD,F,Single-ply
1,Anita Koykka,1960,Philippines,51.28,140,152.5,-161,152.5,82.5,-87.5,-87.5,82.5,145,155,-162.5,155,390,52,Masters 2,SBD,F,Single-ply
2,Jenny Hunter,1958,UK,51.68,120,130,132.5,132.5,75,80,-82.5,80,152.5,160,,160,372.5,52,Masters 2,SBD,F,Single-ply
3,Eila Kumpuniemi,1942,Finland,48.96,95,102.5,-107.5,102.5,55,-57.5,-57.5,55,110,120,127.5,127.5,285,52,Masters 2,SBD,F,Single-ply
1,Klothilde Herrmann,1956,Germany,55.75,125,135,142.5,142.5,70,75,80,80,132.5,142.5,150,150,372.5,56,Masters 2,SBD,F,Single-ply
2,Cecile Romano,1958,France,54.9,120,125,130,130,-72.5,-72.5,72.5,72.5,115,122.5,-127.5,122.5,325,56,Masters 2,SBD,F,Single-ply
DQ,Hatsuko Kimura,1951,Japan,52.9,-140,-140,-150,,-50,-50,-50,,,,,,,56,Masters 2,SBD,F,Single-ply
1,Laura Locatelli,1957,Italy,58.51,155,165,170,170,80,-85,-85,80,170,185,-190,185,435,60,Masters 2,SBD,F,Single-ply
2,Rita Carlsson,1952,USA,59.48,125,132.5,137.5,137.5,55,57.5,-60,57.5,147.5,157.5,-160,157.5,352.5,60,Masters 2,SBD,F,Single-ply
3,Anne Kemmerer,1953,USA,57.75,85,90,95,95,55,-57.5,-57.5,55,112.5,122.5,127.5,127.5,277.5,60,Masters 2,SBD,F,Single-ply
1,Donna Marts,1960,USA,66.75,157.5,165,-172.5,165,97.5,102.5,-105,102.5,150,165,170,170,437.5,67.5,Masters 2,SBD,F,Single-ply
2,Cathleen Marksteiner,1958,USA,66.5,135,-142.5,-142.5,135,80,85,-90,85,137.5,145,155,155,375,67.5,Masters 2,SBD,F,Single-ply
3,Tatyana Fomina,1946,Russia,63.72,-145,145,155.5,155.5,60,-65,-65,60,142.5,150,-160,150,365.5,67.5,Masters 2,SBD,F,Single-ply
DQ,Gail Moore,1947,USA,66.92,120,130,-137.5,130,77.5,82.5,-85,82.5,130,137.5,147.5,147.5,,67.5,Masters 2,SBD,F,Single-ply
1,Tatiana Puchkova,1959,Russia,74.34,160,-165,165,165,90,95,100,100,150,160,-165,160,425,75,Masters 2,SBD,F,Single-ply
2,May-Gun Grönholm,1955,Finland,68.84,105,-115,115,115,57.5,62.5,-65,62.5,130,140,145,145,322.5,75,Masters 2,SBD,F,Single-ply
3,Viviane Lerot,1959,Belgium,67.75,85,92.5,97.5,97.5,47.5,50,52.5,52.5,100,110,115,115,265,75,Masters 2,SBD,F,Single-ply
1,Regina Hackney,1939,USA,81.16,60,-75,-75,60,60,67.5,-75,67.5,115,122.5,-130,122.5,250,82.5,Masters 2,SBD,F,Single-ply
1,Sue Hollands,1951,UK,84.51,167.5,175,-177.5,175,80,85,90,90,150,160,167.5,167.5,432.5,90,Masters 2,SBD,F,Single-ply
1,Sue Hallen,1957,USA,112.62,150,-165,-165,150,105,120,-130,120,125,145,-155,145,415,90+,Masters 2,SBD,F,Single-ply
2,Janet Koenig,1954,USA,92.95,90,100,-107.5,100,55,60,65,65,145,152.5,-155,152.5,317.5,90+,Masters 2,SBD,F,Single-ply
