Name,Sex,Event,Equipment,Division,BodyweightKg,WeightClassKg,Squat1Kg,Squat2Kg,Squat3Kg,Best3SquatKg,Bench1Kg,Bench2Kg,Bench3Kg,Best3BenchKg,Deadlift1Kg,Deadlift2Kg,Deadlift3Kg,Best3DeadliftKg,TotalKg,Place
Hannah Philp,F,SBD,Raw,F-C-Open,62.3,63,140,-145,145,145,72.5,75,-77.5,75,160,165,-167.5,165,385,1
Emily Lloyd Whittington,F,SBD,Raw,F-C-Open,62,63,127.5,135,140,140,62.5,67.5,70,70,137.5,150,157.5,157.5,367.5,2
Chelsey Logue,F,SBD,Raw,F-C-Open,87.9,84+,147.5,157.5,165.5,165.5,77.5,82.5,-85,82.5,162.5,175,185.5,185.5,433.5,1
Kimberley Cowell,F,SBD,Raw,F-C-Open,72,72,127.5,135,137.5,137.5,75,77.5,-80,77.5,152.5,162.5,167.5,167.5,382.5,1
Chloe Townsend,F,SBD,Raw,F-C-Open,68.4,72,125,130,132.5,132.5,57.5,-60,-60,57.5,150,-160,160,160,350,3
Clare Patterson,F,SBD,Raw,F-C-Open,71.3,72,115,120,125,125,85,90,95,95,120,130,140,140,360,2
Emma Sullivan,F,SBD,Raw,F-C-Open,80.2,84,127.5,135,137.5,137.5,75,77.5,80,80,147.5,157.5,162.5,162.5,380,1
Carla Palmer,F,SBD,Raw,F-C-Open,50,52,70,75,80,80,35,40,-42.5,40,107.5,115,122.5,122.5,242.5,1
Jo Kelly,F,SBD,Raw,F-C-Open,63,63,90,95,100,100,65,67.5,-70,67.5,110,120,-127.5,120,287.5,3
Rebecca Currie,F,SBD,Raw,F-C-Open,49.4,52,62.5,70,75,75,32.5,35,37.5,37.5,110,-120,120,120,232.5,2
Amy McDermott,F,SBD,Raw,F-C-Open,81.9,84,100,110,-115,110,57.5,62.5,67.5,67.5,125,135,142.5,142.5,320,2
Lucy Triggs,F,SBD,Raw,F-C-Open,67.2,72,-85,85,95,95,40,45,47.5,47.5,125,130,135,135,277.5,4
Jenni Crimmins,F,SBD,Raw,F-C-Open,132.6,84+,100,112.5,120,120,72.5,80,82.5,82.5,130,140,150,150,352.5,2
Megan Blunstone,F,SBD,Raw,F-C-Open,72.4,84,90,97.5,105,105,47.5,52.5,55,55,100,115,122.5,122.5,282.5,3
Nicky Duvall,F,SBD,Raw,F-C-Open,66.5,72,72.5,80,87.5,87.5,42.5,47.5,-50,47.5,100,110,115,115,250,5
Steevi Pugh,F,SBD,Raw,F-C-Open,95.9,84+,100,105,112.5,112.5,47.5,52.5,55,55,120,130,137.5,137.5,305,3
Victoria Eldridge,F,SBD,Raw,F-C-Open,82.2,84,95,100,105,105,47.5,50,52.5,52.5,95,105,112.5,112.5,270,4
Donna Elder,F,SBD,Raw,F-C-Open,77.3,84,70,80,-82.5,80,40,-45,-45,40,110,117.5,-122.5,117.5,237.5,5
Karen Molden,F,SBD,Raw,F-C-Open,116.9,84+,55,62.5,67.5,67.5,47.5,52.5,-55,52.5,105,115,125,125,245,4
Stephen Manuel,M,SBD,Raw,M-C-Open,108.9,120,290,300,310,310,190,197.5,-207.5,197.5,310,330,335,335,842.5,1
Jordan McLaughlin,M,SBD,Raw,M-C-Open,139.3,120+,300,315,,315,200,215,,215,295,310,,310,840,1
Connor Burkhill,M,SBD,Raw,M-C-Open,69.4,74,165,177.5,185,185,127.5,135,-143,135,185,202.5,212.5,212.5,532.5,1
Danny Davies,M,SBD,Raw,M-C-Open,99.8,105,220,232.5,242.5,242.5,150,157.5,160,160,220,232.5,-245,232.5,635,1
Rory Siddron,M,SBD,Raw,M-C-Open,68.1,74,-152.5,152.5,162.5,162.5,112.5,117.5,122.5,122.5,197.5,207.5,215,215,500,2
James Crosbie,M,SBD,Raw,M-C-Open,103.4,105,192.5,200,210,210,132.5,140,145,145,260,275,-282.5,275,630,2
Alexander Halliwell,M,SBD,Raw,M-C-Open,105,105,210,225,-235,225,137.5,145,-150,145,245,255,-257.5,255,625,3
Sean Broley,M,SBD,Raw,M-C-Open,103.9,105,215,-220,230,230,135,-140,-140,135,247.5,255,-260,255,620,4
Ahmed Kadry,M,SBD,Raw,M-C-Open,82.8,83,180,190,-200,190,125,135,-140,135,205,220,230,230,555,1
Lewis Walsh,M,SBD,Raw,M-C-Open,71,74,145,152.5,-157.5,152.5,112.5,120,-125,120,182.5,187.5,,187.5,460,3
Will Freeman Dunn,M,SBD,Raw,M-C-Open,120,120,195,205,210,210,160,165,-170,165,190,202.5,207.5,207.5,582.5,2
Paul Constantine,M,SBD,Raw,M-C-Open,92.2,93,175,185,192.5,192.5,125,132.5,-137.5,132.5,185,195,205,205,530,1
Joe Lyons,M,SBD,Raw,M-C-Open,92.1,93,170,180,-187.5,180,127.5,135,140,140,180,192.5,202.5,202.5,522.5,2
Thomas Hanlon,M,SBD,Raw,M-C-Open,70.7,74,160,170,-175,170,75,80,-85,80,170,185,-195,185,435,4
Jon Wilkinson,M,SBD,Raw,M-C-Open,92.1,93,160,170,-175,170,-115,115,120,120,205,220,-230,220,510,3
Danny Lee,M,SBD,Raw,M-C-Open,92.3,93,130,150,170,170,130,135,140,140,140,165,190,190,500,4
Charles Gannicliffe,M,SBD,Raw,M-C-Open,78.4,83,160,167.5,175,175,60,65,70,70,185,197.5,205,205,450,2
Akkas Miah,M,SBD,Raw,M-C-Open,86.7,93,165,172.5,-180,172.5,107.5,112.5,-117.5,112.5,175,190,-200,190,475,5
Adam Roberts #1,M,SBD,Raw,M-C-Open,82.4,83,145,155,162.5,162.5,92.5,97.5,102.5,102.5,162.5,172.5,185,185,450,3
Rob Woodworth,M,SBD,Raw,M-C-Open,90,93,130,140,150,150,100,107.5,112.5,112.5,170,182.5,192.5,192.5,455,6
Ben Cook,M,SBD,Raw,M-C-Open,107,120,130,137.5,145,145,120,127.5,-135,127.5,185,200,210,210,482.5,3
Neil Ronaldson,M,SBD,Raw,M-C-Open,101.4,105,140,150,160,160,110,120,130,130,160,170,180,180,470,5
Liam Cullen,M,SBD,Raw,M-C-Open,88.6,93,142.5,152.5,155,155,95,100,-105,100,175,-185,185,185,440,7
Ryan Metcalfe,M,SBD,Raw,M-C-Open,113.1,120,152.5,-157.5,157.5,157.5,110,115,120,120,185,192.5,-200,192.5,470,4
Jonathan Heffernan,M,SBD,Raw,M-C-Open,67.5,74,125,-127.5,127.5,127.5,60,-67.5,-67.5,60,130,135,145,145,332.5,5
Richard Jones #3,M,SBD,Raw,M-C-Open,117.6,120,130,140,145,145,82.5,87.5,92.5,92.5,180,192.5,202.5,202.5,440,5
Paul Modaley,M,SBD,Raw,M-C-Open,108,120,140,150,155,155,105,110,-115,110,160,-170,-170,160,425,6
Peter Scanlon,M,SBD,Raw,M-C-Open,90.2,93,122.5,-127.5,127.5,127.5,77.5,82.5,-85,82.5,165,175,182.5,182.5,392.5,8
Joe Gould,M,SBD,Raw,M-C-Open,67.8,74,102.5,112.5,-120,112.5,60,65,70,70,112.5,122.5,133,133,315.5,6
Danny Taylor,M,SBD,Raw,M-C-Open,81.4,83,160,-172.5,172.5,172.5,105,112.5,117.5,117.5,-180,-180,-180,,,DQ
