Place,Name,CyrillicName,WeightClassKg,Event,Equipment,Tested,Sex,Division,BirthDate,BodyweightKg,Squat1Kg,Squat2Kg,Squat3Kg,Best3SquatKg,Bench1Kg,Bench2Kg,Bench3Kg,Best3BenchKg,Bench4Kg,Deadlift1Kg,Deadlift2Kg,Deadlift3Kg,Best3DeadliftKg,TotalKg
1,Sergey Konovalov,Сергей Коновалов,52,SBD,Wraps,Yes,M,Amateur Teen 13-15,1997-07-03,50.2,85,95,100,100,70,75,80,80,,120,130,132.5,132.5,312.5
1,Konstantin Demidenko,Константин Демиденко,56,SBD,Wraps,Yes,M,Amateur Teen 16-17,1996-03-06,55.2,105,110,115,115,65,-70,-70,65,,105,110,120,120,300
1,Vitaliy Kuznetsov,Виталий Кузнецов,56,SBD,Wraps,Yes,M,Amateur Juniors 20-23,1990-07-28,54.4,100,110,-115,110,90,92.5,-95,92.5,,150,165,,165,367.5
DQ,Petr Mikhaylov,Петр Михайлов,60,SBD,Wraps,Yes,M,Amateur Juniors 20-23,1990-11-17,58.3,-100,,,,,,,,,,,,,
1,Nikolay Gradoboev,Николай Градобоев,67.5,SBD,Wraps,Yes,M,Amateur Juniors 20-23,1989-05-07,62.1,135,-145,145,145,105,-112.5,115,115,,160,180,182.5,182.5,442.5
1,Evgeniy Melnikov,Евгений Мельников,75,SBD,Wraps,Yes,M,Amateur Teen 16-17,1996-05-02,72.5,100,-110,115,115,-85,-85,85,85,,120,132.5,137.5,137.5,337.5
1,Konstantin Sidenkov,Константин Сиденков,75,SBD,Wraps,Yes,M,Amateur Masters 45-49,1967-10-30,71.8,120,130,140,140,115,120,-125,120,,150,165,175,175,435
1,Sergey Tyapkin,Сергей Тяпкин,82.5,SBD,Wraps,Yes,M,Amateur Teen 16-17,1995-01-21,79.9,185,192.5,-197.5,192.5,125,130,135,135,,185,192.5,200,200,527.5
1,Igor Zuev,Игорь Зуев,82.5,SBD,Wraps,Yes,M,Amateur Juniors 20-23,1991-04-17,80.3,170,190,-200,190,-130,135,137.5,137.5,,210,-230,-230,210,537.5
1,Roman Chentsov,Роман Ченцов,90,SBD,Wraps,Yes,M,Amateur Teen 16-17,1996-05-15,88.6,105,110,120,120,95,100,-105,100,,135,145,155,155,375
1,Aleksey Babkin,Алексей Бабкин,90,SBD,Wraps,Yes,M,Amateur Open,1981-12-05,87.9,170,-180,-180,170,140,150,155,155,,185,195,205,205,530
2,Ivan Khorev,Иван Хорев,90,SBD,Wraps,Yes,M,Amateur Open,1983-12-18,85,140,-150,150,150,110,115,-120,115,,160,180,190,190,455
1,Ilya Bulychev,Илья Булычев,100,SBD,Wraps,Yes,M,Amateur Teen 16-17,1996-06-20,93.3,120,130,135,135,90,95,-102.5,95,,115,125,135,135,365
1,Vladimir Permyakov,Владимир Пермяков,100,SBD,Wraps,Yes,M,Amateur Open,1978-11-29,96.4,190,-200,200,200,115,122.5,130,130,,200,210,215,215,545
1,Ivan Chevardin,Иван Чевардин,100,SBD,Wraps,Yes,M,Amateur Masters 50-54,1958-11-06,96.3,180,190,200,200,140,145,150,150,,190,200,210,210,560
1,Nikita Gorodilov,Никита Городилов,110,SBD,Wraps,Yes,M,Amateur Teen 18-19,1994-11-30,104.5,160,170,-180,170,115,-117.5,117.5,117.5,,160,180,200,200,487.5
1,Aleksandr Marfitsin,Александр Марфицин,110,SBD,Wraps,Yes,M,Amateur Open,1982-08-23,108.1,225,232.5,-237.5,232.5,137.5,145,-150,145,,250,277.5,-285,277.5,655
1,Vladimir Lopin,Владимир Лопин,125,SBD,Wraps,Yes,M,Amateur Open,1983-01-21,122.6,280,295,300,300,190,-200,200,200,,250,275,287.5,287.5,787.5
1,Vasiliy Petrov,Василий Петров,140,SBD,Wraps,Yes,M,Amateur Open,1975-11-14,131.7,300,315,-325,315,230,240,245,245,,280,300,305,305,865
1,Dmitriy Perminov,Дмитрий Перминов,56,SBD,Single-ply,Yes,M,Amateur Teen 13-15,1998-08-09,55.2,110,120,125,125,75,85,-90,85,,120,-125,125,125,335
1,Yaroslav Skvortsov,Ярослав Скворцов,67.5,SBD,Single-ply,Yes,M,Amateur Teen 16-17,1995-12-22,63.9,165,-175,175,175,75,80,-82.5,80,,145,-155,-155,145,400
1,Arseniy Akhlestin,Арсений Ахлестин,75,SBD,Single-ply,Yes,M,Amateur Teen 16-17,1994-12-01,74,190,-200,-200,190,115,120,,120,,180,187.5,-195,187.5,497.5
1,Andrey Ermenin,Андрей Ерменин,90,SBD,Single-ply,Yes,M,Amateur Masters 45-49,1964-06-04,89.4,190,200,-220,200,135,140,-150,140,,185,195,200,200,540
1,Aleksandr Kalinin,Александр Калинин,100,SBD,Single-ply,Yes,M,Amateur Open,1975-05-07,98.2,200,210,220,220,135,145,-155,145,,-220,220,-245,220,585
1,Ilya Moshkovtsev,Илья Мошковцев,110,SBD,Single-ply,Yes,M,Amateur Open,1982-12-01,104,230,250,260,260,-150,160,-175,160,,-230,240,260,260,680
2,Valeriy Zaytsev,Валерий Зайцев,110,SBD,Single-ply,Yes,M,Amateur Open,1976-01-22,109.3,-220,220,240,240,155,165,175,175,,215,225,-235,225,640
1,Yuliya Dolgorukova,Юлия Долгорукова,56,B,Raw,Yes,F,Amateur Open,1979-11-28,55.4,,,,,-47.5,47.5,50,50,,,,,,50
1,Maksim Lapushkin,Максим Лапушкин,56,B,Raw,Yes,M,Amateur Teen 13-15,1997-03-31,55.9,,,,,-57.5,-62.5,62.5,62.5,,,,,,62.5
2,Aleksandr Chertushkin,Александр Чертушкин,56,B,Raw,Yes,M,Amateur Teen 13-15,1997-11-28,55.2,,,,,45,50,-55,50,,,,,,50
1,Ivan Butakov,Иван Бутаков,56,B,Raw,Yes,M,Amateur Teen 16-17,1996-07-19,56,,,,,75,82.5,-90,82.5,,,,,,82.5
1,Petr Mikhaylov,Петр Михайлов,60,B,Raw,Yes,M,Amateur Juniors 20-23,1990-11-17,57.6,,,,,85,95,102.5,102.5,,,,,,102.5
1,Yanis Kalaychev,Янис Калайчев,60,B,Raw,Yes,M,Amateur Open,1985-07-23,60,,,,,-140,140,160,160,162.5,,,,,160
2,Aleksandr Pitukhin,Александр Питухин,60,B,Raw,Yes,M,Amateur Open,1985-11-29,59.1,,,,,115,-120,120,120,,,,,,120
1,Egor Burilov,Егор Бурилов,67.5,B,Raw,Yes,M,Amateur Teen 13-15,1996-12-08,64.8,,,,,85,90,-95,90,,,,,,90
1,Andrey Godovalov,Андрей Годовалов,67.5,B,Raw,Yes,M,Amateur Teen 16-17,1996-11-05,64.4,,,,,110,-117.5,117.5,117.5,,,,,,117.5
2,Artyom Zelenin,Артём Зеленин,67.5,B,Raw,Yes,M,Amateur Teen 16-17,1996-09-08,62.2,,,,,100,105,-110,105,,,,,,105
1,Dmitriy Shitikov,Дмитрий Шитиков,67.5,B,Raw,Yes,M,Amateur Teen 18-19,1993-01-18,65.7,,,,,80,87.5,-92.5,87.5,,,,,,87.5
1,Aleksey Betyov,Алексей Бетёв,67.5,B,Raw,Yes,M,Amateur Juniors 20-23,1989-03-22,62.9,,,,,142.5,-147.5,147.5,147.5,,,,,,147.5
2,Ilya Nikitin,Илья Никитин,67.5,B,Raw,Yes,M,Amateur Juniors 20-23,1988-12-05,65.1,,,,,97.5,107.5,-112.5,107.5,,,,,,107.5
1,Denis Khanaev,Денис Ханаев,67.5,B,Raw,Yes,M,Amateur Open,1980-11-12,67.1,,,,,85,90,-97.5,90,,,,,,90
2,Denis Kusakin,Денис Кусакин,67.5,B,Raw,Yes,M,Amateur Open,1977-10-23,63.5,,,,,70,-72.5,-72.5,70,,,,,,70
1,Grigoriy Novikov,Григорий Новиков,75,B,Raw,Yes,M,Amateur Teen 16-17,1995-01-22,74.3,,,,,112.5,117.5,120,120,,,,,,120
2,Nikita Anferov,Никита Анферов,75,B,Raw,Yes,M,Amateur Teen 16-17,1995-02-17,73.6,,,,,100,105,-110,105,,,,,,105
1,Kirill Mikhnyuk,Кирилл Михнюк,75,B,Raw,Yes,M,Amateur Teen 18-19,1994-10-15,74.1,,,,,130,135,137.5,137.5,,,,,,137.5
1,Zirakkhan Sadikov,Зиракхан Садиков,75,B,Raw,Yes,M,Amateur Juniors 20-23,1991-01-07,75,,,,,117.5,120,-125,120,,,,,,120
2,Leonid Sharkov,Леонид Шарков,75,B,Raw,Yes,M,Amateur Juniors 20-23,1991-10-17,72.9,,,,,110,117.5,-122.5,117.5,,,,,,117.5
1,Dmitriy Umyarov,Дмитрий Умяров,75,B,Raw,Yes,M,Amateur Open,1978-01-19,72.5,,,,,150,155,157.5,157.5,,,,,,157.5
2,Ilya Makarov,Илья Макаров,75,B,Raw,Yes,M,Amateur Open,1987-05-21,73.6,,,,,117.5,125,130,130,,,,,,130
3,Aleksandr Katyshev,Александр Катышев,75,B,Raw,Yes,M,Amateur Open,1985-02-01,70,,,,,110,125,-130,125,,,,,,125
4,Ivan Zinov,Иван Зинов,75,B,Raw,Yes,M,Amateur Open,1987-12-03,73.2,,,,,-105,117.5,120,120,,,,,,120
1,Vitaliy Burkov,Виталий Бурков,82.5,B,Raw,Yes,M,Amateur Teen 13-15,1996-12-27,76.5,,,,,95,102.5,105,105,,,,,,105
1,Sergey Krapivin,Сергей Крапивин,82.5,B,Raw,Yes,M,Amateur Teen 16-17,1996-06-12,80.8,,,,,90,100,-110,100,,,,,,100
1,Maksim Ladyshkin,Максим Ладышкин,82.5,B,Raw,Yes,M,Amateur Juniors 20-23,1990-04-04,80.2,,,,,110,120,127.5,127.5,,,,,,127.5
1,Aleksandr Alyaev,Александр Аляев,82.5,B,Raw,Yes,M,Amateur Open,1984-07-17,76.8,,,,,150,160,-167.5,160,,,,,,160
2,Roman Lepeshkin,Роман Лепешкин,82.5,B,Raw,Yes,M,Amateur Open,1978-11-25,81.2,,,,,140,150,155,155,,,,,,155
3,Valeriy Kleshnya,Валерий Клешня,82.5,B,Raw,Yes,M,Amateur Open,1981-02-21,82.4,,,,,140,145,147.5,147.5,,,,,,147.5
4,Dmitriy Skripnikov,Дмитрий Скрипников,82.5,B,Raw,Yes,M,Amateur Open,1988-03-12,81.8,,,,,140,-145,145,145,,,,,,145
DQ,Artem Zaytsev,Артем Зайцев,82.5,B,Raw,Yes,M,Amateur Open,1974-11-21,80,,,,,-145,-150,,,,,,,,
1,Igor Volodin,Игорь Володин,82.5,B,Raw,Yes,M,Amateur Masters 45-49,1962-12-28,79.8,,,,,120,127.5,135,135,,,,,,135
2,Aleksandr Gutsevich,Александр Гуцевич,82.5,B,Raw,Yes,M,Amateur Masters 45-49,1966-09-23,81.8,,,,,125,-132.5,-132.5,125,,,,,,125
1,Rushan Biktashev,Рушан Бикташев,90,B,Raw,Yes,M,Amateur Teen 18-19,1994-06-03,85.9,,,,,90,95,-107.5,95,,,,,,95
1,Anatoliy Alyaev,Анатолий Аляев,90,B,Raw,Yes,M,Amateur Open,1984-07-17,86.5,,,,,170,180,190,190,,,,,,190
2,Petr Borisov,Петр Борисов,90,B,Raw,Yes,M,Amateur Open,1982-11-09,87.3,,,,,155,162.5,-165,162.5,,,,,,162.5
3,Dmitriy Selikhov,Дмитрий Селихов,90,B,Raw,Yes,M,Amateur Open,1975-11-17,88.9,,,,,140,152.5,155,155,,,,,,155
4,Sergey Deryabin,Сергей Дерябин,90,B,Raw,Yes,M,Amateur Open,1980-11-13,87.5,,,,,135,-142.5,147.5,147.5,,,,,,147.5
5,Andrey Kuznetsov,Андрей Кузнецов,90,B,Raw,Yes,M,Amateur Open,1976-02-15,89.4,,,,,132.5,-142.5,142.5,142.5,,,,,,142.5
1,Rafael Aptukov,Рафаэль Аптуков,90,B,Raw,Yes,M,Amateur Masters 40-44,1968-08-03,89.5,,,,,150,155,-160,155,,,,,,155
1,Sergey Plakhotin,Сергей Плахотин,100,B,Raw,Yes,M,Amateur Open,1986-11-10,94,,,,,185,-195,-195,185,,,,,,185
2,Andrey Sorokin,Андрей Сорокин,100,B,Raw,Yes,M,Amateur Open,1976-07-13,97.4,,,,,167.5,-172.5,172.5,172.5,,,,,,172.5
3,Evgeniy Trefilov,Евгений Трефилов,100,B,Raw,Yes,M,Amateur Open,1980-11-21,99.9,,,,,130,142.5,150,150,,,,,,150
4,Ivan Dobrynin,Иван Добрынин,100,B,Raw,Yes,M,Amateur Open,1980-11-12,100,,,,,140,145,-150,145,,,,,,145
5,Andrey Oberyukhtin,Андрей Оберюхтин,100,B,Raw,Yes,M,Amateur Open,1980-11-12,98.2,,,,,120,130,-140,130,,,,,,130
6,Igor Khramtsov,Игорь Храмцов,100,B,Raw,Yes,M,Amateur Open,1973-04-17,99.5,,,,,120,130,-140,130,,,,,,130
1,Igor Tashirov,Игорь Таширов,100,B,Raw,Yes,M,Amateur Masters 40-44,1970-11-12,97.6,,,,,155,-165,-170,155,,,,,,155
1,Anatoliy Gorelov,Анатолий Горелов,100,B,Raw,Yes,M,Amateur Masters 50-54,1962-01-24,96.2,,,,,117.5,122.5,132.5,132.5,,,,,,132.5
1,Dmitriy Karelin,Дмитрий Карелин,110,B,Raw,Yes,M,Amateur Open,1968-09-27,104.4,,,,,175,180,-185,180,,,,,,180
2,Dmitriy Kosarev,Дмитрий Косарев,110,B,Raw,Yes,M,Amateur Open,1972-07-16,108,,,,,150,160,170,170,,,,,,170
3,Eduard Churakov,Эдуард Чураков,110,B,Raw,Yes,M,Amateur Open,1977-11-12,109,,,,,150,160,167.5,167.5,,,,,,167.5
1,Aleksandr Belyaev,Александр Беляев,110,B,Raw,Yes,M,Amateur Masters 40-44,1972-09-29,103.6,,,,,160,170,180,180,,,,,,180
2,Dmitriy Karelin,Дмитрий Карелин,110,B,Raw,Yes,M,Amateur Masters 40-44,1968-09-27,104.4,,,,,175,180,-185,180,,,,,,180
3,Sergey Shmakov,Сергей Шмаков,110,B,Raw,Yes,M,Amateur Masters 40-44,1971-05-22,106.1,,,,,150,160,167.5,167.5,,,,,,167.5
1,Vladimir Shibaev,Владимир Шибаев,110,B,Raw,Yes,M,Amateur Masters 50-54,1960-02-05,101.3,,,,,155,160,170,170,,,,,,170
2,Anatoliy Lukyanov,Анатолий Лукьянов,110,B,Raw,Yes,M,Amateur Masters 60-64,1949-11-21,108.1,,,,,120,130,137.5,137.5,,,,,,137.5
1,Yuriy Turov,Юрий Туров,125,B,Raw,Yes,M,Amateur Open,1983-05-18,120.8,,,,,195,202.5,-210,202.5,,,,,,202.5
1,Aleksey Brednev,Алексей Бреднев,125,B,Raw,Yes,M,Amateur Masters 40-44,1969-05-01,115,,,,,147.5,152.5,155,155,,,,,,155
1,Ravil Fakhrutdinov,Равиль Фахрутдинов,125,B,Raw,Yes,M,Amateur Masters 50-54,1962-06-30,117.3,,,,,155,160,170,170,,,,,,170
1,Sergey Khudyakov,Сергей Худяков,140,B,Raw,Yes,M,Amateur Open,1975-09-11,132,,,,,210,220,-225,220,,,,,,220
1,Andrey Godovalov,Андрей Годовалов,67.5,B,Multi-ply,Yes,M,Amateur Teen 16-17,1996-11-05,64.4,,,,,115,120,-125,120,,,,,,120
1,Rinad Nizamov,Ринад Низамов,90,B,Multi-ply,Yes,M,Amateur Open,1973-09-18,89.7,,,,,-225,-225,225,225,,,,,,225
2,Ivan Demidenko,Иван Демиденко,90,B,Multi-ply,Yes,M,Amateur Open,1976-12-20,84.8,,,,,190,-195,-195,190,,,,,,190
1,Aleksandr Terentev,Александр Терентьев,100,B,Multi-ply,Yes,M,Amateur Masters 40-44,1969-02-15,99.1,,,,,-210,210,220,220,,,,,,220
1,Kseniya Frolkova,Ксения Фролкова,90+,B,Single-ply,Yes,F,Amateur Open,1973-08-14,132.3,,,,,100,107.5,110,110,,,,,,110
1,Ivan Klyagin,Иван Клягин,67.5,B,Single-ply,Yes,M,Amateur Juniors 20-23,1992-03-04,66,,,,,145,152.5,-155,152.5,,,,,,152.5
1,Sergey Lysyakov,Сергей Лысяков,67.5,B,Single-ply,Yes,M,Amateur Open,1980-11-06,67.5,,,,,132.5,140,-150,140,,,,,,140
1,Artush Karapetyan,Артуш Карапетян,82.5,B,Single-ply,Yes,M,Amateur Juniors 20-23,1991-10-20,81.9,,,,,-170,170,-175,170,,,,,,170
1,Aleksandr Portnoy,Александр Портной,100,B,Single-ply,Yes,M,Amateur Open,1987-12-13,99.3,,,,,170,180,187.5,187.5,,,,,,187.5
1,Aleksey Gorbunov,Алексей Горбунов,140+,B,Single-ply,Yes,M,Amateur Open,1979-09-07,142.2,,,,,225,235,240,240,,,,,,240
1,Dmitriy Skripnikov,Дмитрий Скрипников,82.5,D,Raw,Yes,M,Amateur Open,1988-03-12,81.8,,,,,,,,,,-205,205,215,215,215
1,Aleksey Grach,Алексей Грач,100,D,Raw,Yes,M,Amateur Masters 50-54,1962-10-01,98.9,,,,,,,,,,235,245,-252.5,245,245
1,Aleksandr Marfitsin,Александр Марфицин,110,D,Raw,Yes,M,Amateur Open,1982-08-23,108.1,,,,,,,,,,250,260,262.5,262.5,262.5
2,Andrey Nikonov,Андрей Никонов,110,D,Raw,Yes,M,Amateur Open,1982-10-04,107.6,,,,,,,,,,240,250,260,260,260
1,Roza Ovechkina,Роза Овечкина,52,B,Raw,No,F,Pro Open,1980-06-24,51,,,,,50,,,50,,,,,,50
1,Zhanna Dorokhina,Жанна Дорохина,56,B,Raw,No,F,Pro Masters 40-44,1968-11-11,55.5,,,,,65,67.5,72.5,72.5,,,,,,72.5
1,Elena Sheverdina,Елена Шевердина,75,B,Raw,No,F,Pro Masters 40-44,1970-02-14,74.8,,,,,130,137.5,-142.5,137.5,,,,,,137.5
1,Vladimir Karavaev,Владимир Караваев,75,B,Raw,No,M,Pro Open,1987-09-03,73.7,,,,,155,165,170,170,,,,,,170
2,Mikhail Elfimov,Михаил Елфимов,75,B,Raw,No,M,Pro Open,1980-06-09,73,,,,,137.5,145,150,150,,,,,,150
1,Grigoriy Serebrennikov,Григорий Серебренников,90,B,Raw,No,M,Pro Open,1973-07-25,84.2,,,,,160,170,180,180,,,,,,180
2,Vyacheslav Khorev,Вячеслав Хорев,90,B,Raw,No,M,Pro Open,1980-11-12,83,,,,,140,150,-162.5,150,,,,,,150
1,Maksim Ufaev,Максим Уфаев,100,B,Raw,No,M,Pro Open,1983-08-13,98.1,,,,,160,167.5,172.5,172.5,,,,,,172.5
1,Sergey Konovalov,Сергей Коновалов,100,B,Raw,No,M,Pro Masters 40-44,1969-03-22,93,,,,,135,145,152.5,152.5,,,,,,152.5
1,Yakov Berman,Яков Берман,110,B,Raw,No,M,Pro Open,1972-06-22,109,,,,,200,210,215,215,,,,,,215
2,Rinat Ashirov,Ринат Аширов,110,B,Raw,No,M,Pro Open,1985-07-31,107.2,,,,,165,172.5,180,180,,,,,,180
1,Yakov Berman,Яков Берман,110,B,Raw,No,M,Pro Masters 40-44,1970-11-11,109,,,,,200,210,215,215,,,,,,215
1,Andrey Tachanov,Андрей Тачанов,110,B,Raw,No,M,Pro Masters 45-49,1964-08-06,109.5,,,,,180,187.5,195,195,,,,,,195
2,Aleksey Chernysh,Алексей Черныш,110,B,Raw,No,M,Pro Masters 45-49,1967-05-10,109.2,,,,,170,180,-192.5,180,,,,,,180
1,Andrey Ovechkin,Андрей Овечкин,125,B,Raw,No,M,Pro Open,1979-11-07,119.6,,,,,210,220,-237.5,220,,,,,,220
1,Valentin Taran,Валентин Таран,140+,B,Raw,No,M,Pro Open,1976-08-04,140.2,,,,,-200,-200,200,200,,,,,,200
1,Yulia Medvedeva,Юлия Медведева,75,B,Single-ply,No,F,Pro Open,1979-07-08,74.8,,,,,187.5,192.5,200,200,,,,,,200
1,Grigoriy Serebrennikov,Григорий Серебренников,90,B,Single-ply,No,M,Pro Open,1973-07-25,84.2,,,,,180,190,200,200,,,,,,200
2,Aleksandr Mateychuk,Александр Матейчук,90,B,Single-ply,No,M,Pro Open,1985-01-08,88.9,,,,,150,165,170,170,,,,,,170
1,Dmimtriy Chertushkin,Дмимтрий Чертушкин,100,B,Single-ply,No,M,Pro Masters 45-49,1965-08-15,96.9,,,,,200,210,217.5,217.5,,,,,,217.5
1,Vladimir Fil,Владимир Филь,110,B,Single-ply,No,M,Pro Open,1976-12-21,108.8,,,,,285,300,310,310,,,,,,310
1,Sergey Frolkov,Сергей Фролков,140,B,Single-ply,No,M,Pro Masters 40-44,1969-10-04,129.7,,,,,245,260,265,265,,,,,,265
1,Igor Kuimov,Игорь Куимов,82.5,B,Multi-ply,No,M,Pro Masters 50-54,1962-07-28,81.2,,,,,220,-230,-235,220,,,,,,220
DQ,Sergey Yachmenyov,Сергей Ячменёв,125,B,Multi-ply,No,M,Pro Open,1978-11-25,117.1,,,,,-245,-260,-260,,,,,,,
1,Denis Maslennikov,Денис Масленников,75,SBD,Wraps,No,M,Pro Open,1985-11-07,73.6,190,200,-210,200,130,135,140,140,,190,200,-210,200,540
1,Andrey Shelepov,Андрей Шелепов,82.5,SBD,Wraps,No,M,Pro Masters 40-44,1970-05-04,82.4,180,-190,190,190,145,152.5,157.5,157.5,,210,220,225,225,572.5
1,Evgeniy Khartsyzov,Евгений Харцызов,90,SBD,Wraps,No,M,Pro Teen 18-19,1994-05-13,86.5,160,170,172.5,172.5,112.5,117.5,120,120,,190,205,215,215,507.5
1,Eduard Isakov,Эдуард Исаков,90,SBD,Wraps,No,M,Pro Masters 45-49,1966-07-18,86.5,180,190,-200,190,130,140,145,145,,220,240,-250,240,575
1,Aleksey Matveev,Алексей Матвеев,100,SBD,Wraps,No,M,Pro Open,1989-08-21,95.3,230,-237.5,-237.5,230,150,157.5,-162.5,157.5,,260,270,-277.5,270,657.5
2,Aleksandr Kuznetsov,Александр Кузнецов,100,SBD,Wraps,No,M,Pro Open,1981-12-09,94.1,225,-242.5,245,245,155,165,-170,165,,210,222.5,237.5,237.5,647.5
1,Sergey Volkhin,Сергей Вольхин,110,SBD,Wraps,No,M,Pro Open,1988-12-25,107.7,250,265,275,275,180,-190,-195,180,,350,362.5,-370,362.5,817.5
2,Valera Bekker,Валера Беккер,110,SBD,Wraps,No,M,Pro Open,1980-12-07,107.4,250,260,270,270,190,200,207.5,207.5,,290,305,320,320,797.5
1,Ruslan Akhmetov,Руслан Ахметов,110,SBD,Wraps,No,M,Pro Masters 50-54,1960-04-10,108.2,250,260,265,265,160,170,175,175,,200,250,,250,690
1,Maxim Piskunov,Максим Пискунов,100,SBD,Multi-ply,No,M,Pro Open,1982-07-24,90.1,375,400,410,410,240,250,260,260,,-300,300,315,315,985
2,Rustam Mukhametzhanov,Рустам Мухаметжанов,100,SBD,Multi-ply,No,M,Pro Open,1987-03-23,98.2,360,380,-400,380,205,215,225,225,,300,-310,-320,300,905
3,Aleksandr Dorokhov,Александр Дорохов,100,SBD,Multi-ply,No,M,Pro Open,1983-03-13,94.3,310,-320,-320,310,180,190,200,200,,265,-275,,265,775
DQ,Yuriy Polyakov,Юрий Поляков,100,SBD,Multi-ply,No,M,Pro Open,1985-01-01,99.6,-320,,,,,,,,,,,,,
1,Vladimir Komissarov,Владимир Комиссаров,56,SBD,Single-ply,No,M,Pro Teen 16-17,1994-12-19,55.3,195,207.5,-215,207.5,105,112.5,-117.5,112.5,,205,215,-220,215,535
1,Denis Gordeev,Денис Гордеев,82.5,SBD,Single-ply,No,M,Pro Open,1981-07-31,80.2,-210,210,225,225,-130,135,145,145,,225,240,-245,240,610
DQ,Nikita Skvortsov,Никита Скворцов,100,SBD,Single-ply,No,M,Pro Juniors 20-23,1990-02-15,96.3,-275,-285,-285,,,,,,,,,,,
1,Ruslan Akhmetov,Руслан Ахметов,110,SBD,Single-ply,No,M,Pro Masters 50-54,1960-04-10,108.2,280,290,,290,170,200,210,210,,200,250,,250,750
1,Aleksandr Mateychuk,Александр Матейчук,90,D,Raw,No,M,Pro Open,1985-01-08,88.9,,,,,,,,,,180,210,220,220,220
1,Konstantin Shcherbina,Константин Щербина,140,D,Raw,No,M,Pro Masters 40-44,1970-05-28,131.9,,,,,,,,,,245,255,,255,255
