Name,Sex,Equipment,BodyweightKg,WeightClassKg,Division,Squat1Kg,Squat2Kg,Squat3Kg,Best3SquatKg,Bench1Kg,Bench2Kg,Bench3Kg,Best3BenchKg,Deadlift1Kg,Deadlift2Kg,Deadlift3Kg,Best3DeadliftKg,TotalKg,Place,Event,AgeRange
Joanne Barnes #1,F,Single-ply,69,72,F-E-G,120,-130,-130,120,85,-87.5,-87.5,85,130,140,,140,345,G,SBD,39.5-48.5
Richard Gallagher,M,Raw,65.7,66,M-C-G,120,125,130,130,105,-115,-120,105,185,192.5,-197.5,192.5,427.5,G,SBD,23.5-38.5
Adam Sawyers,M,Raw,73.7,74,M-C-G,182.5,192.5,-195,192.5,90,-102.5,-102.5,90,220,-240,-240,220,502.5,G,SBD,0-22.5
John Corcoran,M,Raw,80.5,83,M-C-G,182.5,192.5,-200,192.5,102.5,107.5,110,110,195,210,220,220,522.5,G,SBD,23.5-38.5
Luke Corcoran,M,Raw,84.7,93,M-C-G,185,195,-205,195,100,105,110,110,225,235,-240,235,540,G,SBD,23.5-38.5
Alan Silvester,M,Raw,112.8,120,M-C-G,180,-190,-190,180,115,-125,125,125,200,220,240,240,545,G,SBD,23.5-38.5
Ian Spencer,M,Raw,115.7,120,M-C-G,190,210,-220,210,120,130,-140,130,190,210,220,220,560,G,SBD,49.5-58.5
Rousel Chowdhury,M,Raw,91.8,93,M-C-G,160,180,-190,180,-150,150,170,170,190,200,215,215,565,G,SBD,23.5-38.5
Kit Burgoyne,M,Raw,82.1,83,M-C-G,180,190,200,200,127.5,-137.5,-137.5,127.5,225,240,-255,240,567.5,G,SBD,23.5-38.5
Nathan Burton,M,Raw,92.2,93,M-C-G,205,-210,215,215,130,137.5,145,145,210,220,227.5,227.5,587.5,G,SBD,23.5-38.5
Samuel Laycock,M,Raw,112.3,120,M-C-G,205,215,225,225,120,-125,130,130,240,255,262.5,262.5,617.5,G,SBD,0-22.5
Paul Bimrose,M,Raw,104.4,105,M-C-G,-220,220,240,240,155,170,-180,170,260,280,290,290,700,G,SBD,39.5-48.5
Louis Beaumont,M,Single-ply,104.9,105,M-E-G,315,,340.5,340.5,190,205,-215,205,265,280,,280,825.5,G,SBD,0-22.5
Jake Turner,M,Raw,91.9,93,M-C-Open,202.5,217.5,227.5,227.5,140,150,-155,150,220,242.5,252.5,252.5,630,1,SBD,23.5-38.5
Joe Chiffers,M,Raw,91.3,93,M-C-Open,,165,-175,165,-135,-135,-135,,215,225,-235,225,,DQ,SBD,23.5-38.5
Darren Sloan,M,Raw,103.4,105,M-C-Open,202.5,212.5,230,230,130,135,-147.5,135,210,230,250,250,615,1,SBD,23.5-38.5
Dan Casson,M,Raw,101.2,105,M-C-Open,205,220,-230,220,-110,127.5,132.5,132.5,250,-272.5,,250,602.5,2,SBD,23.5-38.5
Ben Deller-Rust,M,Raw,100.6,105,M-C-Open,175,190,200,200,120,127.5,135,135,235,250,-260,250,585,3,SBD,0-22.5
Kieran Bamford,M,Raw,100.9,105,M-C-Open,180,-190,-190,180,130,140,-145,140,210,220,230,230,550,4,SBD,23.5-38.5
Jason Ennis,M,Raw,104.2,105,M-C-Open,160,175,-190,175,130,135,137.5,137.5,210,220,230,230,542.5,5,SBD,39.5-48.5
Ted Moore,M,Raw,103.4,105,M-C-Open,160,180,,180,110,120,130,130,180,210,230,230,540,6,SBD,59.5-68.5
Charlie Bloxham,M,Raw,104.4,105,M-C-Open,170,180,185,185,100,112.5,-117.5,112.5,-200,-215,215,215,512.5,7,SBD,23.5-38.5
Joe Bullock,M,Single-ply,95.2,105,M-E-Open,-250,260,,260,160,,,160,200,,,200,620,1,SBD,39.5-48.5
Frazer Pennington,M,Raw,114.8,120,M-C-Open,190,205,215,215,130,140,-145,140,195,215,227.5,227.5,582.5,1,SBD,0-17.5
Neil Ronaldson,M,Raw,114,120,M-C-Open,200,210,215,215,150,160,-165,160,190,200,205,205,580,2,SBD,23.5-38.5
Daniel Truman,M,Raw,116.6,120,M-C-Open,150,-160,165,165,100,-115,-115,100,190,200,210,210,475,3,SBD,0-17.5
Michael Porter,M,Raw,110.3,120,M-C-Open,140,145,150,150,90,100,110,110,160,180,190,190,450,4,SBD,23.5-38.5
Chris Hubel,M,Raw,119.5,120,M-C-Open,175,185,190,190,-130,-130,-130,,240,255,-265,255,,DQ,SBD,23.5-38.5
Peter Ratcliffe,M,Raw,133.1,120+,M-C-Open,190,205,220,220,110,120,130,130,230,245,257.5,257.5,607.5,1,SBD,49.5-58.5
Maria Andrews,F,Raw,54.9,57,F-C-Open,70,80,85,85,40,45,50,50,105,112.5,117.5,117.5,252.5,1,SBD,0-22.5
Melissa Henderson,F,Raw,55.4,57,F-C-Open,-80,80,85,85,45,50,52.5,52.5,100,105,110,110,247.5,2,SBD,23.5-38.5
Dorota Piotowska,F,Raw,56.3,57,F-C-Open,67.5,72.5,75,75,35,37.5,40,40,97.5,105,110,110,225,3,SBD,23.5-38.5
Shannon Clifford,F,Raw,60.8,63,F-C-Open,100,-105,-105,100,55,-57.5,-57.5,55,130,132.5,135,135,290,1,SBD,0-22.5
Carole Blanchflower,F,Raw,61.7,63,F-C-Open,-97.5,-97.5,100,100,55,-57.5,57.5,57.5,115,125,132.5,132.5,290,2,SBD,39.5-48.5
Alexandra Wiacek,F,Raw,60.3,63,F-C-Open,-90,90,100,100,52.5,57.5,62.5,62.5,100,110,117.5,117.5,280,3,SBD,23.5-38.5
Rachel Hassall,F,Raw,60.7,63,F-C-Open,-70,-70,70,70,45,50,55,55,100,110,120,120,245,4,SBD,23.5-38.5
Rachel Gregory,F,Raw,62.7,63,F-C-Open,60,67.5,75,75,37.5,42.5,-45,42.5,100,110,115,115,232.5,5,SBD,23.5-38.5
Hannah Beaumont,F,Raw,63,63,F-C-Open,-105,-105,-107.5,,-55,55,57.5,57.5,125,130,135,135,,DQ,SBD,23.5-38.5
Gemma Pemrick,F,Raw,70.9,72,F-C-Open,110,115,120,120,40,45,52.5,52.5,120,125,135,135,307.5,1,SBD,23.5-38.5
Avril Hughes,F,Raw,69.7,72,F-C-Open,85,-90,-90,85,47.5,50,52.5,52.5,140,145,150,150,287.5,2,SBD,23.5-38.5
April Edwards,F,Raw,70.3,72,F-C-Open,100,-105,-105,100,40,45,47.5,47.5,120,125,130,130,277.5,3,SBD,0-22.5
Sophie Bent,F,Raw,69,72,F-C-Open,90,95,100,100,47.5,50,-52.5,50,102.5,-107.5,110,110,260,4,SBD,0-22.5
Jade Shepherd,F,Raw,70.9,72,F-C-Open,80,85,90,90,35,40,-42.5,40,115,125,130,130,260,5,SBD,0-19.5
Chelsey Logue,F,Raw,81.1,84,F-C-Open,80,-110,-120,80,40,50,-65,50,80,120,155,155,285,1,SBD,23.5-38.5
Jo Whiteley,F,Raw,98.6,84+,F-C-Open,80,90,100,100,65,70,72.5,72.5,120,135,145,145,317.5,1,SBD,39.5-48.5
Chris Rattray,M,Raw,56,59,M-C-Open,130,135,-137.5,135,-80,85,90,90,160,170,-172.5,170,395,1,SBD,0-19.5
Junaid Ali,M,Raw,64.7,66,M-C-Open,140,150,-155,150,80,85,-87.5,85,180,-200,-200,180,415,1,SBD,0-22.5
Jack Harvey #2,M,Raw,64.1,66,M-C-Open,-135,140,145,145,80,85,-90,85,160,170,-175,170,400,2,SBD,0-19.5
Adil Khan,M,Raw,73.3,74,M-C-Open,160,175,182.5,182.5,115,130,-135,130,200,220,232.5,232.5,545,1,SBD,0-22.5
Ben Dandy,M,Raw,72.1,74,M-C-Open,150,160,165,165,120,127.5,130,130,180,190,-192.5,190,485,2,SBD,23.5-38.5
Aodhan Phillips-Lees,M,Raw,73.3,74,M-C-Open,157.5,165,170,170,105,110,-112.5,110,170,-177.5,-177.5,170,450,3,SBD,0-22.5
Matthew Piaseki,M,Raw,72,74,M-C-Open,140,147.5,-152.5,147.5,-95,95,-100,95,190,200,205,205,447.5,4,SBD,23.5-38.5
Adam Desai,M,Raw,71.6,74,M-C-Open,115,125,-132.5,125,82.5,92.5,95,95,160,172.5,180,180,400,5,SBD,23.5-38.5
Danny Taylor,M,Raw,71,74,M-C-Open,120,-140,-140,120,85,-95,-95,85,140,160,170,170,375,6,SBD,0-22.5
Alex Ouzounoglou,M,Raw,68.5,74,M-C-Open,-125,125,132.5,132.5,95,100,-102.5,100,120,130,135,135,367.5,7,SBD,23.5-38.5
Christopher Rigby,M,Raw,68.1,74,M-C-Open,-95,100,-110,100,70,75,-77.5,75,125,130,135,135,310,8,SBD,0-22.5
Jamie Clarricoats,M,Raw,66.4,74,M-C-Open,130,140,150,150,-90,-95,-95,,180,190,200,200,,DQ,SBD,23.5-38.5
Euan Lees,M,Raw,72.4,74,M-C-Open,-140,140,152.5,152.5,-105,-110,-110,,180,192.5,-200,192.5,,DQ,SBD,23.5-38.5
Lee McNeil,M,Raw,82.7,83,M-C-Open,180,190,-200,190,130,135,137.5,137.5,230,240,-245,240,567.5,1,SBD,0-22.5
James Doyle,M,Raw,79.3,83,M-C-Open,190,200,-205,200,120,125,130,130,200,215,230,230,560,2,SBD,23.5-38.5
Bobby Lee Coates,M,Raw,82.3,83,M-C-Open,180,190,195,195,-115,115,-122.5,115,200,215,222.5,222.5,532.5,3,SBD,23.5-38.5
Alexander Fitton,M,Raw,77.2,83,M-C-Open,165,180,190,190,105,-110,-110,105,200,220,225,225,520,4,SBD,23.5-38.5
Jon Howard,M,Raw,80.2,83,M-C-Open,160,180,190,190,120,125,130,130,180,190,200,200,520,5,SBD,23.5-38.5
David Clifford,M,Raw,81.8,83,M-C-Open,150,165,175,175,110,-117.5,-117.5,110,220,230,-240,230,515,6,SBD,39.5-48.5
Nathan Parkinson,M,Raw,81,83,M-C-Open,150,160,-165,160,100,105,110,110,190,-200,-200,190,460,7,SBD,0-22.5
Adam Esa,M,Raw,76.7,83,M-C-Open,140,150,160,160,90,97.5,-105,97.5,-180,180,-200,180,437.5,8,SBD,0-22.5
Gary Lovett,M,Raw,81.9,83,M-C-G,140,-150,152.5,152.5,115,120,-122.5,120,190,202.5,205,205,477.5,G,SBD,39.5-48.5
Chris Graham,M,Raw,93,93,M-C-Open,200,210,-215,210,135,140,145,145,280,297.5,310,310,665,1,SBD,0-22.5
Haydn Crook,M,Raw,92.9,93,M-C-Open,225,235,241,241,150,155,160,160,250,-260,-260,250,651,2,SBD,0-22.5
Carl Robinson,M,Raw,91.2,93,M-C-Open,200,210,220,220,110,130,,130,230,250,265,265,615,3,SBD,23.5-38.5
Ian Shaw,M,Raw,89.7,93,M-C-Open,200,210,-220,210,120,125,-127.5,125,250,270,,270,605,4,SBD,23.5-38.5
James Cameron,M,Raw,92.2,93,M-C-Open,160,170,180,180,150,-155,-160,150,200,215,-230,215,545,5,SBD,23.5-38.5
Danny Lee,M,Raw,87.7,93,M-C-Open,-175,175,185,185,117.5,122.5,127.5,127.5,215,225,230,230,542.5,6,SBD,23.5-38.5
Paul Constantine,M,Raw,91.5,93,M-C-Open,170,180,190,190,125,-132.5,132.5,132.5,190,202.5,-212.5,202.5,525,7,SBD,23.5-38.5
Ewan Cunliffe,M,Raw,91.5,93,M-C-Open,180,-200,-200,180,-120,130,-145,130,180,200,-235,200,510,8,SBD,0-22.5
Matthew Kelly,M,Raw,90.2,93,M-C-Open,155,165,172.5,172.5,100,-110,-115,100,190,205,-220,205,477.5,9,SBD,23.5-38.5
Daniel Bland,M,Raw,90.3,93,M-C-Open,-145,145,155,155,95,100,105,105,170,-175,175,175,435,10,SBD,23.5-38.5
Joe Thomas,M,Raw,89.1,93,M-C-Open,-140,147.5,-155,147.5,90,100,-105,100,160,170,180,180,427.5,11,SBD,0-17.5
Arran Sullivan,M,Raw,93,93,M-C-Open,-205,-205,-205,,130,137.5,-145,137.5,220,230,235,235,,DQ,SBD,23.5-38.5
Tom Martin #1,M,Raw,96.5,105,M-C-G,250,260,270,270,162.5,170,,170,330,,351,351,791,G,SBD,23.5-38.5
Stephen Manuel,M,Raw,101.8,105,M-C-G,270,285,292.5,292.5,180,187.5,-192.5,187.5,290,-310,,290,770,G,SBD,23.5-38.5
