Place,Name,Division,BodyweightKg,Squat1Kg,Squat2Kg,Squat3Kg,Best3SquatKg,Bench1Kg,Bench2Kg,Bench3Kg,Best3BenchKg,Deadlift1Kg,Deadlift2Kg,Deadlift3Kg,Best3DeadliftKg,TotalKg,WeightClassKg,Sex,CyrillicName,BirthYear,Tested,Equipment,Event
1,Yuliya Vakhterova,Open,47.6,120,125,132.5,132.5,57.5,60,62.5,62.5,125,130,135,135,330,48,F,Юлия Вахтерова,1980,Yes,Wraps,SBD
1,Lyubov Vanyukhina,Juniors 20-23,66.7,-100,110,115,115,45,47.5,50,50,117.5,122.5,-127.5,122.5,287.5,67.5,F,Любовь Ванюхина,1991,Yes,Wraps,SBD
1,Lyubov Vanyukhina,Open,66.7,-100,110,115,115,45,47.5,50,50,117.5,122.5,-127.5,122.5,287.5,67.5,F,Любовь Ванюхина,1991,Yes,Wraps,SBD
2,Aleksandra Khizrieva,Open,65,75,80,87.5,87.5,47.5,50,-52.5,50,85,90,97.5,97.5,235,67.5,F,Александра Хизриева,1990,Yes,Wraps,SBD
1,Natalya Aksenova,Masters 40-44,69,85,95,100,100,-47.5,52.5,-55,52.5,85,95,105,105,257.5,75,F,Наталья Аксенова,1972,Yes,Wraps,SBD
1,Petr Ushakov,Juniors 20-23,59.6,185,200,-210,200,120,-127.5,-127.5,120,200,220,-225,220,540,60,M,Петр Ушаков,1992,Yes,Wraps,SBD
DQ,Artem Solomkin,Teen 18-19,60.1,100,110,120,120,90,-115,-115,90,-130,-130,-130,,,67.5,M,Артем Соломкин,1996,Yes,Wraps,SBD
1,Andrey Novobranets,Juniors 20-23,66.4,150,157.5,170,170,100,-102.5,-105,100,150,165,182.5,182.5,452.5,67.5,M,Андрей Новобранец,1994,Yes,Wraps,SBD
1,Aleksandr Golubkin,Teen 13-15,74,-95,95,-105,95,60,-65,-65,60,130,140,150,150,305,75,M,Александр Голубкин,1999,Yes,Wraps,SBD
1,Nikita Vyshinskiy,Teen 16-17,73.1,145,-155,155,155,90,95,-100,95,140,150,160,160,410,75,M,Никита Вышинский,1997,Yes,Wraps,SBD
2,Andrey Zakirov,Teen 16-17,74.8,130,135,-140,135,110,-117.5,-117.5,110,137.5,142.5,150,150,395,75,M,Андрей Закиров,1998,Yes,Wraps,SBD
1,Vadim Bogdanov,Juniors 20-23,73.1,130,140,-155,140,95,100,110,110,135,145,155,155,405,75,M,Вадим Богданов,1993,Yes,Wraps,SBD
1,Denis Urmanov,Open,74.6,240,255,270,270,132.5,140,-145,140,245,-265,,245,655,75,M,Денис Урманов,1980,Yes,Wraps,SBD
1,Anton Filimonov,Teen 16-17,78,140,-150,160,160,95,100,-102.5,100,145,155,165,165,425,82.5,M,Антон Филимонов,1998,Yes,Wraps,SBD
1,Vadim Krolovetskiy,Juniors 20-23,81.3,-230,230,,230,140,-155,-155,140,210,225,235,235,605,82.5,M,Вадим Кроловецкий,1993,Yes,Wraps,SBD
2,Sergey Podyachev,Juniors 20-23,81.4,180,200,-210,200,110,-120,-120,110,180,-195,-195,180,490,82.5,M,Сергей Подъячев,1992,Yes,Wraps,SBD
1,Vadim Krolovetskiy,Open,81.3,-230,230,,230,145,-155,-155,145,210,225,235,235,610,82.5,M,Вадим Кроловецкий,1993,Yes,Wraps,SBD
2,Stanislav Stepanov,Open,82.1,185,200,210,210,127.5,-132.5,132.5,132.5,220,-230,230,230,572.5,82.5,M,Станислав Степанов,1985,Yes,Wraps,SBD
1,Andrey Kuznetsov,Teen 18-19,82.9,-140,140,-155,140,-120,130,-137.5,130,160,180,190,190,460,90,M,Андрей Кузнецов,1996,Yes,Wraps,SBD
1,Vladyslav Babarykin,Juniors 20-23,89.8,200,210,220,220,130,140,145,145,200,220,230,230,595,90,M,Владислав Бабарикін,1992,Yes,Wraps,SBD
1,Aleksey Shkarin,Open,89.2,245,260,-275,260,142.5,-150,-150,142.5,-240,240,255,255,657.5,90,M,Алексей Шкарин,1982,Yes,Wraps,SBD
2,Oleg Tyurkaev,Open,88.6,-150,-150,150,150,120,-125,-125,120,150,165,180,180,450,90,M,Олег Тюркаев,1985,Yes,Wraps,SBD
1,Aleksey Lukyanets,Teen 16-17,93.6,-170,-170,170,170,125,130,-135,130,200,210,220,220,520,100,M,Алексей Лукьянец,1997,Yes,Wraps,SBD
1,Pavel Ryzhov,Teen 18-19,94.6,220,235,250,250,150,160,-165,160,190,205,-215,205,615,100,M,Павел Рыжов,1995,Yes,Wraps,SBD
1,Pavel Ryzhov,Open,94.6,220,235,250,250,150,160,-165,160,190,205,-215,205,615,100,M,Павел Рыжов,1995,Yes,Wraps,SBD
2,Valentin Panchuk,Open,95.8,160,180,192.5,192.5,130,140,-145,140,200,210,215,215,547.5,100,M,Валентин Панчук,1982,Yes,Wraps,SBD
1,Valeriy Yakovlev,Open,107.1,210,225,240,240,155,167.5,172.5,172.5,220,-247.5,262.5,262.5,675,110,M,Валерий Яковлев,1980,Yes,Wraps,SBD
1,Alina Misaylova,Open,52,-80,90,100,100,67.5,-70,-72.5,67.5,100,-110,115,115,282.5,52,F,Алина Мисайлова,1988,No,Wraps,SBD
1,Elena Koshevar,Open,59.9,100,-110,110,110,60,67.5,-70,67.5,110,122.5,-127.5,122.5,300,60,F,Елена Кошевар,1986,No,Wraps,SBD
1,Konstantin Semenov,Open,73.1,165,172.5,180,180,122.5,127.5,,127.5,200,210,217.5,217.5,525,75,M,Константин Семенов,1964,No,Wraps,SBD
1,Konstantin Semenov,Masters 50-54,73.1,165,172.5,180,180,122.5,127.5,,127.5,200,210,217.5,217.5,525,75,M,Константин Семенов,1964,No,Wraps,SBD
1,Ivan Troyanov,Open,82,230,-245,-245,230,165,175,185,185,240,250,260,260,675,82.5,M,Иван Троянов,1987,No,Wraps,SBD
2,Evgeniy Kozhin,Open,82.2,-190,190,-210,190,-130,130,-140,130,240,-250,-255,240,560,82.5,M,Евгений Кожин,1984,No,Wraps,SBD
1,Aleksandr Smirnov,Open,96.2,240,250,260,260,180,-190,190,190,260,-270,275,275,725,100,M,Александр Смирнов,1987,No,Wraps,SBD
2,Oleg Kazakov,Open,96,-220,230,250,250,140,150,-160,150,200,210,237.5,237.5,637.5,100,M,Олег Казаков,1985,No,Wraps,SBD
1,Artem Ivanov,Juniors 20-23,105.3,-190,190,-210,190,-140,150,155,155,220,230,240,240,585,110,M,Артем Иванов,1993,No,Wraps,SBD
2,Kim Kravets,Juniors 20-23,106.1,-195,-195,195,195,-100,100,110,110,190,210,225,225,530,110,M,Ким Кравец,1992,No,Wraps,SBD
1,Ivan Arkhipov,Open,119.5,-260,260,280,280,170,177.5,182.5,182.5,255,265,275,275,737.5,125,M,Иван Архипов,1982,No,Wraps,SBD
1,Anastasiya Bylkova,Open,50.2,105,110,115,115,37.5,-42.5,42.5,42.5,105,-115,117.5,117.5,275,52,F,Анастасия Былкова,1985,Yes,Multi-ply,SBD
1,Nikita Ignatyev,Teen 18-19,79.6,170,180,-200,180,70,-85,-90,70,155,170,-185,170,420,82.5,M,Никита Игнатьев,1996,Yes,Multi-ply,SBD
1,Petr Zolotuev,Juniors 20-23,76.1,-180,180,-190,180,100,-107.5,,100,200,220,-230,220,500,82.5,M,Петр Золотуев,1992,Yes,Multi-ply,SBD
1,Pavel Murychev,Open,82.2,220,230,-240,230,160,-167.5,-167.5,160,220,-235,-235,220,610,82.5,M,Павел Мурычев,1989,Yes,Multi-ply,SBD
2,Evgeniy Vdovin,Open,81.2,175,-185,185,185,-130,-130,130,130,180,190,-195,190,505,82.5,M,Евгений Вдовин,1979,Yes,Multi-ply,SBD
1,Denis Yakimets,Open,98.3,270,-285,-292.5,270,-170,170,-180,170,225,240,250,250,690,100,M,Денис Якимец,1985,Yes,Multi-ply,SBD
1,Oleg Solonenko,Open,73.8,-180,180,-200,180,-130,130,140,140,180,200,,200,520,75,M,Олег Солоненко,1970,No,Single-ply,SBD
1,Oleg Solonenko,Masters 40-44,73.8,-180,180,-200,180,-130,130,140,140,180,200,,200,520,75,M,Олег Солоненко,1970,No,Single-ply,SBD
1,Kirill Yagodin,Juniors 20-23,89,285,305,,305,210,222.5,-232.5,222.5,260,280,-290,280,807.5,90,M,Кирилл Ягодин,1992,No,Single-ply,SBD
1,Egor Musienko,Juniors 20-23,100,-350,-350,365,365,-160,160,-205,160,320,350,-360,350,875,100,M,Егор Мусиенко,1993,No,Single-ply,SBD
1,Egor Musienko,Open,100,-350,-350,365,365,-160,160,-205,160,320,350,-360,350,875,100,M,Егор Мусиенко,1993,No,Single-ply,SBD
2,Igor Gavrilyan,Open,93.9,240,-260,-270,240,150,160,170,170,240,260,270,270,680,100,M,Игорь Гаврильян,1979,No,Single-ply,SBD
1,Anastasiya Bylkova,Open,50.2,,,,,37.5,42.5,45,45,,,,,45,52,F,Анастасия Былкова,1985,Yes,Raw,B
DQ,Mila Varfolomeeva,Open,58.9,,,,,-55,-55,-55,,,,,,,60,F,Мила Варфоломеева,1990,Yes,Raw,B
1,Olga Fomina,Open,66,,,,,67.5,72.5,-75,72.5,,,,,72.5,67.5,F,Ольга Фомина,1980,Yes,Raw,B
1,Alena Vasyukhno,Open,93.5,,,,,50,-52.5,52.5,52.5,,,,,52.5,100,F,Алена Васюхно,1990,Yes,Raw,B
1,Aleksey Veshkurtsev,Open,50.8,,,,,82.5,87.5,-92.5,87.5,,,,,87.5,52,M,Алексей Вешкурцев,1981,Yes,Raw,B
1,Arseniy Rogozin,Teen 13-15,59.8,,,,,100,105,110,110,,,,,110,60,M,Арсений Рогозин,1999,Yes,Raw,B
1,Daniil Moseev,Teen 13-15,62.4,,,,,65,70,-75,70,,,,,70,67.5,M,Даниил Мосеев,2000,Yes,Raw,B
1,Nikolay Rachuk,Teen 16-17,67,,,,,90,-100,-100,90,,,,,90,67.5,M,Николай Рачук,1999,Yes,Raw,B
DQ,Artur Gazizullin,Teen 16-17,63.4,,,,,-97.5,-97.5,-97.5,,,,,,,67.5,M,Артур Газизуллин,1997,Yes,Raw,B
1,Aleksandr Maschenko,Teen 18-19,64.5,,,,,115,-125,-125,115,,,,,115,67.5,M,Александр Мащенко,1996,Yes,Raw,B
1,Vladislav Veselkov,Juniors 20-23,65,,,,,100,107.5,,107.5,,,,,107.5,67.5,M,Владислав Веселков,1994,Yes,Raw,B
DQ,Denis Zherebtsov,Juniors 20-23,66.2,,,,,-90,-90,-90,,,,,,,67.5,M,Денис Жеребцов,1994,Yes,Raw,B
1,Andrey Zakirov,Teen 16-17,74.8,,,,,110,,,110,,,,,110,75,M,Андрей Закиров,1998,Yes,Raw,B
2,Viktor Misyutinskiy,Teen 16-17,70.8,,,,,95,100,-105,100,,,,,100,75,M,Віктор Місютинський,1999,Yes,Raw,B
1,Ayrat Rakhmatulin,Juniors 20-23,73.1,,,,,-115,117.5,120,120,,,,,120,75,M,Айрат Рахматулин,1994,Yes,Raw,B
DQ,Anil Abbasov,Juniors 20-23,72.9,,,,,-97.5,-97.5,-97.5,,,,,,,75,M,Анил Аббасов,1993,Yes,Raw,B
DQ,Roman Gritsenko,Juniors 20-23,73.8,,,,,-117.5,-117.5,-117.5,,,,,,,75,M,Роман Гриценко,1991,Yes,Raw,B
1,Roman Kim,Open,74.6,,,,,145,-155,-155,145,,,,,145,75,M,Роман Ким,1980,Yes,Raw,B
2,Sergey Bogoyavlenskiy,Open,73.6,,,,,125,127.5,-135,127.5,,,,,127.5,75,M,Сергей Богоявленский,1984,Yes,Raw,B
3,Ivan Blokhin,Open,74.6,,,,,125,-135,-135,125,,,,,125,75,M,Иван Блохин,1982,Yes,Raw,B
1,Ivan Levchenko,Open,76.6,,,,,140,145,152.5,152.5,,,,,152.5,82.5,M,Иван Левченко,1989,Yes,Raw,B
2,Artem Tikhonkikh,Open,81.5,,,,,-135,145,150,150,,,,,150,82.5,M,Артем Тихоньких,1986,Yes,Raw,B
3,Roman Larioshin,Open,81.4,,,,,137.5,145,-152.5,145,,,,,145,82.5,M,Роман Лариошин,1987,Yes,Raw,B
4,Maksim Kazantsev,Open,80.9,,,,,127.5,-135,-135,127.5,,,,,127.5,82.5,M,Максим Казанцев,1989,Yes,Raw,B
5,Maksim Abrosimov,Open,81.2,,,,,112.5,-127.5,-127.5,112.5,,,,,112.5,82.5,M,Максим Абросимов,1982,Yes,Raw,B
DQ,Roman Zvonkov,Open,81.8,,,,,-130,-130,-130,,,,,,,82.5,M,Роман Звонков,1982,Yes,Raw,B
1,Mikhail Makhnovskiy,Teen 18-19,88.5,,,,,142.5,-152.5,-152.5,142.5,,,,,142.5,90,M,Михаил Махновский,1995,Yes,Raw,B
1,Vladyslav Babarykin,Juniors 20-23,89.8,,,,,130,140,145,145,,,,,145,90,M,Владислав Бабарикін,1992,Yes,Raw,B
2,Dmitriy Popov,Juniors 20-23,88.7,,,,,132.5,137.5,-140,137.5,,,,,137.5,90,M,Дмитрий Попов,1992,Yes,Raw,B
1,Aleksandr Parfiryev,Open,87.1,,,,,165,-175,175,175,,,,,175,90,M,Александр Парфирьев,1979,Yes,Raw,B
2,Ruslan Kolesov,Open,85.4,,,,,147.5,152.5,-155,152.5,,,,,152.5,90,M,Руслан Колесов,1987,Yes,Raw,B
3,Dmitriy Gumirov,Open,88.7,,,,,142.5,147.5,-152.5,147.5,,,,,147.5,90,M,Дмитрий Гумиров,1978,Yes,Raw,B
4,Dmitriy Titov,Open,89.3,,,,,125,-130,-132.5,125,,,,,125,90,M,Дмитрий Титов,1984,Yes,Raw,B
5,Nikolay Maryshev,Open,88.4,,,,,40,45,50,50,,,,,50,90,M,Николай Марышев,1989,Yes,Raw,B
DQ,Yuriy Dolgov,Open,85.1,,,,,-145,-145,-145,,,,,,,90,M,Юрий Долгов,1986,Yes,Raw,B
1,Oleg Leskov,Masters 40-44,89.4,,,,,-140,140,145,145,,,,,145,90,M,Олег Лесков,1973,Yes,Raw,B
2,Aleksey Schekin,Masters 40-44,88,,,,,-132.5,132.5,135,135,,,,,135,90,M,Алексей Щекин,1974,Yes,Raw,B
1,Pavel Ryzhov,Teen 18-19,94.6,,,,,160,,,160,,,,,160,100,M,Павел Рыжов,1995,Yes,Raw,B
1,Dmitriy Gritsaenko,Open,97,,,,,157.5,162.5,165,165,,,,,165,100,M,Дмитрий Грицаенко,1979,Yes,Raw,B
2,Pavel Ryzhov,Open,94.6,,,,,160,,,160,,,,,160,100,M,Павел Рыжов,1995,Yes,Raw,B
3,Valentin Panchuk,Open,95.8,,,,,130,140,,140,,,,,140,100,M,Валентин Панчук,1982,Yes,Raw,B
DQ,Oleg Yaupov,Open,96.6,,,,,-170,-170,-170,,,,,,,100,M,Олег Яупов,1980,Yes,Raw,B
1,Konstantin Kolosov,Masters 50-54,99.3,,,,,135,145,155,155,,,,,155,100,M,Константин Колосов,1960,Yes,Raw,B
1,Valeriy Yakovlev,Open,107.1,,,,,155,167.5,172.5,172.5,,,,,172.5,110,M,Валерий Яковлев,1980,Yes,Raw,B
2,Aleksandr Moseev,Open,108.2,,,,,140,147.5,-150,147.5,,,,,147.5,110,M,Александр Мосеев,1975,Yes,Raw,B
1,Alina Misaylova,Open,52,,,,,70,-75,-75,70,,,,,70,52,F,Алина Мисайлова,1988,No,Raw,B
1,Natalya Romanovich,Masters 45-49,56,,,,,80,-85,-85,80,,,,,80,56,F,Наталья Романович,1969,No,Raw,B
1,Olga Baklykova,Masters 50-54,74.7,,,,,105,110,112.5,112.5,,,,,112.5,75,F,Ольга Баклыкова,1964,No,Raw,B
1,Oleg Solonenko,Open,73.8,,,,,120,-130,130,130,,,,,130,75,M,Олег Солоненко,1970,No,Raw,B
2,Konstantin Semenov,Open,73.1,,,,,127.5,,,127.5,,,,,127.5,75,M,Константин Семенов,1964,No,Raw,B
1,Oleg Solonenko,Masters 40-44,73.8,,,,,120,-130,130,130,,,,,130,75,M,Олег Солоненко,1970,No,Raw,B
1,Konstantin Semenov,Masters 50-54,73.1,,,,,127.5,,,127.5,,,,,127.5,75,M,Константин Семенов,1964,No,Raw,B
1,Vladimir Im,Open,82.5,,,,,185,190,-197.5,190,,,,,190,82.5,M,Владимир Им,1987,No,Raw,B
2,Sergey Fedorov,Open,79.4,,,,,140,152.5,160,160,,,,,160,82.5,M,Сергей Федоров,1962,No,Raw,B
1,Sergey Fedorov,Masters 50-54,79.4,,,,,140,152.5,160,160,,,,,160,82.5,M,Сергей Федоров,1962,No,Raw,B
1,Sergey Aksenov,Teen 18-19,87.1,,,,,110,120,-135,120,,,,,120,90,M,Сергей Аксенов,1996,No,Raw,B
1,Dmitriy Stasenko,Juniors 20-23,89.9,,,,,160,-167.5,-167.5,160,,,,,160,90,M,Дмитрий Стасенко,1991,No,Raw,B
1,Vladislav Skuratov,Open,90,,,,,-157.5,157.5,-165,157.5,,,,,157.5,90,M,Владислав Скуратов,1989,No,Raw,B
1,Vitaliy Misyutynskyy,Masters 45-49,89.3,,,,,130,140,145,145,,,,,145,90,M,Віталій Місютинський,1967,No,Raw,B
1,Igor Shamro,Open,92.1,,,,,150,165,175,175,,,,,175,100,M,Игорь Шамро,1984,No,Raw,B
1,Aleksandr Lezin,Open,105.9,,,,,150,160,170,170,,,,,170,110,M,Александр Лёзин,1970,No,Raw,B
DQ,Sergey Vasilyev,Open,109.7,,,,,-197.5,-197.5,-197.5,,,,,,,110,M,Сергей Васильев,1982,No,Raw,B
1,Aleksandr Lezin,Masters 40-44,105.9,,,,,150,160,170,170,,,,,170,110,M,Александр Лёзин,1970,No,Raw,B
1,Aleksandr Kazak,Open,121.2,,,,,175,185,-195,185,,,,,185,125,M,Александр Казак,1978,No,Raw,B
2,Oleg Rekun,Open,123.7,,,,,160,170,-180,170,,,,,170,125,M,Олег Рекун,1969,No,Raw,B
1,Oleg Rekun,Masters 45-49,123.7,,,,,160,170,-180,170,,,,,170,125,M,Олег Рекун,1969,No,Raw,B
1,Mariya Serdyuchenko,Juniors 20-23,56,,,,,62.5,-67.5,-67.5,62.5,,,,,62.5,56,F,Мария Сердюченко,1992,Yes,Single-ply,B
1,Evgeniy Vdovin,Open,81.2,,,,,130,,,130,,,,,130,82.5,M,Евгений Вдовин,1979,Yes,Single-ply,B
1,Vyacheslav Ten,Open,98.9,,,,,180,190,200,200,,,,,200,100,M,Вячеслав Тен,1987,Yes,Single-ply,B
2,Mikhail Bogdanov,Open,91.2,,,,,-185,192.5,197.5,197.5,,,,,197.5,100,M,Михаил Богданов,1984,Yes,Single-ply,B
1,Oleg Solonenko,Open,73.8,,,,,150,,,150,,,,,150,75,M,Олег Солоненко,1970,No,Single-ply,B
1,Oleg Solonenko,Masters 40-44,73.8,,,,,150,,,150,,,,,150,75,M,Олег Солоненко,1970,No,Single-ply,B
1,Andrey Elenskiy,Masters 40-44,81.3,,,,,-145,-145,145,145,,,,,145,82.5,M,Андрей Еленский,1972,No,Single-ply,B
1,Kirill Yagodin,Juniors 20-23,89,,,,,222.5,,,222.5,,,,,222.5,90,M,Кирилл Ягодин,1992,No,Single-ply,B
1,Mikhail Modlin,Open,95.5,,,,,140,150,160,160,,,,,160,100,M,Михаил Модлин,1982,No,Single-ply,B
1,Denis Murin,Open,109.8,,,,,-265,265,-275,265,,,,,265,110,M,Денис Мурин,1979,No,Single-ply,B
DQ,Viktor Mikhalev,Open,107.3,,,,,-200,-200,-200,,,,,,,110,M,Виктор Михалев,1986,No,Single-ply,B
DQ,Andrey Novikov,Open,108.8,,,,,-250,-250,-250,,,,,,,110,M,Андрей Новиков,1978,No,Single-ply,B
DQ,Valentin Dedyulia,Open,119.8,,,,,-285,-290,-290,,,,,,,125,M,Валентин Дедюля,1977,No,Single-ply,B
1,Darya Gaydash,Juniors 20-23,43.4,,,,,,,,,-75,85,87.5,87.5,87.5,44,F,Дарья Гайдаш,1992,Yes,Raw,D
1,Anastasiya Bylkova,Open,50.2,,,,,,,,,85,95,105,105,105,52,F,Анастасия Былкова,1985,Yes,Raw,D
1,Mariya Serdyuchenko,Juniors 20-23,56,,,,,,,,,102.5,112.5,117.5,117.5,117.5,56,F,Мария Сердюченко,1992,Yes,Raw,D
1,Mariya Serdyuchenko,Open,56,,,,,,,,,102.5,112.5,117.5,117.5,117.5,56,F,Мария Сердюченко,1992,Yes,Raw,D
1,Lyubov Vanyukhina,Juniors 20-23,66.7,,,,,,,,,122.5,,,122.5,122.5,67.5,F,Любовь Ванюхина,1991,Yes,Raw,D
1,Lyubov Vanyukhina,Open,66.7,,,,,,,,,122.5,,,122.5,122.5,67.5,F,Любовь Ванюхина,1991,Yes,Raw,D
1,Alena Vasyukhno,Open,93.5,,,,,,,,,85,-90,-90,85,85,100,F,Алена Васюхно,1990,Yes,Raw,D
1,Aleksey Veshkurtsev,Open,50.8,,,,,,,,,152.5,157.5,-162.5,157.5,157.5,52,M,Алексей Вешкурцев,1981,Yes,Raw,D
1,Maksim Groshev,Open,54.3,,,,,,,,,162.5,-167.5,167.5,167.5,167.5,56,M,Максим Грошев,1985,Yes,Raw,D
1,Arseniy Rogozin,Teen 13-15,59.8,,,,,,,,,130,145,155,155,155,60,M,Арсений Рогозин,1999,Yes,Raw,D
1,Danil Fedoseev,Teen 16-17,66.1,,,,,,,,,145,165,-190,165,165,67.5,M,Данил Федосеев,1998,Yes,Raw,D
2,Anatoliy Kletchenko,Teen 16-17,65.2,,,,,,,,,-155,155,-165,155,155,67.5,M,Анатолий Клетченко,1997,Yes,Raw,D
3,Nikolay Rachuk,Teen 16-17,67,,,,,,,,,115,120,125,125,125,67.5,M,Николай Рачук,1999,Yes,Raw,D
1,Maksim Vasiltsov,Juniors 20-23,66.1,,,,,,,,,155,-165,-165,155,155,67.5,M,Максим Васильцов,1994,Yes,Raw,D
1,Andrey Zakirov,Teen 16-17,74.8,,,,,,,,,150,,,150,150,75,M,Андрей Закиров,1998,Yes,Raw,D
1,Aleksandr Novikov,Juniors 20-23,73.5,,,,,,,,,170,180,192.5,192.5,192.5,75,M,Александр Новиков,1992,Yes,Raw,D
2,Maksim Rybakov,Juniors 20-23,72,,,,,,,,,155,165,177.5,177.5,177.5,75,M,Максим Рыбаков,1994,Yes,Raw,D
1,Denis Urmanov,Open,74.6,,,,,,,,,245,,,245,245,75,M,Денис Урманов,1980,Yes,Raw,D
2,Stanislav Ashevskiy,Open,70.6,,,,,,,,,165,185,-202.5,185,185,75,M,Станислав Ашевский,1990,Yes,Raw,D
1,Petr Zolotuev,Juniors 20-23,76.1,,,,,,,,,190,200,215,215,215,82.5,M,Петр Золотуев,1992,Yes,Raw,D
2,Roman Zaytsev,Juniors 20-23,80.1,,,,,,,,,150,177.5,185,185,185,82.5,M,Роман Зайцев,1994,Yes,Raw,D
3,Sergey Podyachev,Juniors 20-23,81.4,,,,,,,,,180,,,180,180,82.5,M,Сергей Подъячев,1992,Yes,Raw,D
1,Ivan Levchenko,Open,76.6,,,,,,,,,-230,230,-245,230,230,82.5,M,Иван Левченко,1989,Yes,Raw,D
2,Stanislav Stepanov,Open,82.1,,,,,,,,,230,,,230,230,82.5,M,Станислав Степанов,1985,Yes,Raw,D
1,Vladyslav Babarykin,Juniors 20-23,89.8,,,,,,,,,230,,,230,230,90,M,Владислав Бабарикін,1992,Yes,Raw,D
2,Dmitriy Popov,Juniors 20-23,88.7,,,,,,,,,200,210,-215,210,210,90,M,Дмитрий Попов,1992,Yes,Raw,D
DQ,Aleksey Solovyev,Juniors 20-23,86.1,,,,,,,,,-155,,,,,90,M,Алексей Соловьев,1992,Yes,Raw,D
1,Eduard Dolgopolov,Open,88.5,,,,,,,,,210,222.5,230,230,230,90,M,Эдуард Долгополов,1977,Yes,Raw,D
1,Aleksey Lukyanets,Teen 16-17,93.6,,,,,,,,,220,,,220,220,100,M,Алексей Лукьянец,1997,Yes,Raw,D
1,Andrey Vasilyev,Juniors 20-23,98.8,,,,,,,,,-215,232.5,-240,232.5,232.5,100,M,Андрей Васильев,1993,Yes,Raw,D
1,Maksim Vedischev,Open,96.4,,,,,,,,,280,295,302.5,302.5,302.5,100,M,Максим Ведищев,1978,Yes,Raw,D
2,Pavel Ivasenko,Open,99.3,,,,,,,,,240,-250,250,250,250,100,M,Павел Ивасенко,1987,Yes,Raw,D
3,Andrey Vasilyev,Open,98.8,,,,,,,,,-215,232.5,-240,232.5,232.5,100,M,Андрей Васильев,1993,Yes,Raw,D
4,Valentin Panchuk,Open,95.8,,,,,,,,,215,,,215,215,100,M,Валентин Панчук,1982,Yes,Raw,D
1,Valeriy Yakovlev,Open,107.1,,,,,,,,,262.5,,,262.5,262.5,110,M,Валерий Яковлев,1980,Yes,Raw,D
1,Alina Misaylova,Open,52,,,,,,,,,115,,,115,115,52,F,Алина Мисайлова,1988,No,Raw,D
1,Yuliya Dolgopolova,Open,53.2,,,,,,,,,45,55,60,60,60,56,F,Юлия Долгополова,1991,No,Raw,D
1,Konstantin Semenov,Open,73.1,,,,,,,,,217.5,,,217.5,217.5,75,M,Константин Семенов,1964,No,Raw,D
1,Oleg Solonenko,Masters 40-44,73.8,,,,,,,,,160,180,190,190,190,75,M,Олег Солоненко,1970,No,Raw,D
1,Konstantin Semenov,Masters 50-54,73.1,,,,,,,,,217.5,,,217.5,217.5,75,M,Константин Семенов,1964,No,Raw,D
1,Sergey Aksenov,Teen 18-19,87.1,,,,,,,,,240,265,-270,265,265,90,M,Сергей Аксенов,1996,No,Raw,D
1,Sergey Aksenov,Open,87.1,,,,,,,,,240,265,-270,265,265,90,M,Сергей Аксенов,1996,No,Raw,D
1,Oleg Rekun,Open,123.7,,,,,,,,,210,-220,230,230,230,125,M,Олег Рекун,1969,No,Raw,D
1,Oleg Rekun,Masters 45-49,123.7,,,,,,,,,210,-220,230,230,230,125,M,Олег Рекун,1969,No,Raw,D
1,Anastasiya Bylkova,Open,50.2,,,,,,,,,117.5,,,117.5,117.5,52,F,Анастасия Былкова,1985,Yes,Single-ply,D
1,Nikita Ignatyev,Teen 18-19,79.6,,,,,,,,,170,-180,-180,170,170,82.5,M,Никита Игнатьев,1996,Yes,Single-ply,D
1,Petr Zolotuev,Juniors 20-23,76.1,,,,,,,,,220,,,220,220,82.5,M,Петр Золотуев,1992,Yes,Single-ply,D
1,Evgeniy Vdovin,Open,81.2,,,,,,,,,190,,,190,190,82.5,M,Евгений Вдовин,1979,Yes,Single-ply,D
1,Oleg Solonenko,Open,73.8,,,,,,,,,200,,,200,200,75,M,Олег Солоненко,1970,No,Multi-ply,D
1,Oleg Solonenko,Masters 40-44,73.8,,,,,,,,,200,,,200,200,75,M,Олег Солоненко,1970,No,Multi-ply,D
1,Egor Musienko,Juniors 20-23,100,,,,,,,,,350,,,350,350,100,M,Егор Мусиенко,1993,No,Single-ply,D
1,Egor Musienko,Open,100,,,,,,,,,350,,,350,350,100,M,Егор Мусиенко,1993,No,Single-ply,D
2,Mikhail Modlin,Open,95.5,,,,,,,,,220,230,250,250,250,100,M,Михаил Модлин,1982,No,Multi-ply,D
