Place,Name,CyrillicName,WeightClassKg,Sex,Equipment,Tested,Event,BirthDate,Division,BodyweightKg,Squat1Kg,Squat2Kg,Squat3Kg,Best3SquatKg,Bench1Kg,Bench2Kg,Bench3Kg,Best3BenchKg,Deadlift1Kg,Deadlift2Kg,Deadlift3Kg,Best3DeadliftKg,TotalKg
1,Nikita Savelev,Никита Савельев,90,M,Single-ply,Yes,SBD,1997-04-22,Amateur Juniors 20-23,90,200,-220,220,220,180,-200,200,200,200,210,-220,210,630
1,Zhanna Alekseenko,Жанна Алексеенко,52,F,Wraps,Yes,SBD,1989-09-19,Amateur Open,50.6,-55,55,65,65,35,42.5,-45,42.5,60,70,80,80,187.5
1,Natalya Yarotskaya,Наталья Яроцкая,52,F,Wraps,Yes,SBD,1963-09-18,Amateur Masters 55-59,51.5,85,-90,-90,85,50,-52.5,52.5,52.5,95,100,-105,100,237.5
1,Marina Berg,Марина Берг,56,F,Wraps,Yes,SBD,1988-07-21,Amateur Open,55.9,-80,80,-90,80,40,45,-47.5,45,95,-105,-105,95,220
1,Olga Yumasheva,Ольга Юмашева,60,F,Wraps,Yes,SBD,1990-07-17,Amateur Open,59.5,95,-100,-100,95,55,-57.5,-57.5,55,100,110,120,120,270
1,Evgeniya Golikova,Евгения Голикова,67.5,F,Wraps,Yes,SBD,1991-01-29,Amateur Open,66.9,-110,-110,110,110,60,65,67.5,67.5,110,-117.5,117.5,117.5,295
2,Anastasiya Markovich,Анастасия Маркович,67.5,F,Wraps,Yes,SBD,1989-12-05,Amateur Open,66.5,65,70,75,75,35,40,45,45,75,82.5,87.5,87.5,207.5
1,Vladimir Isaev,Владимир Исаев,56,M,Wraps,Yes,SBD,2001-10-16,Amateur Teen 16-17,53.8,90,100,110,110,72.5,-77.5,-77.5,72.5,120,130,,130,312.5
1,Rostislav Eliashvili,Ростислав Элиашвили,67.5,M,Wraps,Yes,SBD,2002-12-10,Amateur Teen 16-17,62.1,60,70,85,85,50,65,75,75,65,80,90,90,250
1,Timur Alimov,Тимур Алимов,75,M,Wraps,Yes,SBD,2000-05-13,Amateur Teen 18-19,70.75,145,155,-165,155,110,115,120,120,170,-190,-205,170,445
1,Artem Adov,Артем Адов,75,M,Wraps,Yes,SBD,1987-09-02,Amateur Open,74.5,-145,145,150,150,100,105,-110,105,170,180,190,190,445
1,Georgiy Vershinin,Георгий Вершинин,82.5,M,Wraps,Yes,SBD,1988-12-23,Amateur Open,79.4,-210,215,225,225,155,165,170,170,240,260,265,265,660
2,Aleksey Bryukhov,Алексей Брюхов,82.5,M,Wraps,Yes,SBD,1987-07-24,Amateur Open,81.45,-130,130,140,140,105,110,115,115,160,170,180,180,435
1,Ivan Falaleev,Иван Фалалеев,90,M,Wraps,Yes,SBD,2001-04-28,Amateur Teen 16-17,89.8,105,115,125,125,85,95,-102.5,95,125,145,-152.5,145,365
1,Valentin Nikolaev,Валентин Николаев,100,M,Wraps,Yes,SBD,1999-04-26,Amateur Teen 18-19,100,-165,165,-175,165,140,145,147.5,147.5,180,200,-220,200,512.5
1,Ilya Antonov,Илья Антонов,100,M,Wraps,Yes,SBD,1987-04-20,Amateur Open,98.3,205,-215,-215,205,-150,150,157.5,157.5,240,-250,-250,240,602.5
2,Evgeniy Misyul,Евгений Мисюль,100,M,Wraps,Yes,SBD,1989-01-11,Amateur Open,99.8,180,185,-192.5,185,125,132.5,137.5,137.5,200,210,-220,210,532.5
1,Aleksandr Klepalchenko,Александр Клепальченко,100,M,Wraps,Yes,SBD,1944-02-09,Amateur Masters 75-79,97.6,110,120,125,125,75,80,85,85,-130,135,155,155,365
1,Aleksey Kovalenko,Алексей Коваленко,110,M,Wraps,Yes,SBD,1996-02-27,Amateur Open,108.6,190,200,210,210,160,170,175,175,240,255,-270,255,640
2,Roman Shimolin,Роман Шимолин,110,M,Wraps,Yes,SBD,1990-07-26,Amateur Open,103.4,-210,210,215,215,140,-145,145,145,260,-270,,260,620
3,Aleksey Pakhomov,Алексей Пахомов,110,M,Wraps,Yes,SBD,1991-08-06,Amateur Open,107.2,175,187.5,205,205,107.5,115,120,120,207.5,215,225,225,550
1,Vladimir Polivanov,Владимир Поливанов,125,M,Wraps,Yes,SBD,1963-01-20,Amateur Masters 55-59,122.8,-170,170,180,180,150,160,-167.5,160,240,-255,-255,240,580
1,Valentin Zaytsev,Валентин Зайцев,125,M,Single-ply,No,SBD,1992-05-20,Pro Open,123.1,235,245,-250,245,-170,175,180,180,250,267.5,,267.5,692.5
1,Aleksandr Ryabovolov,Александр Рябоволов,100,M,Single-ply,No,SBD,1989-01-23,Pro Open,95,260,280,-290,280,-210,210,230,230,260,-275,-275,260,770
1,Dmitriy Sklyarov,Дмитрий Скляров,82.5,M,Multi-ply,No,SBD,1981-10-07,Pro Open,81.8,260,-270,280,280,-175,175,-185,175,230,-240,-240,230,685
1,Chakhar Tumurbaatar,,75,M,Wraps,No,SBD,1974-03-07,Pro Masters 45-49,75,180,210,-217.5,210,145,-160,-160,145,160,200,-220,200,555
1,Maksim Shvarts,Максим Шварц,82.5,M,Wraps,No,SBD,1989-11-29,Pro Open,80.5,270,290,-310,290,140,150,-160,150,260,270,280,280,720
1,Amarzaya Taivantumur,,100,M,Wraps,No,SBD,1987-08-02,Pro Open,100,280,-300,-320,280,185,195,,195,230,240,,240,715
1,Anton Sekatskiy,Антон Секацкий,100,M,Wraps,No,SBD,1979-02-13,Pro Masters 40-44,97,-145,145,-155,145,90,100,105,105,-150,150,165,165,415
1,Vladislav Chigirov,Владислав Чигиров,100,M,Single-ply,No,SBD,1996-08-05,Pro Juniors 20-23,96,245,260,-270,260,-190,190,200,200,250,275,280,280,740
1,Vladislava Khoda,Владислава Хода,52,F,Raw,No,SBD,2002-05-26,Pro Teen 16-17,51.4,60,67.5,-72.5,67.5,35,37.5,40,40,90,100,-102.5,100,207.5
1,Larisa Krikun,Лариса Крикун,60,F,Raw,No,SBD,1974-10-13,Pro Masters 40-44,59.8,70,75,-80,75,50,-55,-55,50,95,105,-110,105,230
1,Vitaliy Tayban,Виталий Тайбан,75,M,Raw,No,SBD,2004-10-29,Pro Teen 13-15,71.8,85,95,105,105,-50,50,65,65,85,100,110,110,280
1,Vadim Solovev,Вадим Соловьев,90,M,Raw,No,SBD,2003-07-21,Pro Teen 13-15,89,160,172.5,175,175,100,110,-112.5,110,170,185,-195,185,470
1,Ivan Lemeshchenko,Иван Лемещенко,90,M,Raw,No,SBD,2001-05-11,Pro Teen 16-17,89.5,100,-115,115,115,70,-85,-85,70,100,115,130,130,315
1,Evgeniy Kuznetsov,Евгений Кузнецов,125,M,Raw,No,SBD,2002-03-04,Pro Teen 16-17,113.8,-100,100,112.5,112.5,90,92.5,97.5,97.5,130,140,-145,140,350
1,Kristina Komarevtseva,Кристина Комаревцева,48,F,Raw,Yes,B,1997-08-06,Amateur Juniors 20-23,46,,,,,25,30,-35,30,,,,,30
1,Viktoriya Skoromnova,Виктория Скоромнова,52,F,Raw,Yes,B,1993-05-20,Amateur Open,51,,,,,-50,50,-52.5,50,,,,,50
1,Serik Smagulov,Серик Смагулов,52,M,Raw,Yes,B,1988-08-01,Amateur Open,51.6,,,,,95,110,112.5,112.5,,,,,112.5
1,Dmitriy Sebelev,Дмитрий Себелев,56,M,Raw,Yes,B,2006-05-25,Amateur Teen 13-15,56,,,,,45,47.5,-52.5,47.5,,,,,47.5
1,Evgeniy Kuklin,Евгений Куклин,67.5,M,Raw,Yes,B,1981-12-16,Amateur Open,67.3,,,,,110,120,-125,120,,,,,120
2,Anatoliy Sibrenko,Анатолий Сибренко,67.5,M,Raw,Yes,B,1993-06-07,Amateur Open,65.8,,,,,-100,-100,107.5,107.5,,,,,107.5
3,Pavel Neshataev,Павел Нешатаев,67.5,M,Raw,Yes,B,1986-05-09,Amateur Open,66.4,,,,,-102.5,105,107.5,107.5,,,,,107.5
1,Daniyor Muzafarov,Даниёр Музафаров,75,M,Raw,Yes,B,2005-06-28,Amateur Teen 13-15,73.3,,,,,82.5,87.5,95,95,,,,,95
1,Konstantin Krymko,Константин Крымко,75,M,Raw,Yes,B,1983-04-26,Amateur Open,73.1,,,,,155,160,-162.5,160,,,,,160
2,Denis Kuklin,Денис Куклин,75,M,Raw,Yes,B,1989-09-06,Amateur Open,72.9,,,,,135,140,142.5,142.5,,,,,142.5
3,Ivan Terentev,Иван Терентьев,75,M,Raw,Yes,B,1992-03-23,Amateur Open,74.5,,,,,-125,125,-135,125,,,,,125
4,Igor Zapletnev,Игорь Заплетнев,75,M,Raw,Yes,B,1991-07-24,Amateur Open,73.5,,,,,110,115,-117.5,115,,,,,115
1,Konstantin Sidenkov,Константин Сиденков,75,M,Raw,Yes,B,1967-10-30,Amateur Masters 50-54,72.9,,,,,130,135,-140,135,,,,,135
1,Mikhail Rets,Михаил Рец,82.5,M,Raw,Yes,B,1981-06-13,Amateur Open,82,,,,,147.5,152.5,155,155,,,,,155
2,Leonid Vorobev,Леонид Воробьев,82.5,M,Raw,Yes,B,1984-10-22,Amateur Open,81.5,,,,,110,120,-127.5,120,,,,,120
1,Vladimir Gurov,Владимир Гуров,82.5,M,Raw,Yes,B,1964-09-09,Amateur Masters 50-54,80.6,,,,,112.5,-117.5,-117.5,112.5,,,,,112.5
1,Aleksandr Trofimov,Александр Трофимов,90,M,Raw,Yes,B,1992-10-22,Amateur Open,86.4,,,,,185,190,-195,190,,,,,190
2,Gleb Skotnikov,Глеб Скотников,90,M,Raw,Yes,B,1990-01-28,Amateur Open,87.8,,,,,120,130,-132.5,130,,,,,130
1,Sergey Voronets,Сергей Воронец,90,M,Raw,Yes,B,1971-10-16,Amateur Masters 45-49,89.5,,,,,160,167.5,172.5,172.5,,,,,172.5
1,Aleksandr Andrianov,Александр Андрианов,90,M,Raw,Yes,B,1944-09-04,Amateur Masters 70-74,89.1,,,,,125,130,135,135,,,,,135
1,Artyom Deev,Артём Деев,100,M,Raw,Yes,B,2003-06-23,Amateur Teen 13-15,94.7,,,,,80,85,90,90,,,,,90
1,Aleksandr Katiev,Александр Катиев,100,M,Raw,Yes,B,1976-03-27,Amateur Open,97.2,,,,,180,185,190,190,,,,,190
2,Egor Bakulin,Егор Бакулин,100,M,Raw,Yes,B,1994-05-03,Amateur Open,94.9,,,,,140,162.5,170,170,,,,,170
3,Petr Babin,Петр Бабин,100,M,Raw,Yes,B,1958-03-25,Amateur Open,96.2,,,,,160,165,-170,165,,,,,165
4,Nikita Demidenko,Никита Демиденко,100,M,Raw,Yes,B,1990-10-07,Amateur Open,97,,,,,160,165,-170,165,,,,,165
5,Konstantin Maltsev,Константин Мальцев,100,M,Raw,Yes,B,1989-05-18,Amateur Open,97.9,,,,,120,125,-130,125,,,,,125
6,Denis Galkin,Денис Галкин,100,M,Raw,Yes,B,1990-09-27,Amateur Open,100,,,,,125,-140,-140,125,,,,,125
1,Aleksandr Katiev,Александр Катиев,100,M,Raw,Yes,B,1976-03-27,Amateur Masters 40-44,97.2,,,,,180,185,190,190,,,,,190
1,Petr Babin,Петр Бабин,100,M,Raw,Yes,B,1958-03-25,Amateur Masters 60-64,96.2,,,,,160,165,-170,165,,,,,165
1,Aleksandr Gryaznov,Александр Грязнов,110,M,Raw,Yes,B,1975-06-08,Amateur Open,100.8,,,,,150,157.5,167.5,167.5,,,,,167.5
2,Mikhail Ovsyannikov,Михаил Овсянников,110,M,Raw,Yes,B,1985-02-23,Amateur Open,109.8,,,,,147.5,155,160,160,,,,,160
DQ,Aleksandr Akayomov,Александр Акаёмов,110,M,Raw,Yes,B,1960-03-05,Amateur Open,109.8,,,,,-180,-180,,,,,,,
1,Aleksandr Gryaznov,Александр Грязнов,110,M,Raw,Yes,B,1975-06-08,Amateur Masters 40-44,100.8,,,,,150,157.5,167.5,167.5,,,,,167.5
2,Vladislav Danchenko,Владислав Данченко,110,M,Raw,Yes,B,1974-08-20,Amateur Masters 40-44,109.3,,,,,-150,160,-167.5,160,,,,,160
1,Andrey Mazepa,Андрей Мазепа,110,M,Raw,Yes,B,1964-04-09,Amateur Masters 50-54,110,,,,,125,130,135,135,,,,,135
1,Sergey Slastikhin,Сергей Сластихин,110,M,Raw,Yes,B,1960-02-21,Amateur Masters 55-59,103,,,,,145,-150,-150,145,,,,,145
DQ,Aleksandr Akayomov,Александр Акаёмов,110,M,Raw,Yes,B,1960-03-05,Amateur Masters 55-59,109.8,,,,,-180,-180,,,,,,,
1,Nikita Yanushkin,Никита Янушкин,140,M,Raw,Yes,B,2002-04-15,Amateur Teen 16-17,127.6,,,,,132.5,142.5,147.5,147.5,,,,,147.5
1,Aleksey Silvanovich,Алексей Сильванович,140,M,Raw,Yes,B,1984-01-23,Amateur Open,132.7,,,,,200,-215,220,220,,,,,220
2,Dmitriy Stepanov,Дмитрий Степанов,140,M,Raw,Yes,B,1981-02-06,Amateur Open,125.3,,,,,-135,140,150,150,,,,,150
1,Roman Rogozhkin,Роман Рогожкин,82.5,M,Multi-ply,Yes,B,1997-01-09,Amateur Juniors 20-23,82,,,,,187.5,200,-202.5,200,,,,,200
1,Aleksandr Rasskazchikov,Александр Рассказчиков,82.5,M,Multi-ply,Yes,B,1963-12-26,Amateur Masters 55-59,82.5,,,,,135,140,145,145,,,,,145
1,Dmitriy Savchenko,Дмитрий Савченко,100,M,Multi-ply,Yes,B,1981-08-03,Amateur Open,97.5,,,,,230,252.5,-265,252.5,,,,,252.5
1,Elena Strukova,Елена Струкова,67.5,F,Raw,No,B,1973-07-11,Disabled Masters 45-49,65.3,,,,,65,67.5,-72.5,67.5,,,,,67.5
1,Andrey Odarchenko,Андрей Одарченко,60,M,Raw,No,B,2000-08-19,Disabled Teen 18-19,59.7,,,,,50,-57.5,-60,50,,,,,50
1,Nikolay Troshin,Николай Трошин,60,M,Raw,No,B,1990-10-11,Disabled Open,58.2,,,,,50,57.5,62.5,62.5,,,,,62.5
1,Artem Morozov,Артем Морозов,67.5,M,Raw,No,B,1991-06-11,Disabled Open,64.5,,,,,45,50,55,55,,,,,55
2,Konstantin Karpov,Константин Карпов,67.5,M,Raw,No,B,1988-04-26,Disabled Open,65,,,,,-55,55,-60,55,,,,,55
1,Ilya Morev,Илья Морев,75,M,Raw,No,B,2001-11-23,Disabled Teen 16-17,72,,,,,-50,50,55,55,,,,,55
1,Andrey Solodkin,Андрей Солодкин,75,M,Raw,No,B,1989-05-28,Disabled Open,71.2,,,,,100,105,-110,105,,,,,105
2,Rustam Baytulov,Рустам Байтулов,75,M,Raw,No,B,1983-08-20,Disabled Open,68,,,,,90,95,-100,95,,,,,95
1,Andrey Tolkachev,Андрей Толкачев,82.5,M,Raw,No,B,1993-08-05,Disabled Open,77.7,,,,,135,-137.5,137.5,137.5,,,,,137.5
2,Mikhail Nalivanskiy,Михаил Наливанский,82.5,M,Raw,No,B,1990-04-04,Disabled Open,78.5,,,,,100,110,-120,110,,,,,110
1,Vladimir Vizgin,Владимир Визгин,100,M,Raw,No,B,1952-04-25,Disabled Masters 65-69,93,,,,,120,125,130,130,,,,,130
1,Nikolay Lukyanchikov,Николай Лукьянчиков,125,M,Raw,No,B,1980-01-24,Disabled Open,117,,,,,85,90,95,95,,,,,95
1,Nadezhda Ponomareva,Надежда Пономарева,67.5,F,Multi-ply,No,B,1987-02-07,Pro Open,65,,,,,115,120,125,125,,,,,125
1,Rafael Martyanov,Рафаэль Мартьянов,75,M,Multi-ply,No,B,1987-09-03,Pro Open,74.3,,,,,230,250,260,260,,,,,260
1,Aleksandr Abramenko,Александр Абраменко,75,M,Multi-ply,No,B,1978-05-25,Pro Masters 40-44,74.8,,,,,170,190,-220,190,,,,,190
1,Artem Kozulin,Артем Козулин,82.5,M,Multi-ply,No,B,1999-04-16,Pro Teen 18-19,82.3,,,,,190,-205,-205,190,,,,,190
1,Artem Bykhovets,Артём Быховец,90,M,Multi-ply,No,B,1983-07-19,Pro Open,87.6,,,,,-290,-305.5,305.5,305.5,,,,,305.5
2,Sergey Zamaliev,Сергей Замалиев,90,M,Multi-ply,No,B,1977-11-15,Pro Open,89,,,,,270,290,-307.5,290,,,,,290
3,Dmitriy Yakovlev,Дмитрий Яковлев,90,M,Multi-ply,No,B,1992-02-10,Pro Open,89,,,,,-240,240,250,250,,,,,250
4,Aleksey Kleymanov,Алексей Клейманов,90,M,Multi-ply,No,B,1993-09-19,Pro Open,86.9,,,,,200,-220,-220,200,,,,,200
1,Sergey Zamaliev,Сергей Замалиев,90,M,Multi-ply,No,B,1977-11-15,Pro Masters 40-44,89,,,,,270,290,-307.5,290,,,,,290
1,Vitaliy Chernyavskiy,Виталий Чернявский,100,M,Multi-ply,No,B,1972-10-10,Pro Open,98.6,,,,,280,-315,,280,,,,,280
1,Vitaliy Chernyavskiy,Виталий Чернявский,100,M,Multi-ply,No,B,1972-10-10,Pro Masters 45-49,98.6,,,,,280,-315,,280,,,,,280
1,Vitaliy Bibikov,Виталий Бибиков,110,M,Multi-ply,No,B,1985-02-05,Pro Open,108.2,,,,,332.5,342.5,-350,342.5,,,,,342.5
2,Oleg Saydentsal,Олег Сайденцаль,110,M,Multi-ply,No,B,1975-03-14,Pro Open,105,,,,,327.5,-335,335,335,,,,,335
1,Oleg Saydentsal,Олег Сайденцаль,110,M,Multi-ply,No,B,1975-03-14,Pro Masters 40-44,105,,,,,327.5,-335,335,335,,,,,335
DQ,Andrey Khomenko,Андрей Хоменко,125,M,Multi-ply,No,B,1996-09-14,Pro Juniors 20-23,122,,,,,-260,-260,-270,-260,,,,,
1,Almira Khabibzyanova,Альмира Хабибзянова,52,F,Raw,No,B,1986-11-14,Pro Open,50.3,,,,,37.5,40,-42.5,40,,,,,40
1,Elena Lyakh,Елена Лях,56,F,Raw,No,B,1976-05-13,Pro Masters 40-44,55.4,,,,,62.5,65,67.5,67.5,,,,,67.5
1,Elena Belova,Елена Белова,56,F,Raw,No,B,1966-03-12,Pro Masters 50-54,56,,,,,40,50,-52.5,50,,,,,50
1,Dmitriy Levchuk,Дмитрий Левчук,75,M,Raw,No,B,1995-04-22,Pro Juniors 20-23,73.8,,,,,142.5,152.5,-162.5,152.5,,,,,152.5
1,Rafael Martyanov,Рафаэль Мартьянов,75,M,Raw,No,B,1987-09-03,Pro Open,74.32,,,,,175,180,-182.5,180,,,,,180
2,Aleksandr Abramenko,Александр Абраменко,75,M,Raw,No,B,1978-05-29,Pro Open,74.8,,,,,155,160,165,165,,,,,165
3,Dmitriy Levchuk,Дмитрий Левчук,75,M,Raw,No,B,1995-04-22,Pro Open,73.8,,,,,142.5,152.5,-162.5,152.5,,,,,152.5
4,Aleksey Vdovin,Алексей Вдовин,75,M,Raw,No,B,1994-09-28,Pro Open,75,,,,,110,120,-130,120,,,,,120
1,Aleksandr Abramenko,Александр Абраменко,75,M,Raw,No,B,1978-05-29,Pro Masters 40-44,74.8,,,,,155,160,165,165,,,,,165
1,Sergey Khoda,Сергей Хода,75,M,Raw,No,B,1967-08-10,Pro Masters 50-54,74.2,,,,,80,87.5,92.5,92.5,,,,,92.5
1,Eduard Vorobev,Эдуард Воробьев,90,M,Raw,No,B,2001-04-20,Pro Teen 16-17,85.8,,,,,100,115,-122.5,115,,,,,115
1,Sergey Zamaliev,Сергей Замалиев,90,M,Raw,No,B,1977-11-15,Pro Open,89,,,,,180,,,180,,,,,180
2,Munkh-Erdene Zundui,,90,M,Raw,No,B,1976-12-08,Pro Open,90,,,,,162.5,170,-175,170,,,,,170
1,Sergey Zamaliev,Сергей Замалиев,90,M,Raw,No,B,1977-11-15,Pro Masters 40-44,89,,,,,180,,,180,,,,,180
2,Munkh-Erdene Zundui,,90,M,Raw,No,B,1976-12-08,Pro Masters 40-44,90,,,,,162.5,170,-175,170,,,,,170
3,Aleksandr Vetrov,Александр Ветров,90,M,Raw,No,B,1976-11-11,Pro Masters 40-44,88.2,,,,,145,-155,155,155,,,,,155
1,Vitaliy Chernyavskiy,Виталий Чернявский,100,M,Raw,No,B,1972-10-10,Pro Open,98.6,,,,,200,-210,,200,,,,,200
2,Amarzaya Taivantumur,,100,M,Raw,No,B,1987-08-02,Pro Open,100,,,,,185,-200,,185,,,,,185
3,Sergey Annenkov,Сергей Анненков,100,M,Raw,No,B,1958-04-11,Pro Open,97.9,,,,,165,-170,-170,165,,,,,165
4,Roman Stepanov,Роман Степанов,100,M,Raw,No,B,1994-06-10,Pro Open,96,,,,,145,155,-165,155,,,,,155
5,Pavel Yuferov,Павел Юферов,100,M,Raw,No,B,1985-05-09,Pro Open,98,,,,,150,-157.5,-157.5,150,,,,,150
1,Vitaliy Chernyavskiy,Виталий Чернявский,100,M,Raw,No,B,1972-10-10,Pro Masters 45-49,98.6,,,,,200,-210,,200,,,,,200
1,Sergey Annenkov,Сергей Анненков,100,M,Raw,No,B,1958-04-11,Pro Masters 60-64,97.9,,,,,165,-170,-170,165,,,,,165
1,Aleksandr Berlo,Александр Берло,110,M,Raw,No,B,1976-01-06,Pro Open,102.5,,,,,170,180,-190,180,,,,,180
1,Aleksandr Berlo,Александр Берло,110,M,Raw,No,B,1976-01-06,Pro Masters 40-44,102.5,,,,,170,180,-190,180,,,,,180
1,Evgeniy Yudintsev,Евгений Юдинцев,125,M,Raw,No,B,1995-05-09,Pro Juniors 20-23,120,,,,,170,180,187.5,187.5,,,,,187.5
1,Ivan Marchenko,Иван Марченко,125,M,Raw,No,B,1987-08-02,Pro Open,121.1,,,,,200,207.5,215,215,,,,,215
2,Aleksandr Shestunov,Александр Шестунов,125,M,Raw,No,B,1981-04-03,Pro Open,118.7,,,,,192.5,205,210,210,,,,,210
3,Igor Altshuler,Игорь Альтшулер,125,M,Raw,No,B,1974-11-15,Pro Open,120.8,,,,,200,-210,-210,200,,,,,200
4,Evgeniy Yudintsev,Евгений Юдинцев,125,M,Raw,No,B,1995-05-09,Pro Open,120,,,,,170,180,187.5,187.5,,,,,187.5
1,Andrey Cherepanov,Андрей Черепанов,90,M,Single-ply,No,B,1980-04-16,Pro Open,89.1,,,,,215,225,-235,225,,,,,225
1,Igor Umerenkov,Игорь Умеренков,110,M,Single-ply,Yes,D,1980-09-13,Amateur Open,110,,,,,,,,,280,300,,300,300
1,Irina Prokhorova,Ирина Прохорова,56,F,Raw,Yes,D,1987-10-11,Amateur Open,54.8,,,,,,,,,130,140,-142.5,140,140
1,Vladimir Isaev,Владимир Исаев,56,M,Raw,Yes,D,2001-10-16,Amateur Teen 16-17,53.8,,,,,,,,,135,142.5,145,145,145
1,Ivan Shadrin,Иван Шадрин,67.5,M,Raw,Yes,D,2003-03-11,Amateur Teen 16-17,66.7,,,,,,,,,150,160,170,170,170
1,Aleksandr Chumlyakov,Александр Чумляков,67.5,M,Raw,Yes,D,1992-11-20,Amateur Open,66.2,,,,,,,,,145,155,-165,155,155
1,Sergey Goncharenko,Сергей Гончаренко,90,M,Raw,Yes,D,1985-10-10,Amateur Open,90,,,,,,,,,222.5,232.5,-242.5,232.5,232.5
2,Aleksandr Alekseev,Александр Алексеев,90,M,Raw,Yes,D,1980-11-23,Amateur Open,89.6,,,,,,,,,190,222.5,,222.5,222.5
1,Petr Battakhov,Петр Баттахов,100,M,Raw,Yes,D,1952-04-21,Amateur Masters 65-69,97.1,,,,,,,,,180,205,-210,205,205
1,Anton Bardin,Антон Бардин,140,M,Raw,Yes,D,1990-11-17,Amateur Open,138.4,,,,,,,,,332.5,345,-355,345,345
1,Vladislava Khoda,Владислава Хода,52,F,Raw,No,D,2002-05-26,Pro Teen 16-17,51.4,,,,,,,,,85,95,100,100,100
DQ,Svetlana Okuneva,Светлана Окунева,56,F,Raw,No,D,1986-04-27,Pro Open,53.8,,,,,,,,,-85,-85,,,
1,Dmitriy Sidorov,Дмитрий Сидоров,82.5,M,Raw,No,D,1994-06-25,Pro Open,80.9,,,,,,,,,140,150,-155,150,150
1,Nikolay Matannanov,Николай Матаннанов,82.5,M,Raw,No,D,1952-10-22,Pro Masters 65-69,81,,,,,,,,,120,140,150,150,150
1,Eduard Vorobev,Эдуард Воробьев,90,M,Raw,No,D,2001-04-20,Pro Teen 16-17,85.8,,,,,,,,,180,202.5,210,210,210
1,Aleksey Ermachenkov,Алексей Ермаченков,90,M,Raw,No,D,1993-09-24,Pro Open,89.8,,,,,,,,,220,230,-240,230,230
1,Aleksandr Vetrov,Александр Ветров,90,M,Raw,No,D,1976-11-11,Pro Masters 40-44,88.2,,,,,,,,,150,165,-180,165,165
1,Nikita Zelenin,Никита Зеленин,125,M,Raw,No,D,1996-06-26,Pro Open,124.6,,,,,,,,,330,-355,-355,330,330
2,Aleksandr Shestunov,Александр Шестунов,125,M,Raw,No,D,1981-04-03,Pro Open,118.7,,,,,,,,,290,305,-315,305,305
