Place,WeightClassKg,Sex,Division,Name,BirthYear,Country,BodyweightKg,Best3SquatKg,Best3BenchKg,Best3DeadliftKg,TotalKg,Event,Equipment
1,52,F,Masters 1,Hisako Yoshida,1951,Japan,47.55,132.5,65,135,332.5,SBD,Single-ply
2,52,F,Masters 1,Carol Scott-Todd,,Australia,50.8,97.5,55,130,282.5,SBD,Single-ply
3,52,F,Masters 1,Eila Kumpuniemi,1942,Finland,51.25,100,57.5,125,282.5,SBD,Single-ply
4,52,F,Masters 1,C. Hayworth,,USA,48.8,72.5,45,112.5,230,SBD,Single-ply
DQ,52,F,Masters 1,Pam Cutjar,1948,Australia,47,95,45,,,SBD,Single-ply
1,67.5,F,Masters 1,Tonny Harms,1950,Netherlands,59.55,155,75,177.5,407.5,SBD,Single-ply
2,67.5,F,Masters 1,Anita Thimm,1950,Germany,54.55,115,65,157.5,337.5,SBD,Single-ply
3,67.5,F,Masters 1,Tinje Koppen,1940,Netherlands,65.85,145,82.5,160,387.5,SBD,Single-ply
4,67.5,F,Masters 1,W. Wright,,USA,63.6,120,55,150,325,SBD,Single-ply
5,67.5,F,Masters 1,Marsah Serre,1946,USA,66.7,120,50,152.5,322.5,SBD,Single-ply
6,67.5,F,Masters 1,P. Hancock,,Australia,67.35,120,55,130,305,SBD,Single-ply
1,67.5+,F,Masters 1,Joke van der Meulen,1951,Netherlands,70.4,170,77.5,165,412.5,SBD,Single-ply
2,67.5+,F,Masters 1,Gretchen Buerki,,USA,85,142.5,80,172.5,395,SBD,Single-ply
3,67.5+,F,Masters 1,Joke Johnson,,New Zealand,99.6,175,62.5,180,417.5,SBD,Single-ply
4,67.5+,F,Masters 1,S. Oldham,,USA,73.3,127.5,60,152.5,340,SBD,Single-ply
5,67.5+,F,Masters 1,Fukuko Itoh,,Japan,98.3,150,85,150,385,SBD,Single-ply
6,67.5+,F,Masters 1,H. Arbuthnott,,Australia,98.25,145,75,130,350,SBD,Single-ply
DQ,67.5+,F,Masters 1,M. Reardon,,Australia,68.35,127.5,,,,SBD,Single-ply
1,52,M,Masters 1,Yoshihiro Furuyama,,Japan,,125,87.5,182.5,395,SBD,Single-ply
2,52,M,Masters 1,Takao Kato,1950,Japan,,145,67.5,180,392.5,SBD,Single-ply
3,52,M,Masters 1,K. Gorman,,UK,,127.5,95,155,377.5,SBD,Single-ply
4,52,M,Masters 1,H. Surty,,India,,125,87.5,145,357.5,SBD,Single-ply
DQ,52,M,Masters 1,Alex Galant,1947,USA,,,,,,SBD,Single-ply
1,56,M,Masters 1,Hidetoshi Marumoto,1947,Japan,,187.5,102.5,190,480,SBD,Single-ply
2,56,M,Masters 1,Freddie Higgins,,USA,,160,132.5,182.5,475,SBD,Single-ply
3,56,M,Masters 1,Andre Servant,1950,France,,147.5,95,210,452.5,SBD,Single-ply
1,60,M,Masters 1,Lasrs Flyborg,,Sweden,,195,107.5,195,497.5,SBD,Single-ply
2,60,M,Masters 1,Len Skeen,,Australia,,160,105,200,465,SBD,Single-ply
3,60,M,Masters 1,L. Hand,,Australia,,157.5,90,210,457.5,SBD,Single-ply
4,60,M,Masters 1,Jeff Smith,,New Zealand,,150,100,180,430,SBD,Single-ply
5,60,M,Masters 1,I. Jacobs,,Papua New Guinea,,130,90,180,400,SBD,Single-ply
6,60,M,Masters 1,Joachim Lietzau,1950,Germany,,125,110,145,380,SBD,Single-ply
1,67.5,M,Masters 1,Hui-Tang Weng,,Taiwan,,220,127.5,245,592.5,SBD,Single-ply
2,67.5,M,Masters 1,Ken Lam,1949,Canada,,210,130,240,580,SBD,Single-ply
3,67.5,M,Masters 1,D. Gordet,,France,,190,100,235,525,SBD,Single-ply
4,67.5,M,Masters 1,M. Briston,,Australia,,185,110,220,515,SBD,Single-ply
5,67.5,M,Masters 1,S. Soni,,India,,175,115,200,490,SBD,Single-ply
6,67.5,M,Masters 1,Burkhard Steffen,1950,Germany,,190,120,160,470,SBD,Single-ply
1,75,M,Masters 1,Charles Archdekin,1951,Canada,,235,162.5,255,652.5,SBD,Single-ply
2,75,M,Masters 1,Wilfried Dörner,1952,Germany,,235,152.5,230,617.5,SBD,Single-ply
3,75,M,Masters 1,Herbert Haas,,Austria,,225,160,230,615,SBD,Single-ply
4,75,M,Masters 1,Asko Jylhä,,Finland,,230,130,240,600,SBD,Single-ply
5,75,M,Masters 1,Wilbur Harding,1947,Canada,,212.5,142.5,225,580,SBD,Single-ply
6,75,M,Masters 1,R. Brown #1,,Australia,,200,150,225,575,SBD,Single-ply
7,75,M,Masters 1,Gordon Olson,,USA,,220,120,227.5,567.5,SBD,Single-ply
8,75,M,Masters 1,Andrei Shinkarenko,,Australia,,160,90,205,455,SBD,Single-ply
DQ,75,M,Masters 1,Terje Brovold,1945,Norway,,220,135,,,SBD,Single-ply
1,82.5,M,Masters 1,Kevin Judson,,New Zealand,,290,180,290,760,SBD,Single-ply
2,82.5,M,Masters 1,Tatsufumi Nakao,1948,Japan,,265,162.5,262.5,690,SBD,Single-ply
3,82.5,M,Masters 1,C. Barnett,,Australia,,217.5,115,237.5,570,SBD,Single-ply
4,82.5,M,Masters 1,T. McDonald,,Australia,,215,100,250,565,SBD,Single-ply
5,82.5,M,Masters 1,Frank Ramirez,,USA,,205,122.5,192.5,520,SBD,Single-ply
6,82.5,M,Masters 1,Rex Tait,,New Zealand,,190,107.5,217.5,515,SBD,Single-ply
7,82.5,M,Masters 1,Rick Archdekin,1948,Canada,,200,110,205,515,SBD,Single-ply
8,82.5,M,Masters 1,S. Malhotra,,India,,190,105,205,500,SBD,Single-ply
9,82.5,M,Masters 1,V. Kumar,,India,,160,105,170,435,SBD,Single-ply
DQ,82.5,M,Masters 1,L. Hombul,,Papua New Guinea,,,,,,SBD,Single-ply
DQ,82.5,M,Masters 1,Mike VanCleave,,USA,,,,,,SBD,Single-ply
1,90,M,Masters 1,Atle Edvardsen,1951,Norway,,287.5,172.5,285,745,SBD,Single-ply
2,90,M,Masters 1,Harrie van den Brand,1946,Netherlands,,270,160,270,700,SBD,Single-ply
3,90,M,Masters 1,Ken Fougere,1952,Canada,,267.5,160,262.5,690,SBD,Single-ply
4,90,M,Masters 1,T. Cox,,Australia,,245,150,285,680,SBD,Single-ply
5,90,M,Masters 1,Jonny Wall,1945,Sweden,,260,145,262.5,667.5,SBD,Single-ply
6,90,M,Masters 1,Gilles Mengual,1951,France,,260,150,245,655,SBD,Single-ply
7,90,M,Masters 1,Anton Bärnthaler,,Australia,,265,125,255,645,SBD,Single-ply
DQ,90,M,Masters 1,M. Kashihara,,Japan,,,,,,SBD,Single-ply
1,100,M,Masters 1,Marty Gallagher,1950,USA,,292.5,155,282.5,730,SBD,Single-ply
2,100,M,Masters 1,Henk Keizer,1946,Netherlands,,280,160,280,720,SBD,Single-ply
3,100,M,Masters 1,Nat Washington,1948,USA,,267.5,155,280,702.5,SBD,Single-ply
4,100,M,Masters 1,Tony Baker,1944,UK,,230,177.5,270,677.5,SBD,Single-ply
5,100,M,Masters 1,D. Eckstrom,,Canada,,235,170,225,630,SBD,Single-ply
6,100,M,Masters 1,R. Kanchan,,India,,240,135,237.5,612.5,SBD,Single-ply
7,100,M,Masters 1,W. Harrison,,New Zealand,,195,140,245,580,SBD,Single-ply
8,100,M,Masters 1,K. Boatwood,,Australia,,220,145,215,580,SBD,Single-ply
1,110,M,Masters 1,Ferry van der Meulen,1947,Netherlands,,305,192.5,300,797.5,SBD,Single-ply
2,110,M,Masters 1,Graham Eldridge,,Canada,,302.5,190,292.5,785,SBD,Single-ply
3,110,M,Masters 1,Lanny Shepard,1947,USA,,250,155,295,700,SBD,Single-ply
4,110,M,Masters 1,Chuck Leviner,,USA,,250,157.5,290,697.5,SBD,Single-ply
5,110,M,Masters 1,L. Latu,,Australia,,270,155,270,695,SBD,Single-ply
6,110,M,Masters 1,Susumu Yoshida,1950,Japan,,255,170,255,680,SBD,Single-ply
7,110,M,Masters 1,C. Lopez,,Brazil,,250,190,240,680,SBD,Single-ply
8,110,M,Masters 1,P. Beyer,,Australia,,245,155,245,645,SBD,Single-ply
9,110,M,Masters 1,Tapio Ruohonen,1950,Finland,,205,152.5,242.5,600,SBD,Single-ply
1,125,M,Masters 1,Sonny Alexander,,Canada,,285,170,267.5,722.5,SBD,Single-ply
2,125,M,Masters 1,Daniel Smague,1947,France,,275,165,275,715,SBD,Single-ply
3,125,M,Masters 1,Pierre Daniel Dewas,1945,France,,280,152.5,272.5,705,SBD,Single-ply
4,125,M,Masters 1,Bill Slish,,USA,,250,127.5,245,622.5,SBD,Single-ply
5,125,M,Masters 1,Stan Hallmond,,New Zealand,,240,160,220,620,SBD,Single-ply
DQ,125,M,Masters 1,J. Östby,,Sweden,,,,,,SBD,Single-ply
1,125+,M,Masters 1,Richard Nowazek,1950,Canada,,300,227.5,235,762.5,SBD,Single-ply
2,125+,M,Masters 1,Matti Tanskanen,1947,Finland,,290,190,270,750,SBD,Single-ply
3,125+,M,Masters 1,Knut Åsvang,,Norway,,270,177.5,260,707.5,SBD,Single-ply
4,125+,M,Masters 1,Georg Boström,1947,Sweden,,255,165,250,670,SBD,Single-ply
DQ,125+,M,Masters 1,Karl Bivans,,USA,,,,,,SBD,Single-ply
1,52,M,Masters 2,Jagannou Dutta,,India,,150,82.5,150,382.5,SBD,Single-ply
2,52,M,Masters 2,Johnny Taylor,,Australia,,100,50,137.5,287.5,SBD,Single-ply
1,56,M,Masters 2,Hiraku Fushimi,1937,Japan,,145,121,170,436,SBD,Single-ply
2,56,M,Masters 2,Sunny Jellema,1939,Netherlands,,142.5,90,170,402.5,SBD,Single-ply
3,56,M,Masters 2,Tamotsu Ishikawa,1941,Japan,,125,70,145,340,SBD,Single-ply
1,60,M,Masters 2,Roger Powell,1936,UK,,185,100,230,515,SBD,Single-ply
2,60,M,Masters 2,Precious McKenzie,1936,UK,,175,125,215,515,SBD,Single-ply
1,67.5,M,Masters 2,Viljo Karvinen,1936,Finland,,190,130,230,550,SBD,Single-ply
2,67.5,M,Masters 2,Robert Cortes,1930,USA,,172.5,127.5,220,520,SBD,Single-ply
3,67.5,M,Masters 2,G. Morrissey,,Australia,,160,85,165,410,SBD,Single-ply
4,67.5,M,Masters 2,Roy Mason,1918,USA,,110,37.5,200,347.5,SBD,Single-ply
5,67.5,M,Masters 2,Vladimir Younger,,Australia,,100,70,150,320,SBD,Single-ply
1,75,M,Masters 2,Woody McCullough,1938,Canada,,217.5,125,232.5,575,SBD,Single-ply
2,75,M,Masters 2,Masayuki Suzuki,1939,Japan,,205,150,215,570,SBD,Single-ply
3,75,M,Masters 2,Seppo Tiri,1939,Finland,,195,140,205,540,SBD,Single-ply
4,75,M,Masters 2,J. Higgins,,UK,,177.5,112.5,192.5,482.5,SBD,Single-ply
5,75,M,Masters 2,Maurice Craggs,,Australia,,170,87.5,192.5,450,SBD,Single-ply
6,75,M,Masters 2,G. Connolly,,Australia,,145,75,197.5,417.5,SBD,Single-ply
DQ,75,M,Masters 2,Kip Hughs,,USA,,,,,,SBD,Single-ply
1,82.5,M,Masters 2,Precious Wilson,,USA,,230,147.5,227.5,605,SBD,Single-ply
2,82.5,M,Masters 2,Albert Mombert,1939,Belgium,,215,137.5,237.5,590,SBD,Single-ply
3,82.5,M,Masters 2,Arvo Reponen,,Finland,,235,130,210,575,SBD,Single-ply
4,82.5,M,Masters 2,Charles Crawford,1939,UK,,220,102.5,235,557.5,SBD,Single-ply
5,82.5,M,Masters 2,Lynton Lam,1941,Canada,,185,110,225,520,SBD,Single-ply
6,82.5,M,Masters 2,D. Marshall,,New Zealand,,180,135,190,505,SBD,Single-ply
7,82.5,M,Masters 2,O. Acron,,Australia,,170,105,190,465,SBD,Single-ply
8,82.5,M,Masters 2,Chris Holt,,Australia,,140,85,160,385,SBD,Single-ply
DD,82.5,M,Masters 2,Esko Ketola,1941,Finland,,,,,,SBD,Single-ply
1,90,M,Masters 2,Veli Kumpuniemi,1932,Finland,,220,147.5,277.5,645,SBD,Single-ply
2,90,M,Masters 2,Patrick Spillane,,Australia,,220,110,277.5,607.5,SBD,Single-ply
3,90,M,Masters 2,Clarry Parsons,,New Zealand,,235,125,245,605,SBD,Single-ply
4,90,M,Masters 2,Bob Strange,,USA,,210,137.5,240,587.5,SBD,Single-ply
DQ,90,M,Masters 2,Jasinto Molina,1934,Spain,,,,,,SBD,Single-ply
1,100,M,Masters 2,Truls Kristensen,1940,Norway,,230,145,225,600,SBD,Single-ply
DQ,100,M,Masters 2,Jimmy Huckabay,,USA,,,,,,SBD,Single-ply
DQ,100,M,Masters 2,Robert Rood,,USA,,,,,,SBD,Single-ply
1,110,M,Masters 2,John Mihaka,,Australia,,260,132.5,250,642.5,SBD,Single-ply
2,110,M,Masters 2,Kurt Freyer,1941,USA,,215,130,215,560,SBD,Single-ply
3,110,M,Masters 2,Jan Monstad,1933,Norway,,190,70,225,485,SBD,Single-ply
1,125,M,Masters 2,Päiviö Säätelä,1936,Finland,,232.5,170,272.5,675,SBD,Single-ply
2,125,M,Masters 2,Olavi Erola,1936,Finland,,235,135,240,610,SBD,Single-ply
