Event,Sex,Name,State,BodyweightKg,WeightClassKg,Division,Best3SquatKg,Best3BenchKg,Best3DeadliftKg,TotalKg,Equipment,Place
SBD,M,Philippe Bertin,QC,82.6,90,Juniors,185.0,107.5,195.0,487.5,Single-ply,1
SBD,M,Gabriel Festing,BC,73.6,75,Juniors,230.0,155.0,240.0,625.0,Single-ply,1
SBD,M,Robin Hillier,NL,66.7,67.5,Juniors,195.0,117.5,200.0,512.5,Single-ply,2
SBD,M,Marc Filiba,MB,65.2,67.5,Juniors,187.5,125.0,207.5,520.0,Single-ply,1
SBD,M,Maltais Bruno,QC,121.5,125,Juniors,232.5,160.0,250.0,642.5,Single-ply,1
SBD,M,Guy Charest,QC,104.5,110,Juniors,180.0,137.5,240.0,557.5,Single-ply,1
